Division,WeightClassKg,Place,Name,Team,BodyweightKg,Best3SquatKg,Best3BenchKg,Best3DeadliftKg,TotalKg,Equipment,Event,Sex
Boys,51.71,1,Calvin Ford,Burleson,51.07,136.08,86.18,172.37,394.63,Single-ply,SBD,M
Boys,55.79,2,Austin Norden,Waco Midway,51.94,147.42,81.65,165.56,394.63,Single-ply,SBD,M
Boys,51.71,3,Alex Wright,Killeen Harker Heights,51.35,138.35,90.72,156.49,385.55,Single-ply,SBD,M
Boys,51.71,4,Nico Lopez,Belton,49.99,122.47,68.04,147.42,337.93,Single-ply,SBD,M
Boys,51.71,5,Sergio Valenzvela,Belton,51.44,131.54,61.23,124.74,317.51,Single-ply,SBD,M
Boys,51.71,6,Aaron Terry,College Station A&M Cons,51.62,115.67,58.97,131.54,306.17,Single-ply,SBD,M
Boys,51.71,7,Shyrod Anderson,Cleburne,51.35,108.86,54.43,140.61,303.91,Single-ply,SBD,M
Boys,51.71,8,Clint Lott,Waco Midway,50.71,122.47,61.23,113.4,297.1,Single-ply,SBD,M
Boys,51.71,9,Ramirez Josh,Kyle Lehman,50.71,104.33,63.5,124.74,292.57,Single-ply,SBD,M
Boys,51.71,DQ,Isaac Gonzalez,Austin Akins,51.71,,,,,Single-ply,SBD,M
Boys,51.71,DQ,Chris Ramirez,Lampasas,51.44,97.52,,,,Single-ply,SBD,M
Boys,55.79,1,Marcus Manley,Del Valle,54.7,185.97,90.72,170.1,446.79,Single-ply,SBD,M
Boys,55.79,2,Brandon Alford,Kyle Lehman,55.7,154.22,81.65,181.44,417.3,Single-ply,SBD,M
Boys,55.79,3,Edward Castaneda,Waco Midway,54.52,145.15,74.84,161.03,381.02,Single-ply,SBD,M
Boys,55.79,4,Forrest Warren,Georgetown,54.88,149.69,68.04,156.49,374.21,Single-ply,SBD,M
Boys,55.79,5,Arce Esidro,Lampasas,54.98,115.67,72.57,138.35,326.59,Single-ply,SBD,M
Boys,55.79,6,Greg Palmour,Belton,55.16,115.67,79.38,131.54,326.59,Single-ply,SBD,M
Boys,55.79,DQ,Adrian Armstrong,Killeen Harker Heights,55.79,,,,,Single-ply,SBD,M
Boys,55.79,DQ,Ray Lopez,Granbury,55.79,,,,,Single-ply,SBD,M
Boys,55.79,DQ,Colton Bedford,Burleson,54.52,,,,,Single-ply,SBD,M
Boys,59.87,DQ,Kevion Harris,Pflugerville Connally,56.02,,,,,Single-ply,SBD,M
Boys,59.87,DQ,Jeremy Gamel,Pflugerville Hendrickson,56.02,124.74,,,,Single-ply,SBD,M
Boys,59.87,1,Jealious Ordinallo,Pflugerville Connally,59.78,163.29,104.33,197.31,464.93,Single-ply,SBD,M
Boys,59.87,2,Rolando Salazar,Belton,58.79,161.03,88.45,199.58,449.06,Single-ply,SBD,M
Boys,59.87,3,Zerrick Merchant,College Station A&M Cons,58.69,165.56,97.52,183.7,446.79,Single-ply,SBD,M
Boys,59.87,4,Jacob Torres,Kyle Lehman,59.06,151.95,104.33,190.51,446.79,Single-ply,SBD,M
Boys,59.87,5,Matt Hall,Copperas Cove,59.42,161.03,92.99,172.37,426.38,Single-ply,SBD,M
Boys,59.87,6,Brandon Scott #4,Kyle Lehman,59.51,149.69,88.45,183.7,421.84,Single-ply,SBD,M
Boys,59.87,7,Tyler Hickman,Joshua,59.51,140.61,99.79,156.49,396.89,Single-ply,SBD,M
Boys,59.87,8,Zach Cheyne,College Station A&M Cons,59.42,142.88,74.84,172.37,390.09,Single-ply,SBD,M
Boys,59.87,DQ,Zac Bryant,Lampasas,59.78,,,,,Single-ply,SBD,M
Boys,59.87,DQ,Morgan Kirkpatrick,Granbury,59.78,161.03,90.72,,,Single-ply,SBD,M
Boys,67.13,1,Kevin Atherton,Belton,66.13,204.12,136.08,208.65,548.85,Single-ply,SBD,M
Boys,67.13,2,Kristian Cogdill,San Marcos,66.32,208.65,124.74,199.58,532.97,Single-ply,SBD,M
Boys,67.13,3,Greg Simpson,Cleburne,65.23,174.63,113.4,185.97,474,Single-ply,SBD,M
Boys,67.13,4,Daniel Nieto,San Marcos,66.04,170.1,124.74,179.17,474,Single-ply,SBD,M
Boys,67.13,5,Justin Maniqualt,Lampasas,66.86,165.56,104.33,195.04,464.93,Single-ply,SBD,M
Boys,67.13,6,Riley Martinez,College Station A&M Cons,66.32,176.9,102.06,170.1,449.06,Single-ply,SBD,M
Boys,67.13,7,Jared Clark,Burleson,65.68,165.56,95.25,165.56,426.38,Single-ply,SBD,M
Boys,67.13,DQ,Josefas Martinez,Round Rock,66.86,,,,,Single-ply,SBD,M
Boys,67.13,DQ,William Robinson,Round Rock,66.5,,,,,Single-ply,SBD,M
Boys,74.84,1,Dominique Hardaway,Lockhart,74.75,278.96,151.95,288.03,718.94,Single-ply,SBD,M
Boys,74.84,2,John Monreal,Del Valle,72.76,233.6,138.35,222.26,594.21,Single-ply,SBD,M
Boys,74.84,3,Jon Frasier,Kyle Lehman,70.58,208.65,136.08,210.92,555.65,Single-ply,SBD,M
Boys,74.84,4,Cedrick McCan,College Station A&M Cons,72.21,213.19,117.93,222.26,553.38,Single-ply,SBD,M
Boys,74.84,5,Dylan Byrd,Joshua,70.58,204.12,129.27,199.58,532.97,Single-ply,SBD,M
Boys,74.84,6,Joe Waithaka,College Station A&M Cons,74.48,188.24,124.74,192.78,505.76,Single-ply,SBD,M
Boys,74.84,7,Josh Rodriguez,Stephenville,73.03,190.51,111.13,201.85,503.49,Single-ply,SBD,M
Boys,74.84,8,Dominique Robinson,Waco Midway,68.22,179.17,106.59,213.19,498.95,Single-ply,SBD,M
Boys,74.84,DQ,Nathan Nicholas,Burleson,74.3,192.78,142.88,,,Single-ply,SBD,M
Boys,74.84,DQ,Jonas Lanier,Killeen Harker Heights,72.48,,,,,Single-ply,SBD,M
Boys,82.1,1,Brandon Fisher,Round Rock,78.11,276.69,138.35,260.82,675.85,Single-ply,SBD,M
Boys,82.1,2,Theo Hollars,Burleson,77.93,233.6,124.74,272.16,630.49,Single-ply,SBD,M
Boys,82.1,3,James Perry #1,Manor,80.47,238.14,147.42,226.8,612.35,Single-ply,SBD,M
Boys,82.1,4,Cj Goins,Killeen Harker Heights,80.65,226.8,136.08,249.48,612.35,Single-ply,SBD,M
Boys,82.1,5,Pablo Nieto,San Marcos,79.47,235.87,133.81,219.99,589.67,Single-ply,SBD,M
Boys,82.1,6,Jonne Warnstaff,Waco Midway,81.1,229.06,131.54,229.06,589.67,Single-ply,SBD,M
Boys,82.1,7,Jc Landers,Stephenville,80.47,215.46,131.54,208.65,555.65,Single-ply,SBD,M
Boys,82.1,DQ,Vishal Singh,San Marcos Baptist,78.38,,,,,Single-ply,SBD,M
Boys,82.1,DQ,Nii Tagoe,Pflugerville Connally,80.47,,,,,Single-ply,SBD,M
Boys,82.1,DQ,Lawrence Brite,Lockhart,81.1,213.19,,,,Single-ply,SBD,M
Boys,89.81,1,Dallas Glass,Elgin,87.72,238.14,156.49,242.67,637.3,Single-ply,SBD,M
Boys,89.81,2,Chris Cesar,College Station A&M Cons,85.37,242.67,156.49,235.87,635.03,Single-ply,SBD,M
Boys,89.81,3,Stefan Arias,Burleson,86.82,249.48,149.69,226.8,625.96,Single-ply,SBD,M
Boys,89.81,4,Reggie Brooks,Burleson,87.36,226.8,145.15,244.94,616.89,Single-ply,SBD,M
Boys,89.81,5,Jerikhoal Alvarez,Temple,88.45,229.06,136.08,240.4,605.55,Single-ply,SBD,M
Boys,89.81,6,Scott Scarbrough,Burleson,86.82,219.99,142.88,240.4,603.28,Single-ply,SBD,M
Boys,89.81,7,Cody Cronauer,Dripping Springs,89.54,226.8,147.42,226.8,601.01,Single-ply,SBD,M
Boys,89.81,DQ,Leo Castro,Elgin,86.36,229.06,,,,Single-ply,SBD,M
Boys,89.81,DQ,Andrew Mitchell,Marble Falls,86.36,,,,,Single-ply,SBD,M
Boys,89.81,DQ,Michael Price,Stephenville,85.82,,,,,Single-ply,SBD,M
Boys,99.79,1,David Garza,Kyle Lehman,96.07,263.08,183.7,244.94,691.73,Single-ply,SBD,M
Boys,99.79,2,Jesse Hernandez,Granbury,97.52,263.08,147.42,254.01,664.51,Single-ply,SBD,M
Boys,99.79,3,Jared Hallman,Round Rock McNeil,96.62,222.26,149.69,285.76,657.71,Single-ply,SBD,M
Boys,99.79,4,Logan Bradshaw,Round Rock,96.8,267.62,149.69,226.8,644.1,Single-ply,SBD,M
Boys,109.77,5,Zach Spires,Dripping Springs,99.93,254.01,140.61,219.99,614.62,Single-ply,SBD,M
Boys,99.79,6,Caleb Gardner,Austin Bowie,93.08,226.8,140.61,226.8,594.21,Single-ply,SBD,M
Boys,99.79,7,Randall Jones,Elgin,91.99,204.12,136.08,247.21,587.4,Single-ply,SBD,M
Boys,99.79,8,Aiavron Edwards,Stephenville,92.99,226.8,133.81,215.46,576.06,Single-ply,SBD,M
Boys,99.79,9,Michael Stanley #3,Burleson,97.89,222.26,145.15,204.12,571.53,Single-ply,SBD,M
Boys,99.79,DQ,Travis Fair,Granbury,96.98,242.67,145.15,,,Single-ply,SBD,M
Boys,109.77,1,James Revada,Pflugerville Connally,107.14,265.35,158.76,240.4,664.51,Single-ply,SBD,M
Boys,109.77,2,Ricky Alvarez,Belton,103.42,272.16,149.69,240.4,662.24,Single-ply,SBD,M
Boys,109.77,3,Caden Walker,College Station A&M Cons,109.04,240.4,172.37,226.8,639.57,Single-ply,SBD,M
Boys,109.77,4,Christian Barry,Waco Midway,107.95,254.01,147.42,233.6,635.03,Single-ply,SBD,M
Boys,109.77,5,Derrick Ellsworth,Burleson,108.77,238.14,154.22,242.67,635.03,Single-ply,SBD,M
Boys,109.77,6,Nick Poole,Buda Hays,106.5,242.67,154.22,206.38,603.28,Single-ply,SBD,M
Boys,109.77,7,Derrick Carrington,Burleson,108.23,249.48,136.08,204.12,589.67,Single-ply,SBD,M
Boys,109.77,8,Austin Melvin,Stephenville,100.7,199.58,136.08,244.94,580.6,Single-ply,SBD,M
Boys,109.77,9,Dillon Smith,College Station A&M Cons,106.96,240.4,111.13,229.06,580.6,Single-ply,SBD,M
Boys,109.77,DQ,Colby Kaasch,Round Rock,108.77,,,,,Single-ply,SBD,M
Boys,124.74,1,Xavier Mitchell,Waco University,123.92,274.42,174.63,260.82,709.87,Single-ply,SBD,M
Boys,124.74,2,Easton Evans,Waco University,118.57,285.76,163.29,249.48,698.53,Single-ply,SBD,M
Boys,124.74,3,Savon Thomas,Pflugerville,116.03,272.16,156.49,263.08,691.73,Single-ply,SBD,M
Boys,124.74,4,Jj Bynum,College Station A&M Cons,119.2,276.69,161.03,254.01,691.73,Single-ply,SBD,M
Boys,124.74,5,Rico Lopez,Del Valle,114.49,226.8,140.61,240.4,607.81,Single-ply,SBD,M
Boys,124.74,6,Dj Vandenberge,Stephenville,119.39,256.28,163.29,185.97,605.55,Single-ply,SBD,M
Boys,124.74,DQ,Quincey Sims,Waco,124.74,,,,,Single-ply,SBD,M
Boys,124.74,DQ,Ben Dammers,Stephenville,118.21,229.06,,,,Single-ply,SBD,M
Boys,124.74,DQ,Nick Perez,Stephenville,111.86,,,,,Single-ply,SBD,M
Boys,124.74,DQ,Stephen Honeywood,Belton,117.3,272.16,142.88,,,Single-ply,SBD,M
Boys,124.74+,1,Xavier Johnson #1,Burleson,139.89,260.82,179.17,274.42,714.41,Single-ply,SBD,M
Boys,124.74+,2,Dion Turner,Lockhart,150.32,258.55,206.38,238.14,703.07,Single-ply,SBD,M
Boys,124.74+,3,Russell Cole,Stephenville,125.01,256.28,174.63,233.6,664.51,Single-ply,SBD,M
Boys,124.74+,4,Daniel Bass,Temple,125.83,272.16,156.49,226.8,655.44,Single-ply,SBD,M
Boys,124.74+,5,Josh Foster,Lockhart,136.08,254.01,156.49,240.4,650.91,Single-ply,SBD,M
Boys,124.74+,6,DeVontae Robinson,Pflugerville Hendrickson,129.55,258.55,161.03,226.8,646.37,Single-ply,SBD,M
Boys,124.74+,7,Cyril Lemon,Marble Falls,143.34,254.01,124.74,242.67,621.42,Single-ply,SBD,M
Boys,124.74+,8,Matt Wilson,Austin Bowie,134.26,249.48,145.15,217.72,612.35,Single-ply,SBD,M
Boys,124.74+,DQ,Landon Boffman,Waco,136.08,,,,,Single-ply,SBD,M
Boys,124.74+,DQ,Alex Fitzgerald,Round Rock,129.73,,,,,Single-ply,SBD,M
Boys,124.74+,DQ,Bobby Lynch,Burleson,135.81,219.99,170.1,,,Single-ply,SBD,M
