Place,Division,Event,Equipment,JapaneseName,Name,Team,BirthYear,Sex,BodyweightKg,WeightClassKg,Squat1Kg,Squat2Kg,Squat3Kg,Bench1Kg,Bench2Kg,Bench3Kg,Deadlift1Kg,Deadlift2Kg,Deadlift3Kg,Best3SquatKg,Best3BenchKg,Best3DeadliftKg,TotalKg
1,Open,SBD,Raw,石田 梨沙,,個人,1980,F,45.3,47,50,-57.5,-57.5,35,-40,-40,85,92.5,-100,50,35,92.5,177.5
1,Masters 1,SBD,Raw,波名城 ひとみ,,パワーハウス,1970,F,46.75,47,65,70,72.5,50,55,-60,65,72.5,75,72.5,55,75,202.5
1,Masters 2,SBD,Raw,西川 裕子,,Team Raws,1960,F,46,47,70,-75,-75,40,42.5,-45,90,100,-105,70,42.5,100,212.5
2,Masters 2,SBD,Raw,三木 真紀,,TXP,1966,F,46.35,47,60,65,-67.5,37.5,40,42.5,75,85,-90,65,42.5,85,192.5
3,Masters 2,SBD,Raw,萩原 千史,,Team Raws,1966,F,46.3,47,45,50,-55,27.5,32.5,35,75,85,90,50,35,90,175
1,Masters 4,SBD,Raw,菊入 広子,,パワーハウス,1949,F,46.75,47,75,80,-82.5,47.5,50,52.5,100,110,115,80,52.5,115,247.5
1,Open,SBD,Raw,木村 美英,,個人,1989,F,51.8,52,87.5,92.5,-95,45,50,52.5,130,140,-143,92.5,52.5,140,285
2,Open,SBD,Raw,末永 淑子,,ノーリミッツ,1992,F,51.7,52,65,70,-75,40,-45,-45,92.5,100,105,70,40,105,215
1,Masters 2,SBD,Raw,田坂 朋子,,Team Raws,1966,F,50.4,52,70,75,-80,47.5,52.5,-55,95,105,-110,75,52.5,105,232.5
1,Open,SBD,Raw,袁 哲旦,,個人,1994,F,54.55,57,80,85,-90,40,-45,45,105,115,125,85,45,125,255
2,Open,SBD,Raw,吉澤 和香奈,,パワーハウス,1987,F,56.5,57,80,85,90,40,42.5,-45,90,100,105,90,42.5,105,237.5
3,Open,SBD,Raw,河野 祥子,,TXP,1977,F,54.95,57,60,70,75,30,35,40,70,80,90,75,40,90,205
DQ,Open,SBD,Raw,比留間 マリエ,,個人,1986,F,57,57,-110,120,-125,-65,-70,-70,-110,-110,110,120,-65,110,
1,Masters 2,SBD,Raw,糸 井慈,,Training-studio“Master Mind”,1965,F,56.25,57,42.5,-50,50,30,32.5,-35,70,77.5,80,50,32.5,80,162.5
1,Open,SBD,Raw,篠田 景子,,個人,1990,F,62.1,63,95,105,-118,50,57.5,60,120,130,140,105,60,140,305
2,Open,SBD,Raw,渡邊 瀬里奈,,個人,1994,F,61.9,63,-90,95,100,45,50,-52.5,90,110,122.5,100,50,122.5,272.5
1,Masters 1,SBD,Raw,藤原 真由美,,個人,1972,F,60.7,63,70,75,80,40,45,47.5,90,100,110,80,47.5,110,237.5
1,Open,SBD,Raw,高原 怜子,,個人,1985,F,71.1,72,70,80,-90,45,47.5,50,110,120,130,80,50,130,260
1,Juniors,SBD,Raw,梶原 優花,,個人,1999,F,70.55,72,110,120,-125,40,45,50,80,90,100,120,50,100,270
1,Juniors,SBD,Raw,田中 玲星,,個人,1998,M,52.1,53,60,65,70,87.5,91,95,60,80,90,70,95,90,255
1,Open,SBD,Raw,小林 一貴,,TXP,1982,M,58.45,59,140,150,152.5,110,115,120,190,202.5,210.5,152.5,120,210.5,483
2,Open,SBD,Raw,小林 勉,,個人,1987,M,58.7,59,145,152.5,160,102.5,107.5,-110,170,190,-210,160,107.5,190,457.5
3,Open,SBD,Raw,荒木 雄介,,TEAM RAWS,1982,M,58.35,59,130,145,-153,75,85,90,160,177.5,-185,145,90,177.5,412.5
1,Juniors,SBD,Raw,岩城 晴也,,ノーリミッツ,1996,M,57.95,59,140,147.5,-150,80,85,-90,180,190,-200,147.5,85,190,422.5
2,Juniors,SBD,Raw,池田 健太郎,,個人,1996,M,58.8,59,132.5,-140,,95,-101,-101,191,-200,-201,132.5,95,191,418.5
3,Juniors,SBD,Raw,三浦 一馬,,個人,1996,M,58.6,59,-141,142.5,-150,87.5,92.5,-95,165,172.5,180,142.5,92.5,180,415
4,Juniors,SBD,Raw,神田橋 萌人,,スパインハウス,2000,M,57.9,59,100,110,-125,75,-77.5,77.5,140,-150,,110,77.5,140,327.5
1,Masters 1,SBD,Raw,富田 英吉,,Team Raws(チーム ローズ),1971,M,58.2,59,-125,-135,135,80,85,-87.5,170,182.5,-190,135,85,182.5,402.5
2,Masters 1,SBD,Raw,鈴木 研太郎,,スパインハウス,1975,M,58.75,59,110,-120,120,75,77.5,-80,150,157.5,-165,120,77.5,157.5,355
3,Masters 1,SBD,Raw,木下 裕司,,スパインハウス,1979,M,58.7,59,70,80,95,80,-90,-95,100,-125,,95,80,100,275
1,Masters 2,SBD,Raw,村上 和彦,,個人,1965,M,57.95,59,-135,135,-145,100,-105,105,-175,175,-183,135,105,175,415
1,Masters 3,SBD,Raw,川上 京司,,個人,1950,M,57.9,59,100,110,120,92.5,95,98,135,145,150,120,98,150,368
G,Masters 1,SBD,Raw,輿石 幸紀,,個人,1974,M,53.95,59,85,95,100,85,90,-95,140,150,-155,100,90,150,340
1,Open,SBD,Raw,木村 琢磨,,個人,1984,M,65.5,66,200,-210,210,145,150,-153,220,230,-240,210,150,230,590
2,Open,SBD,Raw,上田 孝道,,個人,1993,M,65.5,66,180,190,200,125,130,-135,220,230,240,200,130,240,570
3,Open,SBD,Raw,槻大 二郎,,個人,1988,M,65.8,66,175,185,190,117.5,127.5,-133,190,202.5,210,190,127.5,210,527.5
4,Open,SBD,Raw,柴崎 亮太郎,,個人,1989,M,65.25,66,140,150,160,130,135,-140,175,185,-195,160,135,185,480
5,Open,SBD,Raw,高野 尚,,個人,1993,M,65.5,66,150,160,170,87.5,97.5,102.5,165,175,185,170,102.5,185,457.5
4,Open,SBD,Raw,クロウ ジョン,,TXP,1984,M,65.8,66,142.5,150,155,82.5,90,-95,180,190,-203,155,90,190,435
5,Open,SBD,Raw,桂田 智章,,個人,1975,M,65.9,66,140,147.5,,105,112.5,-120,160,170,-175,147.5,112.5,170,430
1,Juniors,SBD,Raw,川上 虎己,,大谷塾,1998,M,64.95,66,92.5,100,-105,75,82.5,-87.5,95,110,120,100,82.5,120,302.5
1,Masters 2,SBD,Raw,赤坂 義昭,,チトフナ・パワークラブ,1967,M,64,66,135,-145,-145,100,-105,-105,160,175,-188,135,100,175,410
2,Masters 2,SBD,Raw,杉本 基彰,,Team_Raws,1966,M,65.45,66,130,140,-145,75,80,85,160,175,-190,140,85,175,400
3,Masters 2,SBD,Raw,岸原 慎一,,個人,1969,M,65,66,80,85,-90,-75,80,-85,110,115,120,85,80,120,285
1,Masters 3,SBD,Raw,鈴木 光,,個人,1959,M,65.6,66,100,120,,120,125,-130,100,140,,120,125,140,385
2,Masters 3,SBD,Raw,白川 裕二,,立川泉クラブ,1951,M,65,66,85,95,100,75,80,82.5,95,105,110,100,82.5,110,292.5
1,Open,SBD,Raw,横田 正敏,,TXP,1989,M,73.1,74,200,210,220,135,-142.5,142.5,230,242.5,252.5,220,142.5,252.5,615
2,Open,SBD,Raw,滝田 治之,,個人,1979,M,73.5,74,180,190,200,115,125,130,200,210,215,200,130,215,545
3,Open,SBD,Raw,竹島 元,,個人,1990,M,74,74,165,175,185,115,122.5,-128,210,225,235,185,122.5,235,542.5
4,Open,SBD,Raw,古屋 俊守,,個人,1981,M,74,74,190,-200,-200,140,150,-160,185,-200,200,190,150,200,540
5,Open,SBD,Raw,辻本 新,,TXP,1994,M,71,74,185,200,210,97.5,102.5,110,190,210,-230,210,110,210,530
6,Open,SBD,Raw,渡邉 透,,個人,1990,M,74,74,-172.5,-172.5,172.5,127.5,-130,-133,200,215,-225,172.5,127.5,215,515
7,Open,SBD,Raw,茶圓 将司,,個人,1994,M,73.1,74,160,175,-185,110,-120,-120,-190,190,200,175,110,200,485
8,Open,SBD,Raw,平塚 裕一,,チームミラクル,1981,M,73.7,74,150,160,-165,-110,110,-115,195,-205,-205,160,110,195,465
9,Open,SBD,Raw,吉田 侍史,,ノーリミッツ,1976,M,73.4,74,-140,140,-148,90,95,-100,185,200,210,140,95,210,445
10,Open,SBD,Raw,大榮 卓磨,,TXP,1994,M,73.4,74,127.5,132.5,-143,90,95,-100,180,190,-195,132.5,95,190,417.5
11,Open,SBD,Raw,中重 斉,,ESQUATIR,1986,M,69.5,74,-140,-140,140,85,90,-95,160,-170,170,140,90,170,400
12,Open,SBD,Raw,西郷 陽永,,TXP,1984,M,72.7,74,-135,135,-150,85,-90,-90,-150,150,170,135,85,170,390
13,Open,SBD,Raw,藤原 正太,,個人,1994,M,73.8,74,140,150,-165,70,75,80,140,150,155,150,80,155,385
1,Juniors,SBD,Raw,中山 椋健,,個人,1997,M,72.56,74,145,150,160,105,112.5,115,160,180,190,160,115,190,465
2,Juniors,SBD,Raw,大野 代樹,,個人,1997,M,73.32,74,140,160,165,95,100,107.5,150,165,175,165,107.5,175,447.5
3,Juniors,SBD,Raw,坂下 竜一,,大谷塾,1999,M,72.78,74,110,120,130,-156,156,-160,130,140,150,130,156,150,436
1,Masters 1,SBD,Raw,佐藤 康志,,スパイスハウス,1978,M,72.9,74,150,160,-165,110,-115,-115,-170,175,190,160,110,190,460
2,Masters 1,SBD,Raw,清田 勝行,,スパインハウス,1974,M,71.4,74,140,150,-160,115,-120,120,130,140,150,150,120,150,420
3,Masters 1,SBD,Raw,カストディオ ロメル,Romel G,TXP,1976,M,74,74,140,150,162.5,70,75,80,155,165,175,162.5,80,175,417.5
4,Masters 1,SBD,Raw,馬場 義徳,,Team Raws,1974,M,72.4,74,115,125,132.5,85,-92.5,-92.5,135,-145,145,132.5,85,145,362.5
1,Masters 2,SBD,Raw,成澤 真一,,個人,1965,M,72.4,74,130,140,-150,120,-128,-128,150,170,180,140,120,180,440
2,Masters 2,SBD,Raw,西村 拓,,個人,1966,M,73.4,74,-122.5,122.5,130,92.5,95,-100,155,160,-173,130,95,160,385
3,Masters 2,SBD,Raw,場集 田寿,,個人,1967,M,72.1,74,-105,105,112.5,92.5,97.5,-103,115,125,130,112.5,97.5,130,340
4,Masters 2,SBD,Raw,大島 秀平,,Team Raws,1964,M,73.3,74,102.5,112.5,-120,60,-65,-65,135,150,-158,112.5,60,150,322.5
1,Masters 3,SBD,Raw,藤田 正之,,パワーハウス,1957,M,73.8,74,100,-110,110,90,-95,95,110,120,-130,110,95,120,325
DQ,Masters 3,SBD,Raw,岩本 雅彦,,個人,1959,M,73.2,74,-135,-135,-135,92.5,-100,-105,-160,160,170,-135,92.5,170,
1,Open,SBD,Raw,永井 肇,,西東京パワー倶楽部,1984,M,82.55,83,230,240,250,140,145,-150,245,260,-273,250,145,260,655
2,Open,SBD,Raw,矢木 龍馬,,TXP,1997,M,81.25,83,247.5,265,-270,130,135,140,200,225,-250,265,140,225,630
3,Open,SBD,Raw,有道 亮,,個人,1987,M,79.65,83,195,205,210,130,135,140,210,230,-240,210,140,230,580
4,Open,SBD,Raw,柳川 圭大,,ノーリミッツ,1990,M,80.1,83,180,190,200,112.5,122.5,130,195,205,210,200,130,210,540
5,Open,SBD,Raw,三好 楽,,個人,1984,M,82.35,83,180,190,200,100,-110,110,180,200,210,200,110,210,520
6,Open,SBD,Raw,高橋 優作,,個人,1983,M,78.1,83,150,165,175,115,125,-130,200,210,-230,175,125,210,510
7,Open,SBD,Raw,榊原 顕,,ノーリミッツ,1983,M,78.7,83,167.5,177.5,182.5,105,110,112.5,165,175,182.5,182.5,112.5,182.5,477.5
8,Open,SBD,Raw,小林 大作,,個人,1984,M,81.35,83,160,165,170,100,105,110,160,170,-180,170,110,170,450
DQ,Open,SBD,Raw,村越 寿夫,,個人,1988,M,77.15,83,160,170,-180,-95,-100,-100,165,170,-180,170,,170,
1,Juniors,SBD,Raw,天木 聖曉,,ノーリミッツ,1998,M,77.6,83,165,172.5,180,110,115,117.5,180,190,200,180,117.5,200,497.5
2,Juniors,SBD,Raw,園村 壱誠,,スパインハウス,1997,M,76.4,83,140,155,-165,70,85,-90,140,-170,-170,155,85,140,380
1,Masters 1,SBD,Raw,内山 渉,,大谷塾,1973,M,79.35,83,150,160,167.5,95,102.5,105,165,177.5,187.5,167.5,105,187.5,460
2,Masters 1,SBD,Raw,濵本 久平,,個人,1975,M,79.4,83,140,150,-160,135,140,-145,170,-180,-180,150,140,170,460
3,Masters 1,SBD,Raw,高橋 秀輔,,パワーハウス,1977,M,82.1,83,130,137.5,140,115,-120,120,185,195,200,140,120,200,460
4,Masters 1,SBD,Raw,別府 隆久,,ノーリミッツ,1974,M,80.95,83,120,130,140,112.5,120,127.5,160,170,177.5,140,127.5,177.5,445
5,Masters 1,SBD,Raw,藤川 賢治,,西東京パワー倶樂部,1970,M,81.65,83,155,-165,-165,85,90,-92.5,190,200,-205,155,90,200,445
6,Masters 1,SBD,Raw,西 修作,,スパインハウス,1977,M,80.35,83,120,130,-140,-100,100,-110,130,150,-160,130,100,150,380
1,Masters 2,SBD,Raw,田澤 英徳,,TEAM Raws,1965,M,81.95,83,140,160,180,120,135,-140,140,160,-180,180,135,160,475
2,Masters 2,SBD,Raw,林 豊,,個人,1968,M,80.65,83,140,150,152.5,92.5,97.5,-100,170,180,-185,152.5,97.5,180,430
1,Masters 3,SBD,Raw,荒石 一由,,スパインハウス,1958,M,78.25,83,85,100,-110,85,-100,-100,150,160,-170,100,85,160,345
2,Masters 3,SBD,Raw,山田 幸博,,パワーハウス,1958,M,80.85,83,60,,,100,105,-108,60,,,60,105,60,225
G,Open,SBD,Raw,髙橋 克佳,,十勝パワーリフティング協会,1975,M,81.4,83,150,-155,,120,125,-130,185,200,210,150,125,210,485
G,Open,SBD,Raw,小林 守,,個人,1986,M,81.1,83,-180,180,185,145,-150,150,185,195,-200,185,150,195,530
G,Open,SBD,Raw,甲斐 慎太郎,,個人,1989,M,79.7,83,140,150,-160,100,-105,-105,170,182.5,-190,150,100,182.5,432.5
1,Open,SBD,Raw,古賀 友太郎,,TXP,1990,M,92.15,93,240,250,255,145,155,160,245,260,-275,255,160,260,675
2,Open,SBD,Raw,シルバ 英樹,,日本体育大学,1999,M,91.5,93,215,227.5,240,130,137.5,-143,260,275,-298,240,137.5,275,652.5
3,Open,SBD,Raw,義田 大峰,,TXP,1988,M,92.05,93,210,220,-230,170,180,-185,220,230,240,220,180,240,640
4,Open,SBD,Raw,涌井 唯人,,チームミラクル,1988,M,87.1,93,180,190,-200,135,140,145,220,230,-235,190,145,230,565
5,Open,SBD,Raw,屋良 一紀,,個人,1991,M,90.1,93,200,220,-230,-130,-135,135,180,200,-225,220,135,200,555
6,Open,SBD,Raw,小澤 周平,,パワーハウス,1990,M,91.15,93,177.5,187.5,195,127.5,135,-138,187.5,205,-215,195,135,205,535
7,Open,SBD,Raw,山本 祐喜,,個人,1986,M,89.5,93,185,200,210,92.5,102.5,107.5,180,190,200,210,107.5,200,517.5
8,Open,SBD,Raw,藤田 昌輝,,個人,1985,M,88.95,93,140,-150,150,137.5,147.5,150,150,165,175,150,150,175,475
DQ,Juniors,SBD,Raw,稲田 拓也,,個人,1996,M,88.45,93,-180,-180,-180,100,110,120,160,180,200,,120,200,
1,Masters 1,SBD,Raw,大岸 英樹,,ノーリミッツ,1978,M,91.75,93,175,185,192.5,125,130,135,230,245,-250,192.5,135,245,572.5
2,Masters 1,SBD,Raw,南波 航一郎,,立川トレーニングセンター,1975,M,87.45,93,165,175,180,115,117.5,122.5,180,200,210,180,122.5,210,512.5
3,Masters 1,SBD,Raw,茂木 仁,,個人,1972,M,91.6,93,160,175,-183,-105,110,-118,160,175,180,175,110,180,465
4,Masters 1,SBD,Raw,石丸 雄一郎,,TXP,1977,M,88.3,93,142.5,152.5,160,97.5,-105,105,160,170,175,160,105,175,440
5,Masters 1,SBD,Raw,吉山 真,,立川トレーニングセンター,1976,M,88.05,93,-130,130,-145,90,95,97.5,130,150,157.5,130,97.5,157.5,385
6,Masters 1,SBD,Raw,渡邉 規和,,TXP,1976,M,86.55,93,120,130,-140,85,90,95,100,110,-120,130,95,110,335
1,Masters 2,SBD,Raw,大高 太郎,,個人,1968,M,87.7,93,205,212.5,-218,127.5,132.5,-138,185,200,-205,212.5,132.5,200,545
2,Masters 2,SBD,Raw,金井 太,,TXP,1969,M,90.95,93,120,130,140,90,95,100,140,150,160,140,100,160,400
G,Open,SBD,Raw,熊谷 和規,,個人,1996,M,89.15,93,-180,185,190,130,-140,-145,180,190,200,190,130,200,520
G,Open,SBD,Raw,芳賀 涼平,,ゴールドジム横浜上星川,1993,M,91.75,93,220,230,-235,130,135,-140,240,260,-265,230,135,260,625
DQ,Open,SBD,Raw,堀内 健司,,パワーハウス,1976,M,87.5,93,-220,-220,-220,-170,170,-180,220,230,-240,-220,170,230,
1,Open,SBD,Raw,信田 泰宏,Yasuhiro Shida,個人,1988,M,103.1,105,250,270,280,200,210,-220,250,270,-288,280,210,270,760
2,Open,SBD,Raw,堀口 耀介,Yosuke Horiguchi,TXP,1993,M,101.4,105,232.5,245,-258,190,200,205,227.5,250,-260,245,205,250,700
3,Open,SBD,Raw,栗原 弘教,,Training-studio“Master Mind”,1985,M,104.3,105,255,270,-275,150,160,-170,245,260,-270,270,160,260,690
4,Open,SBD,Raw,横田 達郎,,個人,1988,M,102.7,105,170,180,190,160,167.5,170,180,200,210,190,170,210,570
5,Open,SBD,Raw,芝田 充弘,,Offense Line,1990,M,98.1,105,-180,180,195,125,-135,-145,175,185,200,195,125,200,520
6,Open,SBD,Raw,竹原 勝仁,,オフェンスライン,1989,M,100.8,105,130,140,145,70,85,95,140,150,160,145,95,160,400
1,Juniors,SBD,Raw,キム ミンウ,,個人,1999,M,103.4,105,170,180,-185,100,110,-115,180,190,-198,180,110,190,480
1,Masters 1,SBD,Raw,高山 和澄,,TXP,1976,M,104.1,105,125,135,145,120,130,-140,125,155,180,145,130,180,455
2,Masters 1,SBD,Raw,森 拓也,,パワーハウス,1972,M,102.6,105,190,200,-203,130,135,140,190,200,-220,200,140,200,540
3,Masters 1,SBD,Raw,山田 洋平,,スパインハウス,1978,M,93.08,105,160,170,-175,125,130,-135,180,190,-200,170,130,190,490
4,Masters 1,SBD,Raw,渡邊 大,,TXP,1979,M,95.32,105,112.5,125,140,100,-108,-108,170,177.5,182.5,140,100,182.5,422.5
1,Masters 2,SBD,Raw,沖田 真介,,個人,1969,M,99.72,105,170,180,190,140,150,-155,185,190,-195,190,150,190,530
2,Masters 2,SBD,Raw,舘岡 秀樹,,TXP,1960,M,101,105,140,150,160,110,120,130,110,120,-130,160,130,120,410
1,Open,SBD,Raw,橋本 到,,ノーリミッツ,1989,M,106.6,120,225,240,250,-150,150,-155,200,210,-223,250,150,210,610
2,Open,SBD,Raw,首代 敬次郎,,TXP,1967,M,106.4,120,150,-165,165,127.5,137.5,142.5,160,180,-190,165,142.5,180,487.5
G,Open,SBD,Raw,及川 慎二,,十勝パワーリフティング協会,1990,M,110.1,120,180,200,220,-160,170,180,180,200,220,220,180,220,620
1,Open,SBD,Raw,樋田 佳大,,個人,1978,M,163.7,120+,-300,-300,300,-200,-200,200,230,260,,300,200,260,760
2,Open,SBD,Raw,岩波 吾猛,,個人,1980,M,124.9,120+,285,300,-308,130,140,150,220,240,260,300,150,260,710
3,Open,SBD,Raw,大坊 健,Tsuyoshi Daibou,TXP,1976,M,138.5,120+,215,235,245,145,152.5,,220,240,-255,245,152.5,240,637.5
