Place,Sex,Name,Event,Division,WeightClassKg,Equipment,BirthYear,State,BodyweightKg,Squat1Kg,Squat2Kg,Squat3Kg,Best3SquatKg,Bench1Kg,Bench2Kg,Bench3Kg,Best3BenchKg,Deadlift1Kg,Deadlift2Kg,Deadlift3Kg,Best3DeadliftKg,TotalKg
1,M,Michael Wailes,B,MR-M1a,120,Raw,1973,CO,109.86,,,,,110,115,120,120.0,,,,,120
1,M,John Slack,B,MR-M2a,83,Raw,1962,CO,81.26,,,,,122.5,130,-142.5,130.0,,,,,130
1,M,Robert Roberto,B,MR-M2a,105,Raw,1965,CO,94.18,,,,,-142.5,142.5,152.5,152.5,,,,,152.5
1,M,Brandon Gunsolus,B,MR-O,93,Raw,1989,CO,87.74,,,,,142.5,147.5,-155,147.5,,,,,147.5
1,M,Sean Reagan,B,MR-O,105,Raw,1977,CO,102.88,,,,,182.5,192.5,-197.5,192.5,,,,,192.5
1,M,George Whyte,B,MR-O,120+,Raw,1990,CO,124.06,,,,,142.5,147.5,-150,147.5,,,,,147.5
1,F,Vialeta Kudrevich,B,FR-Jr,57,Raw,1995,CO,52.18,,,,,52.5,57.5,-62.5,57.5,,,,,57.5
1,F,Vialeta Kudrevich,B,FR-O,57,Raw,1995,CO,52.18,,,,,52.5,57.5,-62.5,57.5,,,,,57.5
1,M,Mark Sigala,SBD,M-M2b,74,Single-ply,1961,CO,71.86,192.5,-200,205,205.0,97.5,105,-110,105.0,235,242.5,-250,242.5,552.5
1,M,Jose Ramirez,SBD,M-O,120,Single-ply,1990,CO,118.38,277.5,285,297.5,297.5,220,232.5,250,250.0,235,242.5,255,255.0,802.5
2,M,Dan Gresh,SBD,M-O,120,Single-ply,1989,CO,106.72,265,280,290,290.0,172.5,177.5,-182.5,177.5,240,257.5,262.5,262.5,730
DQ,M,Gerardo Pulido,SBD,MR-Jr,83,Raw,1993,CO,75.30,110,115,120,120.0,-85,-85,-85,,157.5,165,180,180.0,
1,M,Robert Wood,SBD,MR-Jr,93,Raw,1973,CO,90.86,192.5,205,-217.5,205.0,130,135,137.5,137.5,240,-260,-260,240.0,582.5
2,M,Wesley Brand,SBD,MR-Jr,93,Raw,1992,,88.32,180,-195,-197.5,180.0,85,92.5,97.5,97.5,180,192.5,-210,192.5,470
1,M,Mike Sutton,SBD,MR-Jr,105,Raw,1994,CO,105.00,-237.5,237.5,-245,237.5,100,130,145,145.0,245,270,-280,270.0,652.5
2,M,Troy Fossceco,SBD,MR-Jr,105,Raw,1994,CO,98.78,155,165,-170,165.0,140,145,147.5,147.5,237.5,252.5,-260,252.5,565
1,M,Josh Thompson,SBD,MR-Jr,120,Raw,1995,CO,116.56,257.5,272.5,280,280.0,170,182.5,-190,182.5,265,275,290,290.0,752.5
2,M,Sami Meharzi,SBD,MR-Jr,120,Raw,1995,CO,119.48,207.5,220,-225,220.0,130,-135,-135,130.0,-240,240,,240.0,590
1,M,Bryan Beeby,SBD,MR-M1a,120,Raw,1975,CO,118.96,172.5,185,192.5,192.5,162.5,170,177.5,177.5,222.5,232.5,237.5,237.5,607.5
2,M,Michael Wailes,SBD,MR-M1a,120,Raw,1973,CO,109.86,165,170,-175,170.0,110,115,120,120.0,165,170,175,175.0,465
1,M,Eric Dubosq,SBD,MR-M1b,83,Raw,1967,CO,82.04,127.5,142.5,152.5,152.5,107.5,117.5,-127.5,117.5,155,172.5,-185,172.5,442.5
1,M,Michael Skelton,SBD,MR-M1b,120,Raw,1968,CO,109.42,227.5,245,-250,245.0,170,182.5,-187.5,182.5,240,250,255,255.0,682.5
1,M,Lou Fossceco,SBD,MR-M2a,120,Raw,1964,CO,117.10,177.5,185,-190,185.0,170,177.5,-182.5,177.5,207.5,-217.5,217.5,217.5,580
1,M,Shane Sheets,SBD,MR-M2b,83,Raw,1961,WY,81.00,90,100,110,110.0,90,95,100,100.0,135,147.5,155,155.0,365
1,M,Terry Moon,SBD,MR-M2b,120+,Raw,1961,CO,130.94,122.5,137.5,147.5,147.5,80,97.5,-107.5,97.5,150,165,-177.5,165.0,410
1,M,David Robinson,SBD,MR-M4b,83,Raw,1941,CO,81.74,-80,80,,80.0,82.5,-90,-90,82.5,100,115,-120,115.0,277.5
1,M,Josh Hyaduck,SBD,MR-O,74,Raw,1987,CO,73.66,222.5,-232.5,,222.5,147.5,150,152.5,152.5,260,265,,265.0,640
2,M,Jared Scott,SBD,MR-O,74,Raw,1990,CO,72.18,172.5,182.5,190,190.0,117.5,125,-127.5,125.0,202.5,210,225,225.0,540
3,M,Tony Giap,SBD,MR-O,74,Raw,1992,CO,73.32,-167.5,175,182.5,182.5,122.5,130,132.5,132.5,192.5,202.5,207.5,207.5,522.5
4,M,Joseph McDonald,SBD,MR-O,74,Raw,1983,CO,73.90,165,175,-182.5,175.0,80,82.5,87.5,87.5,182.5,190,197.5,197.5,460
DQ,M,Joshua Doman,SBD,MR-O,74,Raw,1992,CO,72.33,-182.5,-182.5,-182.5,,,,,,,,,,
1,M,Jonathan Haywood,SBD,MR-O,83,Raw,1983,CO,82.48,175,185,190,190.0,112.5,120,122.5,122.5,200,210,220,220.0,532.5
2,M,Ben Rudman,SBD,MR-O,83,Raw,1986,CO,81.70,172.5,180,187.5,187.5,117.5,122.5,127.5,127.5,192.5,207.5,212.5,212.5,527.5
3,M,Jake Nixon,SBD,MR-O,83,Raw,1991,CO,82.68,155,162.5,170,170.0,115,120,-122.5,120.0,170,182.5,187.5,187.5,477.5
DQ,M,Stephen Zagata,SBD,MR-O,83,Raw,1991,CO,82.84,207.5,217.5,-227.5,217.5,-142.5,-142.5,-142.5,,237.5,-252.5,252.5,252.5,
1,M,Jasper Evans,SBD,MR-O,93,Raw,1977,CO,86.86,210,220,227.5,227.5,142.5,-147.5,-147.5,142.5,220,232.5,237.5,237.5,607.5
2,M,Matt Lauer,SBD,MR-O,93,Raw,1980,CO,85.86,187.5,200,-207.5,200.0,110,115,-122.5,115.0,225,237.5,247.5,247.5,562.5
3,M,Phil Clough,SBD,MR-O,93,Raw,1983,CO,88.16,190,200,-205,200.0,117.5,127.5,-130,127.5,210,220,227.5,227.5,555
4,M,Daniel Notary,SBD,MR-O,93,Raw,1988,CO,92.02,180,192.5,-202.5,192.5,117.5,125,-127.5,125.0,-212.5,212.5,235,235.0,552.5
DQ,M,Collin Ferguson,SBD,MR-O,93,Raw,1985,CO,89.52,165,-175,185,185.0,-125,-125,-125,,210,220,-227.5,220.0,
DQ,M,Richard Hauck,SBD,MR-O,93,Raw,1984,CO,90.12,-215,220,-230,220.0,-135,-135,-135,,220,230,240,240.0,
DQ,M,Kris Gieske,SBD,MR-O,93,Raw,1984,CO,91.54,142.5,150,160,160.0,-130,-130,-130,,175,182.5,-192.5,182.5,
1,M,David Moore,SBD,MR-O,120,Raw,1985,CO,117.92,270,280,297.5,297.5,-175,185,-192.5,185.0,270,282.5,295,295.0,777.5
1,M,George Whyte,SBD,MR-O,120+,Raw,1990,CO,124.06,185,192.5,200,200.0,142.5,147.5,-150,147.5,265,280,295,295.0,642.5
1,M,Ethan Ward,SBD,MR-T1,74,Raw,2001,CO,72.94,125,140,150,150.0,75,87.5,95,95.0,137.5,152.5,165,165.0,410
1,M,Robert Mellen,SBD,MR-T2,53,Raw,1999,CO,52.20,72.5,77.5,82.5,82.5,57.5,62.5,65,65.0,102.5,-115,-115,102.5,250
1,M,Jake Conley,SBD,MR-T2,74,Raw,1999,CO,73.32,132.5,142.5,-150,142.5,102.5,-110,110,110.0,190,210,-212.5,210.0,462.5
2,M,Ren Shimizu,SBD,MR-T2,74,Raw,2000,CO,66.20,-142.5,152.5,-165,152.5,72.5,80,87.5,87.5,145,172.5,182.5,182.5,422.5
3,M,Liam Elkins,SBD,MR-T2,74,Raw,2000,CO,70.74,97.5,110,117.5,117.5,62.5,67.5,70,70.0,112.5,130,137.5,137.5,325
1,M,Michael Berrian,SBD,MR-T2,83,Raw,2000,CO,81.22,165,177.5,182.5,182.5,110,120,122.5,122.5,180,202.5,207.5,207.5,512.5
2,M,Michael Oliver,SBD,MR-T2,83,Raw,2000,CO,82.30,110,125,132.5,132.5,77.5,82.5,-85,82.5,130,150,155,155.0,370
1,M,Justin Schroeder,SBD,MR-T3,66,Raw,1998,CO,63.08,-110,120,-132.5,120.0,85,92.5,-97.5,92.5,142.5,160,-165,160.0,372.5
1,M,Ethan Durant-Childress,SBD,MR-T3,74,Raw,1998,CO,69.90,160,170,180,180.0,90,100,105,105.0,185,195,202.5,202.5,487.5
2,M,Royce Schultz,SBD,MR-T3,74,Raw,1998,CO,72.76,90,100,-110,100.0,80,87.5,92.5,92.5,125,147.5,155,155.0,347.5
1,M,Cosmo Pallarito,SBD,MR-T3,83,Raw,1997,CO,79.52,135,-145,150,150.0,-100,105,110,110.0,155,175,185,185.0,445
2,M,Christian Knoblock,SBD,MR-T3,83,Raw,1997,CO,81.14,105,115,125,125.0,65,72.5,-80,72.5,125,137.5,142.5,142.5,340
1,M,Eric Olsen,SBD,MR-T3,120+,Raw,1998,CO,137.10,-105,105,122.5,122.5,82.5,87.5,92.5,92.5,125,142.5,160,160.0,375
1,M,Logan Gaudreau,SBD,MR-Y1,40,Raw,2007,CO,35.34,45,50,-55,50.0,20,25,-26,25.0,52.5,-57.5,57.5,57.5,132.5
1,F,Deborah McGovern,SBD,F-M3a,57,Single-ply,1955,CO,56.68,-90,95,-100,95.0,50,-55,57.5,57.5,117.5,125,-130,125.0,277.5
1,F,Deborah McGovern,SBD,F-O,57,Single-ply,1955,CO,56.68,-90,95,-100,95.0,50,-55,57.5,57.5,117.5,125,-130,125.0,277.5
1,F,Lacy McKinley,SBD,FR-Jr,57,Raw,1994,CO,56.86,82.5,-85,85,85.0,40,45,-50,45.0,82.5,90,97.5,97.5,227.5
1,F,Melody Miller,SBD,FR-M1b,72,Raw,1970,CO,70.42,115,122.5,135,135.0,80,85,-92.5,85.0,142.5,152.5,-167.5,152.5,372.5
2,F,Melissa Benson,SBD,FR-M1b,72,Raw,1968,CO,71.74,77.5,85,92.5,92.5,60,-65,-65,60.0,92.5,107.5,112.5,112.5,265
1,F,Libbi Palmer,SBD,FR-M1b,84+,Raw,1970,CO,114.76,102.5,107.5,112.5,112.5,60,62.5,-65,62.5,145,150,-155,150.0,325
2,F,Kristen Tarrin,SBD,FR-M1b,84+,Raw,1967,CO,118.82,82.5,87.5,-92.5,87.5,60,62.5,-65,62.5,102.5,107.5,115,115.0,265
1,F,Heather Tagg,SBD,FR-M2a,72,Raw,1966,CO,70.32,-107.5,107.5,112.5,112.5,60,62.5,65,65.0,150,155,157.5,157.5,335
1,F,Rebecca Ralston,SBD,FR-M3a,52,Raw,1952,CO,52.00,50,55,62.5,62.5,35,37.5,40,40.0,75,-92.5,-92.5,75.0,177.5
1,F,Billie Bell,SBD,FR-O,63,Raw,1982,CO,61.56,122.5,-130,-130,122.5,65,72.5,-77.5,72.5,120,142.5,-150,142.5,337.5
2,F,Alexandria Gerry,SBD,FR-O,63,Raw,1991,CO,61.58,110,117.5,-125,117.5,62.5,67.5,-70,67.5,117.5,135,-137.5,135.0,320
3,F,Samantha Adee,SBD,FR-O,63,Raw,1982,CO,62.98,100,107.5,112.5,112.5,57.5,62.5,-65,62.5,125,135,-140,135.0,310
4,F,Emily Westfall,SBD,FR-O,63,Raw,1989,CO,62.36,65,-80,80,80.0,55,-62.5,-62.5,55.0,115,132.5,142.5,142.5,277.5
1,F,Trina Ruhland,SBD,FR-O,72,Raw,1985,CO,68.86,115,120,-125,120.0,100,105,-110,105.0,137.5,142.5,147.5,147.5,372.5
2,F,Juliana Lindner,SBD,FR-O,72,Raw,1992,CO,67.36,107.5,110,115,115.0,72.5,77.5,80,80.0,140,145,147.5,147.5,342.5
3,F,Julianna King,SBD,FR-O,72,Raw,2000,MI,70.24,130,-135,135,135.0,62.5,68,-70,68.0,122.5,130,-145.5,130.0,333
4,F,Coralee Traurig,SBD,FR-O,72,Raw,1982,CO,71.04,110,120,122.5,122.5,62.5,67.5,-72.5,67.5,125,135,140,140.0,330
5,F,Jacquelyn Seigle,SBD,FR-O,72,Raw,1984,CO,68.08,107.5,112.5,117.5,117.5,55,60,62.5,62.5,120,130,-137.5,130.0,310
1,F,Leisha Huettner,SBD,FR-O,84,Raw,1979,CO,74.74,-120,125,-132.5,125.0,57.5,62.5,65,65.0,145,152.5,155,155.0,345
2,F,Lindsey Parlin,SBD,FR-O,84,Raw,1984,CO,73.00,100,107.5,-110,107.5,65,-70,-70,65.0,125,140,150,150.0,322.5
3,F,Veronica Gomez,SBD,FR-O,84,Raw,1978,CO,79.56,67.5,72.5,75,75.0,57.5,60,-62.5,60.0,100,105,-110,105.0,240
1,F,Sherrice Fox,SBD,FR-O,84+,Raw,1986,CO,140.10,170,177.5,-182.5,177.5,92.5,97.5,102.5,102.5,175,182.5,192.5,192.5,472.5
2,F,Libbi Palmer,SBD,FR-O,84+,Raw,1970,CO,114.76,102.5,107.5,112.5,112.5,60,62.5,-65,62.5,145,150,-155,150.0,325
1,F,Julianna King,SBD,FR-T1,72,Raw,2000,MI,70.24,130,-135,135,135.0,62.5,68,-70,68.0,122.5,130,-145.5,130.0,333
1,F,Gabrielle Torsell,SBD,FR-T3,63,Raw,1997,CO,58.32,95,100,105,105.0,42.5,45,-50,45.0,95,102.5,107.5,107.5,257.5
