Division,WeightClassKg,Place,Name,Team,BodyweightKg,Best3SquatKg,Best3BenchKg,Best3DeadliftKg,TotalKg,Equipment,Event,Sex
Boys,51.71,1,Trevor Dykema,Crandall,49.44,104.33,56.7,111.13,272.16,Single-ply,SBD,M
Boys,51.71,2,David Blackwell,Nacogdoches,51.26,79.38,31.75,97.52,208.65,Single-ply,SBD,M
Boys,51.71,3,Dakota Hobbs,Brownsboro,44.45,79.38,43.09,83.91,206.38,Single-ply,SBD,M
Boys,55.79,1,Aj Durham,Kemp,54.88,154.22,88.45,151.95,394.63,Single-ply,SBD,M
Boys,55.79,2,Logan Brown,Palestine,54.43,138.35,61.23,154.22,353.8,Single-ply,SBD,M
Boys,55.79,3,Chris Pendergrass,Grand Saline,55.34,97.52,81.65,138.35,317.51,Single-ply,SBD,M
Boys,55.79,4,James Payton,Nacogdoches,54.43,113.4,68.04,127.01,308.44,Single-ply,SBD,M
Boys,55.79,5,Micah Ethington,Nacogdoches,52.62,115.67,52.16,129.27,297.1,Single-ply,SBD,M
Boys,55.79,6,Reece Walker,Cumby,53.98,97.52,52.16,104.33,254.01,Single-ply,SBD,M
Boys,55.79,7,Justin Logan,Emory Rains,53.98,77.11,65.77,104.33,247.21,Single-ply,SBD,M
Boys,55.79,8,Hays Kellogg,Emory Rains,54.43,79.38,52.16,106.59,238.14,Single-ply,SBD,M
Boys,55.79,DQ,Tim Jones,Cumby,53.98,88.45,,,,Single-ply,SBD,M
Boys,55.79,DQ,Colin Taylor,Diana New Diana,55.34,113.4,,,,Single-ply,SBD,M
Boys,59.87,1,Cornelus Weaver,Grapeland,59.87,226.8,97.52,181.44,505.76,Single-ply,SBD,M
Boys,59.87,2,Travis Watson,Crandall,59.87,170.1,99.79,183.7,453.59,Single-ply,SBD,M
Boys,59.87,3,Christian Evans,Grapeland,58.97,149.69,113.4,156.49,419.57,Single-ply,SBD,M
Boys,59.87,4,Cody Lineberry,Ferris,57.15,156.49,99.79,145.15,401.43,Single-ply,SBD,M
Boys,59.87,5,Michael House,Brownsboro,57.15,111.13,106.59,136.08,353.8,Single-ply,SBD,M
Boys,59.87,6,Emilio Solis,Grand Saline,59.87,104.33,79.38,158.76,342.46,Single-ply,SBD,M
Boys,59.87,7,Carson Machen,Kemp,58.97,111.13,70.31,142.88,324.32,Single-ply,SBD,M
Boys,59.87,8,Forrest Lemon,Nacogdoches,58.06,115.67,63.5,131.54,310.71,Single-ply,SBD,M
Boys,59.87,9,Storm Bruner,Grapeland,57.61,97.52,63.5,142.88,303.91,Single-ply,SBD,M
Boys,59.87,10,Kason Freelan,Lone Oak,58.06,113.4,74.84,115.67,303.91,Single-ply,SBD,M
Boys,59.87,DQ,Erick Garcia,Athens,59.42,83.91,,,,Single-ply,SBD,M
Boys,67.13,1,Cris Murray,Kemp,66.22,204.12,131.54,204.12,539.77,Single-ply,SBD,M
Boys,67.13,2,Brandon Perkins,Jacksonville,63.96,136.08,106.59,170.1,412.77,Single-ply,SBD,M
Boys,67.13,3,Justin Wilshusen,Grapeland,66.68,147.42,102.06,161.03,410.5,Single-ply,SBD,M
Boys,67.13,4,Shabrodwick Hill,Athens,66.68,147.42,99.79,158.76,405.97,Single-ply,SBD,M
Boys,67.13,5,CJ Schuman,Lone Oak,66.22,172.37,83.91,147.42,403.7,Single-ply,SBD,M
Boys,67.13,6,Dylan Cumming,Lone Oak,66.22,138.35,97.52,161.03,396.89,Single-ply,SBD,M
Boys,67.13,7,Jacob Blunt,Crandall,67.13,129.27,102.06,156.49,387.82,Single-ply,SBD,M
Boys,67.13,8,Kyle Kiser,Emory Rains,63.05,138.35,95.25,142.88,376.48,Single-ply,SBD,M
Boys,67.13,9,Derrick Adams,Palestine,60.78,138.35,74.84,142.88,356.07,Single-ply,SBD,M
Boys,67.13,10,Ryan Norman,Kemp,64.41,136.08,104.33,115.67,356.07,Single-ply,SBD,M
Boys,67.13,11,Cody Prince,Lone Oak,66.22,115.67,88.45,149.69,353.8,Single-ply,SBD,M
Boys,67.13,12,Mathew Howard,Grapeland,63.5,127.01,86.18,136.08,349.27,Single-ply,SBD,M
Boys,67.13,13,Colton Speights,Cumby,63.96,133.81,77.11,133.81,344.73,Single-ply,SBD,M
Boys,67.13,14,Anthony Offord,Crandall,60.78,136.08,68.04,136.08,340.19,Single-ply,SBD,M
Boys,67.13,15,Jacoby Randle,Nacogdoches,65.77,133.81,72.57,133.81,340.19,Single-ply,SBD,M
Boys,67.13,16,Isiah Whitehead,Lone Oak,61.23,133.81,74.84,127.01,335.66,Single-ply,SBD,M
Boys,67.13,17,Eric Licea,Malakoff,63.05,129.27,79.38,117.93,326.59,Single-ply,SBD,M
Boys,67.13,18,Markedray Hollins,Tyler Chapel Hill,61.69,120.2,61.23,140.61,322.05,Single-ply,SBD,M
Boys,67.13,19,Sam Reid,Lone Oak,60.33,99.79,70.31,120.2,290.3,Single-ply,SBD,M
Boys,67.13,20,Jacob Shaw,Tyler Chapel Hill,63.05,106.59,61.23,117.93,285.76,Single-ply,SBD,M
Boys,67.13,21,Martinez Carlos,Athens,63.5,81.65,63.5,124.74,269.89,Single-ply,SBD,M
Boys,67.13,22,Daniel Salazar,Athens,62.6,81.65,63.5,104.33,249.48,Single-ply,SBD,M
Boys,67.13,DQ,Matt Gremillion,Lone Oak,64.41,92.99,,,,Single-ply,SBD,M
Boys,67.13,DQ,John Holman,Jacksonville,61.23,,,,,Single-ply,SBD,M
Boys,74.84,1,Keandre Goss,Tyler Chapel Hill,72.12,199.58,108.86,235.87,544.31,Single-ply,SBD,M
Boys,74.84,2,Jonathan Hazley,Grapeland,73.94,204.12,108.86,201.85,514.83,Single-ply,SBD,M
Boys,74.84,3,Austin Gipson,Jacksonville,71.21,188.24,113.4,204.12,505.76,Single-ply,SBD,M
Boys,74.84,4,Benny Martinez,Ferris,70.76,195.04,122.47,185.97,503.49,Single-ply,SBD,M
Boys,74.84,5,Beau Brewer,Diana New Diana,74.84,188.24,120.2,192.78,501.22,Single-ply,SBD,M
Boys,74.84,6,Alex Cuarenta,Nacogdoches,73.48,195.04,83.91,190.51,469.47,Single-ply,SBD,M
Boys,74.84,7,Hunter Walters,Brownsboro,73.48,170.1,106.59,188.24,464.93,Single-ply,SBD,M
Boys,74.84,8,Colin Turner,Palestine,73.94,165.56,111.13,172.37,449.06,Single-ply,SBD,M
Boys,74.84,9,Brody Finch,Jacksonville,73.94,170.1,92.99,170.1,433.18,Single-ply,SBD,M
Boys,74.84,10,Terrance Ingram,Jacksonville,73.94,154.22,92.99,176.9,424.11,Single-ply,SBD,M
Boys,74.84,11,Justin Lawler,Kemp,71.21,136.08,104.33,181.44,421.84,Single-ply,SBD,M
Boys,74.84,12,Tony Walker,Diana New Diana,71.67,165.56,102.06,149.69,417.3,Single-ply,SBD,M
Boys,74.84,13,Steven Colley,Cumby,73.94,149.69,92.99,172.37,415.04,Single-ply,SBD,M
Boys,74.84,14,Tyrail Hart,Tyler Chapel Hill,74.84,170.1,83.91,156.49,410.5,Single-ply,SBD,M
Boys,74.84,15,John Hines,Emory Rains,73.03,165.56,90.72,149.69,405.97,Single-ply,SBD,M
Boys,74.84,16,Miguel Ramirez,Brownsboro,70.76,142.88,86.18,170.1,399.16,Single-ply,SBD,M
Boys,74.84,17,Travasil Dumas,Diana New Diana,74.84,147.42,88.45,163.29,399.16,Single-ply,SBD,M
Boys,74.84,18,Aaron Cumming,Lone Oak,72.57,138.35,99.79,158.76,396.89,Single-ply,SBD,M
Boys,74.84,19,Dillon Collard,Crandall,71.67,127.01,86.18,181.44,394.63,Single-ply,SBD,M
Boys,74.84,20,Zach Dunham,Big Sandy,71.67,142.88,90.72,158.76,392.36,Single-ply,SBD,M
Boys,74.84,21,Kris Best,Diana New Diana,69.85,151.95,92.99,138.35,383.29,Single-ply,SBD,M
Boys,74.84,22,Raymond Owens,Grapeland,69.85,136.08,102.06,142.88,381.02,Single-ply,SBD,M
Boys,74.84,23,Marcus Gentry,Ferris,74.39,136.08,92.99,149.69,378.75,Single-ply,SBD,M
Boys,74.84,24,Andrew Newton,Crandall,72.57,124.74,74.84,170.1,369.68,Single-ply,SBD,M
Boys,74.84,25,Tyson White,Lone Oak,73.94,147.42,83.91,138.35,369.68,Single-ply,SBD,M
Boys,74.84,26,James McBride,Grand Saline,71.21,149.69,81.65,129.27,360.61,Single-ply,SBD,M
Boys,74.84,27,John Clark,Lone Oak,73.94,124.74,74.84,142.88,342.46,Single-ply,SBD,M
Boys,74.84,28,Tyler Golver,Diana New Diana,73.94,113.4,77.11,131.54,322.05,Single-ply,SBD,M
Boys,74.84,29,Erik Hernandez,Grand Saline,73.48,108.86,77.11,133.81,319.78,Single-ply,SBD,M
Boys,74.84,30,Paul Morrison,Crockett,67.59,108.86,70.31,127.01,306.17,Single-ply,SBD,M
Boys,74.84,31,Tyler White,Lone Oak,70.31,111.13,70.31,124.74,306.17,Single-ply,SBD,M
Boys,74.84,DQ,Rj Newsom,Brownsboro,69.85,147.42,,,,Single-ply,SBD,M
Boys,82.1,1,Kolton Barber,Crandall,80.29,219.99,145.15,197.31,562.45,Single-ply,SBD,M
Boys,82.1,2,Ruben Mendez,Ferris,80.74,195.04,129.27,204.12,528.44,Single-ply,SBD,M
Boys,82.1,3,John Kilgore,Kemp,77.56,185.97,124.74,199.58,510.29,Single-ply,SBD,M
Boys,82.1,4,Garret Dunlap,Lone Oak,80.74,190.51,122.47,192.78,505.76,Single-ply,SBD,M
Boys,82.1,5,Caleb Womack,Lone Oak,78.02,167.83,115.67,192.78,476.27,Single-ply,SBD,M
Boys,82.1,6,Mitchell Pinion,Kemp,80.74,181.44,124.74,158.76,464.93,Single-ply,SBD,M
Boys,82.1,7,Brandon Bell,Tyler Chapel Hill,81.65,174.63,108.86,181.44,464.93,Single-ply,SBD,M
Boys,82.1,8,Justin Kiker,Brownsboro,78.47,165.56,122.47,170.1,458.13,Single-ply,SBD,M
Boys,82.1,9,Jon Jon Thompson,Brownsboro,80.74,170.1,104.33,170.1,444.52,Single-ply,SBD,M
Boys,82.1,10,Taylor Ruiz,Emory Rains,78.93,167.83,111.13,163.29,442.25,Single-ply,SBD,M
Boys,82.1,11,James Hopkins,Ferris,78.02,170.1,95.25,170.1,435.45,Single-ply,SBD,M
Boys,82.1,12,Shakil Mosely,Jacksonville,75.75,142.88,102.06,176.9,421.84,Single-ply,SBD,M
Boys,82.1,13,Levi Wooten,Cumby,79.83,158.76,104.33,142.88,405.97,Single-ply,SBD,M
Boys,82.1,14,Adam Jones #8,Ferris,75.75,154.22,79.38,170.1,403.7,Single-ply,SBD,M
Boys,82.1,15,Chris Wallace,Tyler Chapel Hill,81.65,154.22,83.91,154.22,392.36,Single-ply,SBD,M
Boys,82.1,16,Jawvan Martin,Athens,80.29,136.08,97.52,156.49,390.09,Single-ply,SBD,M
Boys,82.1,17,Jose Salazar,Malakoff,78.93,151.95,83.91,151.95,387.82,Single-ply,SBD,M
Boys,82.1,18,Dustin Higgs,Malakoff,79.38,145.15,95.25,147.42,387.82,Single-ply,SBD,M
Boys,82.1,19,Juan Guzman,Crandall,78.02,127.01,95.25,158.76,381.02,Single-ply,SBD,M
Boys,82.1,20,Matthew Bullock,Malakoff,77.56,136.08,88.45,147.42,371.95,Single-ply,SBD,M
Boys,82.1,21,Zachery Wilshusen,Grapeland,78.47,136.08,74.84,149.69,360.61,Single-ply,SBD,M
Boys,82.1,22,Tyler McClain,Lone Oak,78.47,115.67,83.91,142.88,342.46,Single-ply,SBD,M
Boys,82.1,23,Dustin Stalvey,Palestine,80.29,124.74,70.31,147.42,342.46,Single-ply,SBD,M
Boys,82.1,24,Nathan Blunt,Crandall,80.74,133.81,88.45,120.2,342.46,Single-ply,SBD,M
Boys,82.1,25,Caleb Glover,Diana New Diana,80.74,122.47,77.11,131.54,331.12,Single-ply,SBD,M
Boys,82.1,26,Gary Eldeer,Big Sandy,75.3,97.52,92.99,102.06,292.57,Single-ply,SBD,M
Boys,82.1,DQ,Taylor Woodruff,Brownsboro,80.29,163.29,,,,Single-ply,SBD,M
Boys,82.1,DQ,Justin Jones,Jacksonville,80.29,197.31,,,,Single-ply,SBD,M
Boys,89.81,1,Ray Hodges,Kemp,86.18,238.14,145.15,226.8,610.08,Single-ply,SBD,M
Boys,89.81,2,Adrian Garcia,Ferris,85.73,208.65,136.08,208.65,553.38,Single-ply,SBD,M
Boys,89.81,3,Colby Bragg,Brownsboro,89.81,215.46,124.74,192.78,532.97,Single-ply,SBD,M
Boys,89.81,4,Montana James,Ferris,88,181.44,111.13,197.31,489.88,Single-ply,SBD,M
Boys,89.81,5,Jimmy Ledesma,Palestine,86.64,188.24,127.01,154.22,469.47,Single-ply,SBD,M
Boys,89.81,6,Rustin Cryer,Emory Rains,88.45,181.44,111.13,170.1,462.66,Single-ply,SBD,M
Boys,89.81,7,Zack Emmons,Cumby,88,147.42,117.93,181.44,446.79,Single-ply,SBD,M
Boys,89.81,8,Derrek Brister,Grapeland,88.45,158.76,102.06,181.44,442.25,Single-ply,SBD,M
Boys,89.81,9,Taylor Dubois,Emory Rains,87.09,145.15,108.86,165.56,419.57,Single-ply,SBD,M
Boys,89.81,10,Alex Chicas,Palestine,89.36,147.42,83.91,147.42,378.75,Single-ply,SBD,M
Boys,89.81,11,Dillon Atkins,Tyler Chapel Hill,88.9,147.42,70.31,151.95,369.68,Single-ply,SBD,M
Boys,89.81,12,Justin Smith,Grand Saline,88.9,102.06,70.31,147.42,319.78,Single-ply,SBD,M
Boys,89.81,DQ,Kevin Jackson,Diana New Diana,86.18,145.15,,,,Single-ply,SBD,M
Boys,99.79,1,Jackson Blacketer,Malakoff,90.72,240.4,147.42,247.21,635.03,Single-ply,SBD,M
Boys,99.79,2,Dillion Morrison,Crandall,99.79,204.12,154.22,158.76,517.1,Single-ply,SBD,M
Boys,99.79,3,Carnelus Taylor,Grapeland,93.44,192.78,95.25,226.8,514.83,Single-ply,SBD,M
Boys,99.79,4,Joel Palma,Grand Saline,97.98,204.12,115.67,183.7,503.49,Single-ply,SBD,M
Boys,99.79,5,Oscar Olivares,Brownsboro,97.52,199.58,99.79,195.04,494.42,Single-ply,SBD,M
Boys,99.79,6,Gerrardo Jaquez,Ferris,98.43,201.85,104.33,167.83,474,Single-ply,SBD,M
Boys,99.79,7,Cody Belt,Diana New Diana,97.07,161.03,108.86,195.04,464.93,Single-ply,SBD,M
Boys,99.79,8,Rodney Hobbs,Cumby,95.25,158.76,113.4,190.51,462.66,Single-ply,SBD,M
Boys,99.79,9,John Jennings,Kemp,95.71,181.44,111.13,136.08,428.64,Single-ply,SBD,M
Boys,99.79,10,Chase Palmer,Jacksonville,91.63,158.76,104.33,163.29,426.38,Single-ply,SBD,M
Boys,99.79,11,Naman Scott,Nacogdoches,92.53,149.69,111.13,145.15,405.97,Single-ply,SBD,M
Boys,99.79,12,Michael Ayers,Big Sandy,92.53,124.74,97.52,181.44,403.7,Single-ply,SBD,M
Boys,99.79,13,Chris Perkins,Malakoff,96.62,163.29,90.72,136.08,390.09,Single-ply,SBD,M
Boys,99.79,14,Cameron Theiry,Crandall,96.62,136.08,74.84,174.63,385.55,Single-ply,SBD,M
Boys,99.79,15,Hershal Hawkins,Tyler Chapel Hill,91.63,147.42,83.91,142.88,374.21,Single-ply,SBD,M
Boys,99.79,16,Charlie Potts,Cumby,90.26,129.27,79.38,142.88,351.53,Single-ply,SBD,M
Boys,99.79,17,James Evans,Cumby,99.79,138.35,79.38,127.01,344.73,Single-ply,SBD,M
Boys,99.79,18,Anthony Strickland,Big Sandy,98.88,113.4,90.72,124.74,328.85,Single-ply,SBD,M
Boys,99.79,19,Glen Goode,Cumby,90.72,120.2,63.5,92.99,276.69,Single-ply,SBD,M
Boys,109.77,1,John Paul Martine,Palestine,107.05,244.94,161.03,217.72,623.69,Single-ply,SBD,M
Boys,109.77,2,Jerry Bailey,Crockett,107.05,208.65,108.86,201.85,519.36,Single-ply,SBD,M
Boys,109.77,3,Morgan Blackstone,Crockett,109.32,204.12,120.2,192.78,517.1,Single-ply,SBD,M
Boys,109.77,4,Alex Paredes,Grand Saline,109.32,170.1,122.47,185.97,478.54,Single-ply,SBD,M
Boys,109.77,5,Ben Jaeger,Emory Rains,109.32,190.51,122.47,158.76,471.74,Single-ply,SBD,M
Boys,109.77,6,Steven Stone,Big Sandy,102.51,176.9,108.86,158.76,444.52,Single-ply,SBD,M
Boys,109.77,7,Aaron Hatton,Grapeland,107.5,170.1,99.79,172.37,442.25,Single-ply,SBD,M
Boys,109.77,8,Xaiver Gordon,Nacogdoches,107.5,154.22,106.59,158.76,419.57,Single-ply,SBD,M
Boys,109.77,9,Colton Moorehead,Tyler Chapel Hill,107.05,154.22,102.06,158.76,415.04,Single-ply,SBD,M
Boys,109.77,10,Marcelino Najera,Palestine,107.5,142.88,117.93,145.15,405.97,Single-ply,SBD,M
Boys,124.74,1,Nick Richardson,Athens,119.29,219.99,133.81,231.33,585.13,Single-ply,SBD,M
Boys,124.74,2,Dillon Croley,Brownsboro,123.83,238.14,136.08,210.92,585.13,Single-ply,SBD,M
Boys,124.74,3,Matt Bouchillon,Brownsboro,116.12,226.8,149.69,204.12,580.6,Single-ply,SBD,M
Boys,124.74,4,Cody Barnes,Malakoff,124.74,226.8,120.2,192.78,539.77,Single-ply,SBD,M
Boys,124.74,5,Casey Webb,Malakoff,113.4,188.24,104.33,215.46,508.02,Single-ply,SBD,M
Boys,124.74,6,Jacob Witt,Diana New Diana,120.66,192.78,108.86,197.31,498.95,Single-ply,SBD,M
Boys,124.74,7,Bouzel Brian,Diana New Diana,124.28,158.76,122.47,197.31,478.54,Single-ply,SBD,M
Boys,124.74,8,Saulo Galvan,Grand Saline,110.68,181.44,111.13,181.44,474,Single-ply,SBD,M
Boys,124.74,9,Kyle Lineberry,Ferris,119.75,197.31,113.4,163.29,474,Single-ply,SBD,M
Boys,124.74,10,Michael Daley,Athens,111.58,163.29,95.25,176.9,435.45,Single-ply,SBD,M
Boys,124.74,11,Alberto Rios,Athens,114.76,151.95,88.45,161.03,401.43,Single-ply,SBD,M
Boys,124.74,DQ,Zack Green,Malakoff,113.85,188.24,,,,Single-ply,SBD,M
Boys,124.74+,1,Ethan Perkins,Nacogdoches,130.18,274.42,158.76,249.48,682.66,Single-ply,SBD,M
Boys,124.74+,2,Jeremy Dowdy,Emory Rains,127.91,272.16,149.69,219.99,641.83,Single-ply,SBD,M
Boys,124.74+,3,David Cortinas,Ferris,135.62,217.72,129.27,183.7,530.7,Single-ply,SBD,M
Boys,124.74+,4,Tedrick Tilley,Jacksonville,136.08,195.04,129.27,183.7,508.02,Single-ply,SBD,M
Boys,124.74+,5,Landon Whitten,Big Sandy,132,188.24,117.93,183.7,489.88,Single-ply,SBD,M
Boys,124.74+,6,Cameron Sturns,Nacogdoches,127.91,181.44,113.4,181.44,476.27,Single-ply,SBD,M
Boys,124.74+,7,James Brooks,Tyler Chapel Hill,148.78,181.44,108.86,167.83,458.13,Single-ply,SBD,M
Boys,124.74+,8,Noe Jose,Grand Saline,151.5,172.37,90.72,145.15,408.23,Single-ply,SBD,M
Boys,124.74+,DQ,Jermaine Black,Palestine,125.65,233.6,,,,Single-ply,SBD,M
