Place,Name,CyrillicName,Sex,BodyweightKg,Squat1Kg,Squat2Kg,Squat3Kg,Best3SquatKg,Squat4Kg,Bench1Kg,Bench2Kg,Bench3Kg,Best3BenchKg,Bench4Kg,Deadlift1Kg,Deadlift2Kg,Deadlift3Kg,Best3DeadliftKg,Deadlift4Kg,TotalKg,WeightClassKg,Event,Equipment,Tested,Division,Age,BirthDate
1,Natalya Afonyushkina,Наталья Афонюшкина,F,46.55,67.5,75,-85,75,,42.5,45,-47.5,45,,87.5,95,100,100,,220,48,SBD,Wraps,Yes,Amateur Open,34,1984-11-09
1,Svetlana Fomicheva,Светлана Фомичева,F,46.55,-70,70,-80,70,,40,-42.5,42.5,42.5,,80,95,-105,95,,207.5,48,SBD,Wraps,Yes,Amateur Masters 40-49,41,1977-10-25
1,Margarita Fomicheva,Маргарита Фомичева,F,50.6,80,-85,-85,80,,50,-55,-55,50,,80,85,97.5,97.5,,227.5,52,SBD,Wraps,Yes,Amateur Open,27,1991-06-16
1,Elena Emelyova,Елена Емелёва,F,60,90,100,-105,100,,57.5,60,-62.5,60,,122.5,-130,-130,122.5,,282.5,60,SBD,Wraps,Yes,Amateur Open,42,1976-07-11
2,Mariya Pevgova,Мария Певгова,F,56.8,75,80,85,85,,-40,-40,40,40,,92.5,97.5,100,100,,225,60,SBD,Wraps,Yes,Amateur Open,33,1986-05-05
3,Anastasiya Firsova,Анастасия Фирсова,F,58.5,50,60,70,70,,45,50,-52.5,50,,80,-90,90,90,,210,60,SBD,Wraps,Yes,Amateur Open,35,1983-09-14
1,Elena Emelyova,Елена Емелёва,F,60,90,100,-105,100,,57.5,60,-62.5,60,,122.5,-130,-130,122.5,,282.5,60,SBD,Wraps,Yes,Amateur Masters 40-49,42,1976-07-11
1,Dina Madorskaya,Дина Мадорская,F,61.2,-70,-70,70,70,,40,42.5,45,45,,95,100,105,105,,220,67.5,SBD,Wraps,Yes,Amateur Sub-Juniors 17-19,17,2001-12-27
1,Aleksandra Kulikova,Александра Куликова,F,65.2,105,-110,-110,105,,70,-75,75,75,,130,-135,-135,130,,310,67.5,SBD,Wraps,Yes,Amateur Juniors 20-23,20,1998-05-21
1,Daniil Chzhan,Даниил Чжан,M,58.5,110,117.5,122.5,122.5,,62.5,65,67.5,67.5,,125,135,142.5,142.5,,332.5,60,SBD,Wraps,Yes,Amateur Teen 14-16,15,2003-12-08
1,Elmir Tarverdiyev,,M,59.1,160,-170,-170,160,,90,100,,100,,-205,205,-220,205,,465,60,SBD,Wraps,Yes,Amateur Open,35,1983-07-09
2,Oleg Dvoynikov,Олег Двойников,M,59.6,115,125,-130,125,,82.5,87.5,90,90,,155,165,-170,165,,380,60,SBD,Wraps,Yes,Amateur Open,58,1960-10-08
1,Oleg Dvoynikov,Олег Двойников,M,59.6,115,125,-130,125,,82.5,87.5,90,90,,155,165,-170,165,,380,60,SBD,Wraps,Yes,Amateur Masters 50-59,58,1960-10-08
1,Vladislav Vokulov,Владислав Вокулов,M,65.6,120,125,-132.5,125,,80,85,-87.5,85,,120,130,140,140,,350,67.5,SBD,Wraps,Yes,Amateur Teen 14-16,16,2002-12-06
1,Mikhail Gerasimov,Михаил Герасимов,M,66.3,180,-190,-190,180,,130,140,-145,140,,-160,-160,160,160,,480,67.5,SBD,Wraps,Yes,Amateur Open,35,1983-08-06
2,Vladimir Greshnov,Владимир Грешнов,M,65.4,-90,90,97.5,97.5,,70,75,-80,75,,122.5,127.5,,127.5,,300,67.5,SBD,Wraps,Yes,Amateur Open,25,1993-09-27
1,Magomet Khadziev,Магомет Хадзиев,M,72.6,-110,120,135,135,,85,95,-105,95,,150,165,175,175,,405,75,SBD,Wraps,Yes,Amateur Teen 14-16,16,2002-06-20
1,Vardgez Paronyan,Вардгез Паронян,M,74.1,-200,200,-210,200,,120,127.5,-130,127.5,,210,225,247.5,247.5,,575,75,SBD,Wraps,Yes,Amateur Sub-Juniors 17-19,18,2001-02-08
1,Aleksandr Lutsenko,Александр Луценко,M,75,160,175,182.5,182.5,,125,127.5,-132.5,127.5,,230,250,265,265,,575,75,SBD,Wraps,Yes,Amateur Juniors 20-23,22,1996-09-15
2,Daniil Osipov,Даниил Осипов,M,73.3,190,195,-200,195,,115,122.5,125,125,,210,222.5,230,230,,550,75,SBD,Wraps,Yes,Amateur Juniors 20-23,21,1997-06-04
3,Ruslan Sleptsov,Руслан Слепцов,M,72.4,120,135,145,145,,75,85,,85,,-175,180,-185,180,,410,75,SBD,Wraps,Yes,Amateur Juniors 20-23,21,1998-03-15
1,Dmitriy Pleskach,Дмитрий Плескач,M,74.9,210,-217.5,217.5,217.5,,125,130,-132.5,130,,230,-245,-255,230,,577.5,75,SBD,Wraps,Yes,Amateur Open,30,1988-07-31
2,Maksim Timofeev,Максим Тимофеев,M,74.4,125,-135,140,140,,-115,120,125,125,,145,155,165,165,,430,75,SBD,Wraps,Yes,Amateur Open,29,1989-10-18
3,Artur Tretyukhin,Артур Третюхин,M,68.7,110,115,120,120,,80,92.5,-100,92.5,,140,145,150,150,,362.5,75,SBD,Wraps,Yes,Amateur Open,26,1993-02-17
4,Maksim Kalinichenko,Максим Калиниченко,M,73.8,-105,105,-110,105,,85,-90,-90,85,,125,135,-140,135,,325,75,SBD,Wraps,Yes,Amateur Open,26,1993-01-01
DQ,Konstantin Lanin,Константин Ланин,M,74.5,140,150,155,155,,100,105,-110,105,,-180,-180,-185,,,,75,SBD,Wraps,Yes,Amateur Open,34,1984-12-14
1,Denis Prin,Денис Принь,M,81.9,165,-185,-195,165,,-125,125,-135,125,,180,195,210,210,,500,82.5,SBD,Wraps,Yes,Amateur Sub-Juniors 17-19,19,2000-01-09
2,Andrey Roykhka,Андрей Ройхка,M,82,130,140,150,150,,80,85,90,90,,170,180,-190,180,,420,82.5,SBD,Wraps,Yes,Amateur Sub-Juniors 17-19,17,2001-06-22
1,Evgeniy Sokolov,Евгений Соколов,M,78.8,-150,160,-170,160,,100,-105,105,105,,235,245,-250,245,,510,82.5,SBD,Wraps,Yes,Amateur Juniors 20-23,22,1996-08-20
2,Kim Danilov,Ким Данилов,M,82.2,150,160,-165,160,,110,-115,117.5,117.5,,200,212.5,-220,212.5,,490,82.5,SBD,Wraps,Yes,Amateur Juniors 20-23,23,1995-07-30
DQ,Nikita Zakharov,Никита Захаров,M,79.5,-190,190,200,200,,-125,-125,-125,,,,,,,,,82.5,SBD,Wraps,Yes,Amateur Juniors 20-23,20,1998-08-31
1,Dmitriy Samoylenko,Дмитрий Самойленко,M,79.8,195,205,215,215,,140,-145,,140,,230,247.5,-250,247.5,,602.5,82.5,SBD,Wraps,Yes,Amateur Open,24,1994-11-13
2,Aleksandr Kharchenko,Александр Харченко,M,81.8,167.5,172.5,177.5,177.5,,150,155,-160,155,,190,200,-205,200,,532.5,82.5,SBD,Wraps,Yes,Amateur Open,26,1993-04-22
3,Daniil Khuseinov,Даниил Хусеинов,M,82.4,180,-190,190,190,,110,120,-125,120,,200,210,-225,210,,520,82.5,SBD,Wraps,Yes,Amateur Open,24,1994-11-11
1,Stanislav Khitretsov,Станислав Хитрецов,M,79.2,-160,160,175,175,,120,130,137.5,137.5,,170,190,200,200,,512.5,82.5,SBD,Wraps,Yes,Amateur Masters 40-49,44,1975-04-08
1,Valeriy Bukanov,Валерий Буканов,M,80.9,160,-170,170,170,,105,110,115,115,,180,190,195,195,,480,82.5,SBD,Wraps,Yes,Amateur Masters 60-69,63,1956-01-01
2,Sergey Batrakov,Сергей Батраков,M,82.1,-140,140,150,150,,-85,-85,85,85,,160,167.5,172.5,172.5,,407.5,82.5,SBD,Wraps,Yes,Amateur Masters 60-69,62,1956-07-06
1,Ivan Kopytin,Иван Копытин,M,89.2,210,220,-230,220,,140,-145,145,145,,240,260,-270,260,,625,90,SBD,Wraps,Yes,Amateur Sub-Juniors 17-19,19,1999-07-07
1,Dmitriy Chernyshev,Дмитрий Чернышев,M,89,210,220,227.5,227.5,,-155,155,,155,,290,307.5,-315,307.5,,690,90,SBD,Wraps,Yes,Amateur Open,45,1974-01-22
2,Andrey Arzamazov,Андрей Арзамазов,M,87.5,210,217.5,225,225,,155,162.5,-167.5,162.5,,230,-235,-235,230,,617.5,90,SBD,Wraps,Yes,Amateur Open,27,1992-05-05
3,Andrey Simkin,Андрей Симкин,M,89.7,205,215,230,230,,140,-150,-150,140,,225,240,-252.5,240,,610,90,SBD,Wraps,Yes,Amateur Open,35,1983-05-27
4,Evgeniy Kivik,Евгений Кивик,M,88.9,190,205,-212.5,205,,137.5,142.5,-145,142.5,,240,250,-260,250,,597.5,90,SBD,Wraps,Yes,Amateur Open,33,1986-03-13
5,Imamutdin Ataev,Имамутдин Атаев,M,88.9,175,-185,-185,175,,120,-127.5,-127.5,120,,200,-210,210,210,,505,90,SBD,Wraps,Yes,Amateur Open,30,1988-10-12
6,Viktor Vedenskiy,Виктор Веденский,M,88.1,135,145,-155,145,,110,115,-117.5,115,,-200,210,225,225,,485,90,SBD,Wraps,Yes,Amateur Open,27,1992-04-01
7,Maksim Volkov,Максим Волков,M,87.8,150,160,-175,160,,120,130,-140,130,,-170,-170,180,180,,470,90,SBD,Wraps,Yes,Amateur Open,24,1994-09-18
DQ,Artem Petrov,Артем Петров,M,87.8,-170,-170,-180,,,,,,,,,,,,,,90,SBD,Wraps,Yes,Amateur Open,27,1992-05-09
1,Klim Zakharov,Клим Захаров,M,89.9,-150,150,170,170,,110,120,-125,120,,200,210,220,220,,510,90,SBD,Wraps,Yes,Amateur Masters 40-49,45,1974-05-01
1,Slavyan Stoichev,,M,99,260,270,-275,270,,160,170,172.5,172.5,,270,285,-290,285,,727.5,100,SBD,Wraps,Yes,Amateur Open,33,1986-01-06
2,Vladimir Mironov,Владимир Миронов,M,98.5,200,-210,210,210,,145,155,-160,155,,220,240,-250,240,,605,100,SBD,Wraps,Yes,Amateur Open,,1985-05-11
3,Aleksandr Apukhtin,Александр Апухтин,M,97.3,190,200,-210,200,,142.5,-147.5,,142.5,,230,-242.5,,230,,572.5,100,SBD,Wraps,Yes,Amateur Open,25,1993-12-21
4,Vasiliy Litvinov,Василий Литвинов,M,93.2,180,190,200,200,,150,-155,-155,150,,200,-210,215,215,,565,100,SBD,Wraps,Yes,Amateur Open,34,1984-12-12
5,Aleksey Panov,Алексей Панов,M,97.4,-165,-165,165,165,,145,-152.5,155,155,,170,-185,200,200,,520,100,SBD,Wraps,Yes,Amateur Open,26,1993-04-26
1,Maksim Timofeev,Максим Тимофеев,M,107.4,180,190,195,195,,130,135,140,140,,190,200,-210,200,,535,110,SBD,Wraps,Yes,Amateur Sub-Juniors 17-19,19,1999-11-14
1,Rustam Tumgoev,Рустам Тумгоев,M,102.3,220,240,-250,240,,170,-180,-180,170,,230,250,-265,250,,660,110,SBD,Wraps,Yes,Amateur Open,29,1989-12-13
1,Magomedamin Israpilov,Магомедамин Исрапилов,M,108.5,220,-235,-235,220,,140,150,160,160,,200,210,-220,210,,590,110,SBD,Wraps,Yes,Amateur Masters 40-49,44,1975-05-03
1,Ion Parshikov,Ион Паршиков,M,116.9,250,-260,-260,250,,160,-170,-170,160,,250,-255,,250,,660,125,SBD,Wraps,Yes,Amateur Juniors 20-23,23,1995-10-14
1,Ion Parshikov,Ион Паршиков,M,116.9,250,-260,-260,250,,160,-170,-170,160,,250,-255,,250,,660,125,SBD,Wraps,Yes,Amateur Open,23,1995-10-14
1,Yuliya Zhuk,Юлия Жук,F,45.9,50,55,57.5,57.5,,25,27.5,-30,27.5,,70,77.5,85,85,,170,48,SBD,Wraps,No,Pro Open,33,1986-04-01
1,Elena Bondarchuk,Елена Бондарчук,F,59.8,107.5,117.5,120,120,,67.5,-72.5,72.5,72.5,,132.5,-145,-145,132.5,,325,60,SBD,Wraps,No,Pro Open,38,1980-06-18
1,Antonina Sboynova,Антонина Сбойнова,F,64.6,90,97.5,-105,97.5,,47.5,52.5,55,55,,120,-135,135,135,,287.5,67.5,SBD,Wraps,No,Pro Open,44,1974-08-01
1,Viktoriya Doga,Виктория Дога,F,75,137.5,147.5,155,155,,102.5,107.5,-112.5,107.5,,170,185,-195,185,,447.5,75,SBD,Wraps,No,Pro Open,36,1982-09-04
2,Kseniya Petrova,Ксения Петрова,F,68.7,80,87.5,-92.5,87.5,,45,50,52.5,52.5,,90,100,105,105,,245,75,SBD,Wraps,No,Pro Open,28,1990-10-23
1,Anna Pardzhiani,Анна Парджиани,F,82.3,207.5,-215,215,215,,125,130,135,135,,205,215,222.5,222.5,,572.5,82.5,SBD,Raw,No,Pro Open,22,1996-11-06
1,Marina Puzhaeva,Марина Пужаева,F,105.9,-87.5,87.5,97.5,97.5,,45,50,-52.5,50,,87.5,-97.5,97.5,97.5,,245,90+,SBD,Wraps,No,Pro Open,24,1994-06-13
1,Denis Koltsov,Денис Кольцов,M,66,130,140,145,145,,85,90,-95,90,,125,135,140,140,,375,67.5,SBD,Wraps,No,Pro Open,17,2002-02-23
2,Denis Yakovlev,Денис Яковлев,M,66.5,-105,105,-110,105,,80,85,-87.5,85,,160,-165,165,165,,355,67.5,SBD,Wraps,No,Pro Open,33,1985-06-15
1,Rovshan Khalilov,,M,74.9,200,217.5,-230,217.5,,160,172.5,-175,172.5,,245,260,-275,260,,650,75,SBD,Wraps,No,Pro Open,28,1990-11-08
2,Dmitriy Kacharmin,Дмитрий Качармин,M,74.1,150,162.5,172.5,172.5,,115,125,130,130,,180,200,215,215,,517.5,75,SBD,Wraps,No,Pro Open,31,1987-08-09
1,Denis Shishkin,Денис Шишкин,M,81.8,220,230,240,240,,170,180,,180,,280,300,-312.5,300,,720,82.5,SBD,Wraps,No,Pro Open,36,1983-04-20
2,Konstantin Fomichev,Константин Фомичев,M,81.3,190,200,,200,,135,140,-145,140,,240,255,260,260,,600,82.5,SBD,Wraps,No,Pro Open,33,1985-07-19
3,Roman Ahmadov,,M,82.3,170,180,190,190,,132.5,137.5,-142.5,137.5,,245,255,270,270,,597.5,82.5,SBD,Wraps,No,Pro Open,34,1985-02-13
4,Maksim Kalinin,Максим Калинин,M,80,210,-220,-220,210,,140,145,-147.5,145,,230,240,-245,240,,595,82.5,SBD,Wraps,No,Pro Open,32,1987-03-29
1,Ilya Chumakov,Илья Чумаков,M,89,245,265,-280,265,,135,150,160,160,,245,265,277.5,277.5,,702.5,90,SBD,Wraps,No,Pro Juniors 20-23,21,1997-06-24
2,Nihad Guliyev,,M,86.1,210,230,245,245,,150,-162.5,,150,,220,240,250,250,,645,90,SBD,Wraps,No,Pro Juniors 20-23,20,1998-05-30
1,Aleksey Zavadskiy,Алексей Завадский,M,89.8,230,240,250,250,,175,180,185,185,,280,295,-300,295,,730,90,SBD,Wraps,No,Pro Open,28,1990-08-30
2,Ilya Chumakov,Илья Чумаков,M,89,245,265,-280,265,,135,150,160,160,,245,265,277.5,277.5,,702.5,90,SBD,Wraps,No,Pro Open,21,1997-06-24
3,Aleksandr Dorzhiev,Александр Доржиев,M,88.7,227.5,240,-250,240,,160,170,180,180,,250,265,-280,265,,685,90,SBD,Wraps,No,Pro Open,34,1984-07-10
4,Daniil Nemov,Даниил Немов,M,89.5,225,-240,-240,225,,130,137.5,142.5,142.5,,310,-332.5,-332.5,310,,677.5,90,SBD,Wraps,No,Pro Open,,1998-05-12
5,Nihad Guliyev,,M,86.1,210,230,245,245,,150,-162.5,,150,,220,240,250,250,,645,90,SBD,Wraps,No,Pro Open,20,1998-05-30
1,Nikolay Ryakhin,Николай Ряхин,M,87.7,160,170,-180,170,,110,115,120,120,,210,220,225,225,,515,90,SBD,Wraps,No,Pro Masters 50-59,54,1965-01-25
1,Sergey Borovkov,Сергей Боровков,M,93.5,235,-245,-245,235,,177.5,182.5,185,185,,280,290,-300,290,,710,100,SBD,Wraps,No,Pro Open,28,1991-03-05
2,Artem Turbar,Артем Турбар,M,99.7,-240,250,260,260,,160,170,175,175,,240,-260,265,265,,700,100,SBD,Wraps,No,Pro Open,38,1981-04-04
3,Aleksandr Bersenev,Александр Берсенев,M,97.8,215,-230,-230,215,,180,190,-200,190,,240,260,-280,260,,665,100,SBD,Wraps,No,Pro Open,41,1978-03-08
1,Aleksandr Bersenev,Александр Берсенев,M,97.8,215,-230,-230,215,,180,190,-200,190,,240,260,-280,260,,665,100,SBD,Wraps,No,Pro Masters 40-49,41,1978-03-08
1,Fedor Laevskiy,Федор Лаевский,M,96.7,165,172.5,177.5,177.5,,125,130,-132.5,130,,200,207.5,212.5,212.5,,520,100,SBD,Wraps,No,Pro Masters 50-59,51,1968-01-07
1,Vladislav Fomenkov,Владислав Фоменков,M,104.3,240,252.5,-260,252.5,,150,157.5,,157.5,,-270,270,-285,270,,680,110,SBD,Wraps,No,Pro Juniors 20-23,21,1997-06-04
1,Denis Deryagin,Денис Дерягин,M,109.5,225,237.5,245,245,,200,207.5,-212.5,207.5,,240,250,257.5,257.5,,710,110,SBD,Wraps,No,Pro Open,39,1980-02-28
2,Ivan Baklanov,Иван Бакланов,M,103.7,220,230,237.5,237.5,,175,-185,-185,175,,255,265,270,270,,682.5,110,SBD,Wraps,No,Pro Open,36,1983-04-16
1,Magomedamin Israpilov,Магомедамин Исрапилов,M,108.5,220,-235,-235,220,,140,150,160,160,,200,210,-220,210,,590,110,SBD,Wraps,No,Pro Masters 40-49,44,1975-05-03
1,Vladimir Rzhankov,Владимир Ржанков,M,105.8,-200,-200,200,200,,135,145,155,155,,-220,220,235,235,,590,110,SBD,Wraps,No,Pro Masters 50-59,57,1962-05-03
1,Denis Astakhov,Денис Астахов,M,117.5,330,342.5,-355,342.5,,135,,,135,,300,315,-320,315,,792.5,125,SBD,Wraps,No,Pro Open,34,1984-05-21
2,Sergey Kazubskiy,Сергей Казубский,M,113.5,170,-190,190,190,,130,140,145,145,,180,190,200,200,,535,125,SBD,Wraps,No,Pro Open,39,1980-01-06
1,Ruslan Omarov,Руслан Омаров,M,128.5,290,310,-320,310,,190,200,215,215,,315,-330,-330,315,,840,140,SBD,Wraps,No,Pro Open,35,1983-07-07
2,Maksim Bezinskikh,Максим Безинских,M,129.4,242.5,257.5,262.5,262.5,,185,195,-200,195,,245,260,265,265,,722.5,140,SBD,Wraps,No,Pro Open,32,1986-05-18
1,Filipp Obukhov,Филипп Обухов,M,187,360,-390,400,400,,230,-240,240,240,,-300,300,330,330,,970,140+,SBD,Wraps,No,Pro Open,25,1993-11-09
DQ,Anastasiya Kropotova,Анастасия Кропотова,F,51.4,-100,-105,-105,,,,,,,,,,,,,,52,SBD,Wraps,Yes,Amateur Open,25,1994-01-30
1,Ella Unashkhotleva,Элла Унашхотлева,F,58.2,-115,125,130,130,,55,57.5,-60,57.5,,100,115,125,125,,312.5,60,SBD,Wraps,Yes,Amateur Open,35,1983-09-19
1,Tatyana Farrafutdinova,Татьяна Фаррафутдинова,F,73.2,125,130,-132.5,130,,65,-67.5,-67.5,65,,110,125,-132.5,125,,320,75,SBD,Wraps,Yes,Amateur Open,36,1983-05-05
1,Edvards Juhimenko,,M,63.2,-155,-165,165,165,,85,90,92.5,92.5,,150,160,,160,,417.5,67.5,SBD,Wraps,Yes,Youth,13,2005-07-22
1,Artyom Abashev,Артём Абашев,M,66,170,180,,180,,105,110,-115,110,,200,215,,215,,505,67.5,SBD,Wraps,Yes,Amateur Juniors 20-23,20,1999-01-22
DQ,Stanislav Sanotskiy,Станислав Саноцкий,M,63,-225,-225,-225,,,,,,,,,,,,,,67.5,SBD,Wraps,Yes,Amateur Juniors 20-23,22,1996-12-06
1,Konstantin Sviridov,,M,66.7,100,107.5,,107.5,,85,-90,,85,,145,160,-170,160,,352.5,67.5,SBD,Wraps,Yes,Amateur Open,34,1985-04-13
DQ,Gasan Nasurdinov,Гасан Насурдинов,M,70.3,-145,-150,-150,,,,,,,,,,,,,,75,SBD,Wraps,Yes,Amateur Sub-Juniors 17-19,19,1999-09-22
1,Shamil Mursaliev,Шамил Мурсалиев,M,72.9,165,175,180,180,,110,117.5,-122.5,117.5,,175,-192.5,-192.5,175,,472.5,75,SBD,Wraps,Yes,Amateur Juniors 20-23,20,1998-12-12
1,Artem Zabelin,Артем Забелин,M,73.4,-225,-230,230,230,,130,140,145,145,,215,-225,225,225,,600,75,SBD,Wraps,Yes,Amateur Open,28,1990-07-09
1,Sergey Dolgushin,Сергей Долгушин,M,80.6,190,200,,200,,125,135,-142.5,135,,200,-225,,200,,535,82.5,SBD,Wraps,Yes,Amateur Open,26,1992-07-23
2,Kirill Nikulshin,Кирилл Никульшин,M,75.9,165,175,-185,175,,90,-95,100,100,,160,170,180,180,,455,82.5,SBD,Wraps,Yes,Amateur Open,31,1987-12-29
1,Maksim Vorobev,Максим Воробьев,M,96.1,200,-210,215,215,,-155,-155,155,155,,200,210,220,220,,590,100,SBD,Wraps,Yes,Amateur Juniors 20-23,23,1996-04-19
1,Roman Kazak,Роман Казак,M,109.4,245,-260,260,260,,140,150,-160,150,,220,240,-250,240,,650,110,SBD,Wraps,Yes,Amateur Open,35,1984-04-09
2,Magomedamin Israpilov,Магомедамин Исрапилов,M,108.5,-230,230,,230,,140,150,160,160,,200,210,-220,210,,600,110,SBD,Wraps,Yes,Amateur Open,44,1975-05-03
1,Magomedamin Israpilov,Магомедамин Исрапилов,M,108.5,-230,230,,230,,140,150,160,160,,200,210,-220,210,,600,110,SBD,Wraps,Yes,Amateur Masters 40-49,44,1975-05-03
1,Egor Smorodskiy,Егор Смородский,M,113,185,-200,200,200,,117.5,122.5,-125,122.5,,165,175,182.5,182.5,,505,125,SBD,Wraps,Yes,Amateur Teen 14-16,16,2002-07-16
1,Evgeniy Spesivtsev,Евгений Спесивцев,M,122,220,-240,-250,220,,140,150,-157.5,150,,200,220,230,230,,600,125,SBD,Wraps,Yes,Amateur Open,26,1992-05-29
1,Nikita Tkachenko,Никита Ткаченко,M,131,-185,-185,185,185,,135,145,-155,145,,190,-205,210,210,,540,140,SBD,Wraps,Yes,Amateur Sub-Juniors 17-19,17,2002-03-11
1,Marina Savka,Марина Савка,F,58.3,90,100,-110,100,,50,52.5,-57.5,52.5,,100,110,120,120,,272.5,60,SBD,Wraps,No,Pro Masters 40-49,40,1979-01-21
1,Marina Morozova,Марина Морозова,F,74.5,-200,200,-210,200,,100,107.5,-112.5,107.5,,200,210,215,215,,522.5,75,SBD,Wraps,No,Pro Open,40,1978-10-09
1,Mohammad Raeisi,,M,82,-330,330,-340,330,,150,157.5,162.5,162.5,,305,-320,-320,305,,797.5,82.5,SBD,Wraps,No,Pro Juniors 20-23,22,1997-04-05
DQ,Artyom Bortnik,Артём Бортник,M,82,255,267.5,275,275,,-167.5,-172.5,-172.5,,,,,,,,,82.5,SBD,Wraps,No,Pro Juniors 20-23,23,1995-07-17
1,Maksim Nurutdinov,Максим Нурутдинов,M,82.1,300,325,330,330,,160,167.5,172.5,172.5,,295,-310,-310,295,,797.5,82.5,SBD,Wraps,No,Pro Open,36,1982-07-28
DQ,Artyom Bortnik,Артём Бортник,M,82,255,267.5,275,275,,-167.5,-172.5,-172.5,,,,,,,,,82.5,SBD,Wraps,No,Pro Open,23,1995-07-17
DQ,Dmitriy Yaskevich,Дмитрий Яскевич,M,86,-215,-215,-215,,,,,,,,,,,,,,90,SBD,Wraps,No,Pro Juniors 20-23,22,1997-01-24
1,Vladislav Mukhin,Владислав Мухин,M,84.5,240,-250,-260,240,,150,160,165,165,,230,240,250,250,,655,90,SBD,Wraps,No,Pro Open,36,1983-03-01
2,Evgeniy Neverov,Евгений Неверов,M,89.1,-232.5,235,-247.5,235,,150,160,,160,,230,242.5,250,250,,645,90,SBD,Wraps,No,Pro Open,35,1983-05-21
3,Oleg Tikhonovskiy,Олег Тихоновский,M,88.6,-240,240,245,245,,135,142.5,150,150,,210,230,-235,230,,625,90,SBD,Wraps,No,Pro Open,40,1978-08-04
DQ,Grigoriy Kuzin,Григорий Кузин,M,89.8,-290,-290,-290,,,,,,,,,,,,,,90,SBD,Wraps,No,Pro Open,31,1987-05-16
1,Oleg Tikhonovskiy,Олег Тихоновский,M,88.6,-240,240,245,245,,135,142.5,150,150,,210,230,-235,230,,625,90,SBD,Wraps,No,Pro Masters 40-49,40,1978-08-04
1,Konstantin Dremenkov,Константин Дременков,M,86.3,225,240,-252.5,240,,150,-160,160,160,,250,265,280,280,290,680,90,SBD,Wraps,No,Pro Masters 50-59,52,1966-07-21
1,Eick Lewin,,M,96.7,260,280,295,295,,140,160,-175,160,,-270,270,301,301,,756,100,SBD,Wraps,No,Pro Juniors 20-23,20,1998-08-14
1,Ramil Ahmadov,,M,97.9,300,-310,310,310,,205,210,,210,,315,-322.5,-325,315,,835,100,SBD,Wraps,No,Pro Open,31,1988-05-06
2,Mikhaylo Zhelyazkov,Михайло Желязков,M,98.6,320,-330,330,330,,180,185,-190,185,,320,-330,-330,320,,835,100,SBD,Wraps,No,Pro Open,38,1980-09-12
3,Igor Vorobev,Игорь Воробьев,M,97.2,320,-335,-335,320,,-175,175,-185,175,,320,-340,-342.5,320,,815,100,SBD,Wraps,No,Pro Open,24,1994-06-18
4,Dmitriy Serdyukov,Дмитрий Сердюков,M,99.6,250,-270,280,280,,170,180,190,190,,250,270,-280,270,,740,100,SBD,Wraps,No,Pro Open,27,1991-11-03
5,Mikhail Sharay,Михаил Шарай,M,99.8,280,-300,-300,280,,150,-160,-160,150,,-280,280,-290,280,,710,100,SBD,Wraps,No,Pro Open,29,1989-07-14
6,Ivan Dyachek,Иван Дьячек,M,97.2,245,260,270,270,,170,180,-185,180,,-240,247.5,255,255,,705,100,SBD,Wraps,No,Pro Open,28,1990-10-08
DQ,Ilya Prmanov,Илья Прманов,M,98.1,-260,-260,-260,,,,,,,,,,,,,,100,SBD,Wraps,No,Pro Open,30,1989-01-25
1,Sergey Chakin,Сергей Чакин,M,98.3,260,-275,275,275,,170,180,185,185,,220,240,260,260,,720,100,SBD,Wraps,No,Pro Masters 40-49,45,1974-03-24
1,Nikolay Kuzmin,Николай Кузьмин,M,101.1,270,-285,-285,270,,175,185,-190,185,,280,-300,-300,280,,735,110,SBD,Wraps,No,Pro Juniors 20-23,23,1996-02-20
1,Dmitriy Ivanov,Дмитрий Иванов,M,107.8,282.5,292.5,-300,292.5,,210,-217.5,,210,,275,290,-300,290,,792.5,110,SBD,Wraps,No,Pro Open,25,1993-07-16
2,Elviss Kranats,,M,108.9,250,-260,260,260,,160,-170,-170,160,,260,280,-290,280,,700,110,SBD,Wraps,No,Pro Open,24,1994-09-21
3,Magomedamin Israpilov,Магомедамин Исрапилов,M,108.5,-230,230,,230,,140,150,160,160,,200,210,-220,210,,600,110,SBD,Wraps,No,Pro Open,44,1975-05-03
1,Magomedamin Israpilov,Магомедамин Исрапилов,M,108.5,-230,230,,230,,140,150,160,160,,200,210,-220,210,,600,110,SBD,Wraps,No,Pro Masters 40-49,44,1975-05-03
1,Razim Huseynov,,M,123.6,-380,380,395,395,,-245,245,-250,245,,320,-337.5,-337.5,320,,960,125,SBD,Wraps,No,Pro Open,43,1975-12-28
2,Sergey Sidorenko,Сергей Сидоренко,M,111.9,-255,265,-275,265,,170,190,200,200,,270,-285,-285,270,,735,125,SBD,Wraps,No,Pro Open,37,1982-03-25
DQ,Valeriy Kurkov,Валерий Курков,M,119.9,-247.5,-257.5,-262.5,,,,,,,,,,,,,,125,SBD,Wraps,No,Pro Open,26,1992-07-07
1,Dmitriy Starov,Дмитрий Старов,M,121,-260,-260,260,260,,-155,160,-165,160,,260,270,280,280,,700,125,SBD,Wraps,No,Pro Masters 40-49,46,1973-02-01
1,Aleksandr Kasyanenko,Александр Касьяненко,M,129,-280,-280,280,280,,190,200,210,210,,280,300,-310,300,,790,140,SBD,Wraps,No,Pro Open,29,1989-06-01
1,Andrey Malanichev,Андрей Маланичев,M,160.6,-440,460,-470,460,,230,-245,245,245,,360,375,-385,375,,1080,140+,SBD,Wraps,No,Pro Open,42,1977-01-10
2,Ivan Ryabenkov,Иван Рябенков,M,145.9,400,415,-422.5,415,,195,-205,205,205,,370,-380,-380,370,,990,140+,SBD,Wraps,No,Pro Open,23,1996-01-14
1,Dzhamilya Gukepsheva,Джамиля Гукепшева,F,47.3,,,,,,60,65,70,70,,,,,,,70,48,B,Raw,Yes,Amateur Open,31,1987-09-19
2,Viktoriya Shmonina,Виктория Шмонина,F,48,,,,,,62.5,65,-67.5,65,,,,,,,65,48,B,Raw,Yes,Amateur Open,19,1999-07-21
1,Margarita Fomicheva,Маргарита Фомичева,F,50.6,,,,,,50,-55,-55,50,,,,,,,50,52,B,Raw,Yes,Amateur Open,27,1991-06-16
1,Kristina Platonova,Кристина Платонова,F,54.3,,,,,,67.5,70,72.5,72.5,,,,,,,72.5,56,B,Raw,Yes,Amateur Open,29,1990-05-07
2,Tatyana Taranukho,Татьяна Таранухо,F,55.7,,,,,,55,60,62.5,62.5,,,,,,,62.5,56,B,Raw,Yes,Amateur Open,37,1981-07-13
3,Mariya Sokolova,Мария Соколова,F,56,,,,,,47.5,50,52.5,52.5,,,,,,,52.5,56,B,Raw,Yes,Amateur Open,31,1987-07-18
4,Kseniya Artemeva,Ксения Артемьева,F,55.1,,,,,,45,-47.5,-47.5,45,,,,,,,45,56,B,Raw,Yes,Amateur Open,31,1988-04-21
DQ,Diana Zhvakina,Диана Жвакина,F,59.6,,,,,,-75,-75,,,,,,,,,,60,B,Raw,Yes,Amateur Juniors 20-23,22,1996-11-17
1,Valeriya Logacheva,Валерия Логачева,F,57.5,,,,,,72.5,77.5,-80,77.5,,,,,,,77.5,60,B,Raw,Yes,Amateur Open,26,1993-03-11
2,Mariya Polukhina,Мария Полухина,F,58.5,,,,,,45,-47.5,-47.5,45,,,,,,,45,60,B,Raw,Yes,Amateur Open,28,1990-12-08
1,Anastasiya Kuznetsova,Анастасия Кузнецова,F,60,,,,,,42.5,45,-47.5,45,,,,,,,45,60,B,Raw,Yes,Amateur Masters 40-49,41,1977-11-16
1,Ekaterina Morozova,Екатерина Морозова,F,65.6,,,,,,65,-67.5,67.5,67.5,,,,,,,67.5,67.5,B,Raw,Yes,Amateur Open,40,1978-07-23
1,Natalya Ogryzko,Наталья Огрызько,F,71.5,,,,,,105,-107.5,-107.5,105,,,,,,,105,75,B,Raw,Yes,Amateur Open,43,1975-07-12
1,Anastasiya Lisenkova,Анастасия Лисенкова,F,75.8,,,,,,60,65,-70,65,,,,,,,65,82.5,B,Raw,Yes,Amateur Teen 14-16,16,2002-05-15
1,Niki Diamanti,Ники Диаманти,F,82.5,,,,,,60,62.5,65,65,,,,,,,65,82.5,B,Raw,Yes,Amateur Open,24,1995-01-14
2,Evgeniya Roor,Евгения Роор,F,78.4,,,,,,55,60,62.5,62.5,,,,,,,62.5,82.5,B,Raw,Yes,Amateur Open,31,1987-10-28
1,Aleksey Kolisnichenko,Алексей Колисниченко,M,49.9,,,,,,112.5,-115,115,115,,,,,,,115,52,B,Raw,Yes,Amateur Open,24,1994-07-14
1,Kseniya Garaeva,Ксения Гараева,F,54.8,,,,,,60,-62.5,-62.5,60,,,,,,,60,56,B,Raw,Yes,Amateur Open,27,1991-09-20
1,Vadim Rasshchepiy,Вадим Расщепий,M,55.4,,,,,,57.5,62.5,-65,62.5,,,,,,,62.5,56,B,Raw,Yes,Amateur Teen 14-16,15,2003-05-13
1,Nikolay Seliverstov,Николай Селиверстов,M,58.6,,,,,,105,110,112.5,112.5,,,,,,,112.5,60,B,Raw,Yes,Amateur Open,31,1987-11-12
1,Nikita Kalnitskiy,Никита Кальницкий,M,65.4,,,,,,75,80,-85,80,,,,,,,80,67.5,B,Raw,Yes,Amateur Teen 14-16,14,2004-12-14
1,Oleg Tityuk,Олег Титюк,M,66.2,,,,,,97.5,102.5,-105,102.5,,,,,,,102.5,67.5,B,Raw,Yes,Amateur Sub-Juniors 17-19,17,2001-10-20
1,Gleb Zorin,Глеб Зорин,M,66.2,,,,,,107.5,-117.5,-117.5,107.5,,,,,,,107.5,67.5,B,Raw,Yes,Amateur Juniors 20-23,20,1998-06-30
2,Pavel Ugarov,Павел Угаров,M,66.4,,,,,,-102.5,107.5,-115,107.5,,,,,,,107.5,67.5,B,Raw,Yes,Amateur Juniors 20-23,21,1997-11-01
3,Georgiy Dudakov,Георгий Дудаков,M,67.3,,,,,,100,-107.5,-107.5,100,,,,,,,100,67.5,B,Raw,Yes,Amateur Juniors 20-23,20,1999-05-02
1,Viktor Usov,Виктор Усов,M,66.7,,,,,,120,125,-127.5,125,,,,,,,125,67.5,B,Raw,Yes,Amateur Open,29,1989-09-29
2,Andrey Nesterenko,Андрей Нестеренко,M,66,,,,,,110,-125,-125,110,,,,,,,110,67.5,B,Raw,Yes,Amateur Open,32,1986-06-22
3,Evgeniy Kuklin,Евгений Куклин,M,67.2,,,,,,110,-120,-120,110,,,,,,,110,67.5,B,Raw,Yes,Amateur Open,37,1981-12-16
1,Denis Ryabchikov,Денис Рябчиков,M,67.3,,,,,,110,117.5,120,120,,,,,,,120,67.5,B,Raw,Yes,Amateur Masters 40-49,42,1976-07-29
1,Sergey Manvelyan,Сергей Манвелян,M,72.9,,,,,,125,135,155,155,,,,,,,155,75,B,Raw,Yes,Amateur Juniors 20-23,22,1996-07-07
2,Kirill Stepanov,Кирилл Степанов,M,71.3,,,,,,-125,125,-130,125,,,,,,,125,75,B,Raw,Yes,Amateur Juniors 20-23,20,1998-06-16
3,Aleksey Garbuz,Алексей Гарбуз,M,70.3,,,,,,90,95,100,100,,,,,,,100,75,B,Raw,Yes,Amateur Juniors 20-23,22,1996-09-30
DQ,Kirill Kiryanov,Кирилл Кирьянов,M,72.7,,,,,,-110,-117.5,-117.5,,,,,,,,,75,B,Raw,Yes,Amateur Juniors 20-23,21,1998-02-12
1,Vladislav Bolshakov,Владислав Большаков,M,72,,,,,,170,177.5,182.5,182.5,,,,,,,182.5,75,B,Raw,Yes,Amateur Open,28,1990-05-21
2,Pavel Razuvaev,Павел Разуваев,M,71.1,,,,,,145,150,-155,150,,,,,,,150,75,B,Raw,Yes,Amateur Open,30,1988-12-02
3,Aleksandr Sychyov,Александр Сычёв,M,73.9,,,,,,135,-140,-140,135,,,,,,,135,75,B,Raw,Yes,Amateur Open,32,1986-10-26
4,Vasiliy Ivanov,Василий Иванов,M,73.6,,,,,,117.5,122.5,127.5,127.5,,,,,,,127.5,75,B,Raw,Yes,Amateur Open,30,1988-12-22
5,Vitaliy Startsev,Виталий Старцев,M,73.4,,,,,,117.5,125,-130,125,,,,,,,125,75,B,Raw,Yes,Amateur Open,36,1982-07-19
6,Pulat Gadzhiagaev,Пулат Гаджиагаев,M,72.9,,,,,,120,-130,-130,120,,,,,,,120,75,B,Raw,Yes,Amateur Open,27,1991-05-14
7,Dmitriy Kiselyov,Дмитрий Киселёв,M,72.9,,,,,,-100,117.5,-122.5,117.5,,,,,,,117.5,75,B,Raw,Yes,Amateur Open,28,1990-11-16
1,Denis Farutin,Денис Фарутин,M,74.6,,,,,,145,150,-152.5,150,,,,,,,150,75,B,Raw,Yes,Amateur Masters 40-49,42,1977-01-24
1,Sergey Toming,Сергей Томинг,M,73.5,,,,,,122.5,127.5,-132.5,127.5,,,,,,,127.5,75,B,Raw,Yes,Amateur Masters 50-59,50,1968-12-09
2,Andrey Belov,Андрей Белов,M,72.2,,,,,,112.5,117.5,-122.5,117.5,,,,,,,117.5,75,B,Raw,Yes,Amateur Masters 50-59,50,1969-02-22
1,Boriss Laishin,,M,71.4,,,,,,107.5,-110,-110,107.5,,,,,,,107.5,75,B,Raw,Yes,Amateur Masters 60-69,68,1950-08-06
2,Valeriy Ovintsovskiy,Валерий Овинцовский,M,72.4,,,,,,80,87.5,-95,87.5,,,,,,,87.5,75,B,Raw,Yes,Amateur Masters 60-69,67,1951-06-13
1,Pavel Aksyonov,Павел Аксёнов,M,75.6,,,,,,130,135,-140,135,,,,,,,135,82.5,B,Raw,Yes,Amateur Sub-Juniors 17-19,19,1999-07-12
2,Evgeniy Tseyklin,Евгений Цейклин,M,75.9,,,,,,115,120,122.5,122.5,,,,,,,122.5,82.5,B,Raw,Yes,Amateur Sub-Juniors 17-19,18,2000-09-17
1,Ivan Grigorev,Иван Григорьев,M,81.9,,,,,,157.5,-167.5,167.5,167.5,,,,,,,167.5,82.5,B,Raw,Yes,Amateur Open,28,1990-11-16
2,Aleksey Limarev,Алексей Лимарев,M,82.5,,,,,,167.5,-172.5,-172.5,167.5,,,,,,,167.5,82.5,B,Raw,Yes,Amateur Open,32,1986-09-05
3,Oleg Khvan,Олег Хван,M,81.2,,,,,,155,160,-165,160,,,,,,,160,82.5,B,Raw,Yes,Amateur Open,28,1991-01-16
4,Parviz Mamadov,Парвиз Мамадов,M,81.5,,,,,,160,-167.5,-167.5,160,,,,,,,160,82.5,B,Raw,Yes,Amateur Open,38,1981-03-13
5,Vagik Avetyan,Вагик Аветян,M,81.8,,,,,,145,160,-167.5,160,,,,,,,160,82.5,B,Raw,Yes,Amateur Open,29,1989-06-17
6,Andrey Dyu,Андрей Дю,M,77.6,,,,,,140,145,150,150,,,,,,,150,82.5,B,Raw,Yes,Amateur Open,38,1980-10-26
7,Edgar Gruzdev,Эдгар Груздев,M,81.4,,,,,,145,-150,150,150,,,,,,,150,82.5,B,Raw,Yes,Amateur Open,30,1988-09-19
8,Aleksandr Ligay,Александр Лигай,M,81.5,,,,,,145,-150,150,150,,,,,,,150,82.5,B,Raw,Yes,Amateur Open,32,1987-03-21
9,Evgeniy Klyukvin,Евгений Клюквин,M,79.5,,,,,,135,140,145,145,,,,,,,145,82.5,B,Raw,Yes,Amateur Open,37,1981-07-04
10,Valeriy Malik,Валерий Малик,M,81.3,,,,,,130,-145,145,145,,,,,,,145,82.5,B,Raw,Yes,Amateur Open,28,1990-09-22
11,Aleksey Grobovoy,Алексей Гробовой,M,79.7,,,,,,135,140,-142.5,140,,,,,,,140,82.5,B,Raw,Yes,Amateur Open,32,1987-05-02
12,Yuriy Simonov,Юрий Симонов,M,80.3,,,,,,130,140,,140,,,,,,,140,82.5,B,Raw,Yes,Amateur Open,25,1993-06-06
13,Pavel Aksyonov,Павел Аксёнов,M,75.6,,,,,,130,135,-140,135,,,,,,,135,82.5,B,Raw,Yes,Amateur Open,19,1999-07-12
14,Pavel Serebryakov,Павел Серебряков,M,77.3,,,,,,130,132.5,-135,132.5,,,,,,,132.5,82.5,B,Raw,Yes,Amateur Open,34,1985-02-24
15,Vladimir Chernov,Владимир Чернов,M,81,,,,,,130,-135,-135,130,,,,,,,130,82.5,B,Raw,Yes,Amateur Open,36,1982-12-27
16,Vitaliy Chechkin,Виталий Чечкин,M,81.6,,,,,,120,127.5,-132.5,127.5,,,,,,,127.5,82.5,B,Raw,Yes,Amateur Open,34,1985-01-13
DQ,Aleksandr Grammatchikov,Александр Грамматчиков,M,81.4,,,,,,-135,-135,-135,,,,,,,,,82.5,B,Raw,Yes,Amateur Open,34,1985-02-27
DQ,Semyon Neronov,Семён Неронов,M,81.9,,,,,,-150,-155,-155,,,,,,,,,82.5,B,Raw,Yes,Amateur Open,31,1987-06-08
1,Stanislav Rusinov,Станислав Русинов,M,81.1,,,,,,145,150,-155,150,,,,,,,150,82.5,B,Raw,Yes,Amateur Masters 40-49,41,1978-04-21
1,Ivan Kopytin,Иван Копытин,M,89.2,,,,,,140,-145,145,145,,,,,,,145,90,B,Raw,Yes,Amateur Sub-Juniors 17-19,19,1999-07-07
2,Viktor Reshetnikov,Виктор Решетников,M,84.9,,,,,,107.5,-112.5,-112.5,107.5,,,,,,,107.5,90,B,Raw,Yes,Amateur Sub-Juniors 17-19,17,2001-06-29
1,Evgeniy Mazur,Евгений Мазур,M,87.5,,,,,,175,180,-185,180,,,,,,,180,90,B,Raw,Yes,Amateur Open,28,1990-11-30
2,Aleksey Taldykin,Алексей Талдыкин,M,87.1,,,,,,160,-165,165,165,,,,,,,165,90,B,Raw,Yes,Amateur Open,39,1980-03-29
3,Eduard Lapin,Эдуард Лапин,M,88.3,,,,,,155,165,-175,165,,,,,,,165,90,B,Raw,Yes,Amateur Open,23,1996-03-24
4,Aleksey Shestov,Алексей Шестов,M,88.4,,,,,,155,160,-162.5,160,,,,,,,160,90,B,Raw,Yes,Amateur Open,32,1986-07-03
5,Nikolay Shumskiy,Николай Шумский,M,89.1,,,,,,145,152.5,155,155,,,,,,,155,90,B,Raw,Yes,Amateur Open,34,1984-06-29
6,Andrey Kolupaev,Андрей Колупаев,M,89.5,,,,,,155,-167.5,-175,155,,,,,,,155,90,B,Raw,Yes,Amateur Open,28,1990-12-11
7,Pavel Afanasev,Павел Афанасьев,M,89.3,,,,,,147.5,152.5,-155,152.5,,,,,,,152.5,90,B,Raw,Yes,Amateur Open,36,1983-04-17
8,Almas Ayubaev,Алмас Аюбаев,M,89.7,,,,,,145,152.5,-157.5,152.5,,,,,,,152.5,90,B,Raw,Yes,Amateur Open,34,1984-07-26
9,Dmitriy Akselrod,Дмитрий Аксельрод,M,89.4,,,,,,140,145,-147.5,145,,,,,,,145,90,B,Raw,Yes,Amateur Open,35,1983-10-21
10,Artyom Garaev,Артём Гараев,M,87.3,,,,,,132.5,140,-152.5,140,,,,,,,140,90,B,Raw,Yes,Amateur Open,31,1988-04-26
11,Artem Nedomolkin,Артем Недомолкин,M,86.6,,,,,,125,132.5,-135,132.5,,,,,,,132.5,90,B,Raw,Yes,Amateur Open,31,1988-02-11
12,Nikolay Strugovshchikov,Николай Струговщиков,M,88,,,,,,125,132.5,-137.5,132.5,,,,,,,132.5,90,B,Raw,Yes,Amateur Open,36,1983-04-29
13,Aleksandr Barbashov,Александр Барбашов,M,89.3,,,,,,127.5,-132.5,-132.5,127.5,,,,,,,127.5,90,B,Raw,Yes,Amateur Open,33,1985-08-01
14,Oleg Timofeev,Олег Тимофеев,M,88.5,,,,,,115,-120,120,120,,,,,,,120,90,B,Raw,Yes,Amateur Open,29,1989-07-14
DQ,Vladislav Bogdanov,Владислав Богданов,M,86.9,,,,,,-145,-145,-145,,,,,,,,,90,B,Raw,Yes,Amateur Open,29,1989-07-17
DQ,Sergey Bachurin,Сергей Бачурин,M,87,,,,,,-145,-145,-145,,,,,,,,,90,B,Raw,Yes,Amateur Open,37,1981-07-14
DQ,Sergey Roslyakov,Сергей Росляков,M,88,,,,,,-190,-190,-190,,,,,,,,,90,B,Raw,Yes,Amateur Open,32,1986-12-08
1,Valeriy Matveev,Валерий Матвеев,M,87,,,,,,125,132.5,-137.5,132.5,,,,,,,132.5,90,B,Raw,Yes,Amateur Masters 50-59,58,1960-06-12
1,Vladimir Makitruk,Владимир Макитрук,M,85.9,,,,,,140,-145,,140,,,,,,,140,90,B,Raw,Yes,Amateur Masters 60-69,62,1956-12-04
1,Vadim Surkov,Вадим Сурков,M,95.6,,,,,,155,162.5,,162.5,,,,,,,162.5,100,B,Raw,Yes,Amateur Sub-Juniors 17-19,17,2001-08-30
2,Ruslan Zhelkobaev,Руслан Желкобаев,M,99.2,,,,,,120,125,-130,125,,,,,,,125,100,B,Raw,Yes,Amateur Sub-Juniors 17-19,18,2000-08-30
1,Dmitriy Fedorov,Дмитрий Федоров,M,98.9,,,,,,145,150,-152.5,150,,,,,,,150,100,B,Raw,Yes,Amateur Juniors 20-23,23,1995-10-24
1,Beglar Gadzhikurbanov,Беглар Гаджикурбанов,M,96.9,,,,,,180,190,192.5,192.5,,,,,,,192.5,100,B,Raw,Yes,Amateur Open,38,1981-01-31
2,Aleksandr Kalyagin,Александр Калягин,M,99,,,,,,190,-195,-195,190,,,,,,,190,100,B,Raw,Yes,Amateur Open,35,1983-06-12
3,Trofim Lynsha,Трофим Лынша,M,93.9,,,,,,150,162.5,170,170,,,,,,,170,100,B,Raw,Yes,Amateur Open,26,1993-01-27
4,Yuriy Smorodinov,Юрий Смородинов,M,98.2,,,,,,155,162.5,167.5,167.5,,,,,,,167.5,100,B,Raw,Yes,Amateur Open,36,1982-12-13
5,Nikolay Merenchikov,Николай Меренчиков,M,96,,,,,,135,140,145,145,,,,,,,145,100,B,Raw,Yes,Amateur Open,28,1990-10-06
6,Nikita Vasilev,Никита Васильев,M,98.4,,,,,,130,135,140,140,,,,,,,140,100,B,Raw,Yes,Amateur Open,30,1989-03-31
DQ,Beglar Gadzhikurbanov,Беглар Гаджикурбанов,M,96.9,,,,,,-195,-195,-195,,,,,,,,,100,B,Raw,Yes,Amateur Open,38,1981-01-31
DQ,Valentin Malin,Валентин Малин,M,97.3,,,,,,-175,-175,,,,,,,,,,100,B,Raw,Yes,Amateur Open,32,1986-09-08
DQ,Sergey Lopatin,Сергей Лопатин,M,97.7,,,,,,-150,-150,-150,,,,,,,,,100,B,Raw,Yes,Amateur Open,28,1990-07-12
1,Georgiy Paradiz,Георгий Парадиз,M,99.4,,,,,,170,-180,-180,170,,,,,,,170,100,B,Raw,Yes,Amateur Masters 40-49,43,1975-05-14
1,Boris Bystroumov,Борис Быстроумов,M,98.7,,,,,,-135,-140,140,140,,,,,,,140,100,B,Raw,Yes,Amateur Masters 50-59,54,1964-12-24
1,Stepan Shchevelev,Степан Щевелев,M,104.7,,,,,,170,175,180,180,,,,,,,180,110,B,Raw,Yes,Amateur Juniors 20-23,23,1995-11-30
1,Pavel Savosko,Павел Савосько,M,105.6,,,,,,170,175,180,180,,,,,,,180,110,B,Raw,Yes,Amateur Open,29,1990-02-10
2,Andrey Rabinkov,Андрей Рабинков,M,107.5,,,,,,147.5,150,152.5,152.5,,,,,,,152.5,110,B,Raw,Yes,Amateur Open,35,1983-08-30
1,Aleksandr Shabaev,Александр Шабаев,M,107.6,,,,,,167.5,170,-175,170,,,,,,,170,110,B,Raw,Yes,Amateur Masters 40-49,47,1972-04-07
2,Magomedamin Israpilov,Магомедамин Исрапилов,M,108.5,,,,,,140,150,160,160,,,,,,,160,110,B,Raw,Yes,Amateur Masters 40-49,44,1975-05-03
3,Andrey Kuzhelnyy,Андрей Кужельный,M,107.7,,,,,,142.5,147.5,-150,147.5,,,,,,,147.5,110,B,Raw,Yes,Amateur Masters 40-49,42,1976-05-31
1,Vasiliy Franchuk,Василий Франчук,M,106.6,,,,,,135,140,145,145,,,,,,,145,110,B,Raw,Yes,Amateur Masters 60-69,63,1955-08-27
1,Anton Kulikov,Антон Куликов,M,116.2,,,,,,195,200,205,205,,,,,,,205,125,B,Raw,Yes,Amateur Open,36,1982-12-22
2,Artem Vorontsov,Артем Воронцов,M,110.4,,,,,,200,-205,-205,200,,,,,,,200,125,B,Raw,Yes,Amateur Open,42,1976-08-03
DQ,Aleksandr Borisov,Александр Борисов,M,118.4,,,,,,-180,-180,,,,,,,,,,125,B,Raw,Yes,Amateur Open,30,1988-12-09
DQ,Anatoliy Zolotov,Анатолий Золотов,M,121.6,,,,,,-200,-200,-200,,,,,,,,,125,B,Raw,Yes,Amateur Open,47,1972-04-13
1,Artem Vorontsov,Артем Воронцов,M,110.4,,,,,,200,-205,-205,200,,,,,,,200,125,B,Raw,Yes,Amateur Masters 40-49,42,1976-08-03
2,Igor Bogdanov,Игорь Богданов,M,121.3,,,,,,172.5,177.5,180,180,,,,,,,180,125,B,Raw,Yes,Amateur Masters 40-49,47,1972-02-11
DD,Dmitriy Rezaykin,Дмитрий Резайкин,M,128.2,,,,,,220,225,-230,225,,,,,,,,140,B,Raw,Yes,Amateur Open,35,1984-02-12
1,Sergey Matveev,Сергей Матвеев,M,127.8,,,,,,-195,195,-200,195,,,,,,,195,140,B,Raw,Yes,Amateur Open,27,1991-10-28
2,Aleksandr Sergeev,Александр Сергеев,M,127.4,,,,,,175,-180,180,180,,,,,,,180,140,B,Raw,Yes,Amateur Open,40,1979-02-08
1,Aleksandr Sergeev,Александр Сергеев,M,127.4,,,,,,175,-180,180,180,,,,,,,180,140,B,Raw,Yes,Amateur Masters 40-49,40,1979-02-08
1,Vera Perekhodchenko,Вера Переходченко,F,53.4,,,,,,40,42.5,45,45,,,,,,,45,56,B,Raw,No,Pro Open,27,1991-09-30
1,Nadezhda Dubrovskaya,Надежда Дубровская,F,58.4,,,,,,82.5,-90,-90,82.5,,,,,,,82.5,60,B,Raw,No,Pro Juniors 20-23,23,1995-05-21
1,Nadezhda Dubrovskaya,Надежда Дубровская,F,58.4,,,,,,82.5,-90,-90,82.5,,,,,,,82.5,60,B,Raw,No,Pro Open,23,1995-05-21
1,Elena Vinogradova,Елена Виноградова,F,74.8,,,,,,105,110,-115,110,,,,,,,110,75,B,Raw,No,Pro Open,33,1986-02-03
1,Alena Gamolina,Алена Гамолина,F,70.7,,,,,,-70,70,-75,70,,,,,,,70,75,B,Raw,No,Pro Masters 50-59,58,1961-01-17
1,Nikita Stryabkov,Никита Стрябков,M,67.4,,,,,,105,-112.5,112.5,112.5,,,,,,,112.5,67.5,B,Raw,No,Pro Sub-Juniors 17-19,17,2001-05-27
2,Oleg Vinogradov,Олег Виноградов,M,64.7,,,,,,82.5,87.5,92.5,92.5,,,,,,,92.5,67.5,B,Raw,No,Pro Sub-Juniors 17-19,17,2001-09-06
1,Viktor Usov,Виктор Усов,M,66.7,,,,,,120,125,-127.5,125,,,,,,,125,67.5,B,Raw,No,Pro Open,29,1989-09-29
1,Vyacheslav Rudik,Вячеслав Рудик,M,73.2,,,,,,112.5,120,-130,120,,,,,,,120,75,B,Raw,No,Pro Open,32,1986-10-16
1,Viktor Kutuzov,Виктор Кутузов,M,72.2,,,,,,85,87.5,-90,87.5,,,,,,,87.5,75,B,Raw,No,Pro Masters,81,1937-12-17
1,Gyunduz Ismailov,Гюндуз Исмаилов,M,82.5,,,,,,220,-225,225,225,,,,,,,225,82.5,B,Raw,No,Pro Open,46,1972-12-18
2,Sergey Sychyov,Сергей Сычёв,M,75.6,,,,,,205,215,220,220,,,,,,,220,82.5,B,Raw,No,Pro Open,40,1978-07-18
3,Artem Danelyants,Артем Данельянц,M,80.1,,,,,,192.5,197.5,200,200,,,,,,,200,82.5,B,Raw,No,Pro Open,25,1993-08-01
4,Stanislav Gayduchenko,Станислав Гайдученко,M,75.2,,,,,,-150,150,-165,150,,,,,,,150,82.5,B,Raw,No,Pro Open,31,1988-04-20
5,Parviz Mamedov,,M,81.6,,,,,,130,140,150,150,,,,,,,150,82.5,B,Raw,No,Pro Open,29,1989-07-19
1,Gyunduz Ismailov,Гюндуз Исмаилов,M,82.5,,,,,,220,-225,225,225,,,,,,,225,82.5,B,Raw,No,Pro Masters 40-49,46,1972-12-18
2,Sergey Sychyov,Сергей Сычёв,M,75.6,,,,,,205,215,220,220,,,,,,,220,82.5,B,Raw,No,Pro Masters 40-49,40,1978-07-18
3,Dzhalil Akhunzhanov,Джалиль Ахунжанов,M,80.9,,,,,,170,-175,175,175,,,,,,,175,82.5,B,Raw,No,Pro Masters 40-49,43,1976-03-20
4,Igor Marudin,Игорь Марудин,M,82.4,,,,,,-150,150,,150,,,,,,,150,82.5,B,Raw,No,Pro Masters 40-49,43,1975-12-18
1,Oleg Plyusnin,Олег Плюснин,M,81.8,,,,,,132.5,137.5,140,140,,,,,,,140,82.5,B,Raw,No,Pro Masters 50-59,56,1963-03-22
1,Oreon Kim,Ореон Ким,M,77.8,,,,,,90,-100,100,100,,,,,,,100,82.5,B,Raw,No,Pro Masters 60-69,65,1954-03-25
1,Artur Andreev,Артур Андреев,M,85.7,,,,,,155,162.5,165,165,,,,,,,165,90,B,Raw,No,Pro Juniors 20-23,23,1995-05-30
1,Andrey Sapozhonkov,Андрей Сапожонков,M,89.3,,,,,,260,271,272.5,272.5,-275,,,,,,272.5,90,B,Raw,No,Pro Open,32,1987-01-01
2,Evgeniy Beloval,Евгений Беловал,M,90,,,,,,255,-262.5,,255,,,,,,,255,90,B,Raw,No,Pro Open,27,1991-12-06
3,Ruslan Greev,Руслан Греев,M,90,,,,,,-240,240,-257.5,240,,,,,,,240,90,B,Raw,No,Pro Open,33,1986-02-26
4,Maksim Pytkin,Максим Пыткин,M,89.3,,,,,,210,-225,-225,210,,,,,,,210,90,B,Raw,No,Pro Open,27,1992-03-30
5,Pavel Kiyanov,Павел Киянов,M,88.9,,,,,,-190,190,-200,190,,,,,,,190,90,B,Raw,No,Pro Open,27,1991-09-15
6,Aleksandr Mingazov,Александр Мингазов,M,88.2,,,,,,175,-180,-180,175,,,,,,,175,90,B,Raw,No,Pro Open,30,1989-04-06
7,Pavel Ulrikh,Павел Ульрих,M,88.8,,,,,,160,-165,-167.5,160,,,,,,,160,90,B,Raw,No,Pro Open,37,1981-12-24
1,Evgeniy Tsymbal,Евгений Цымбал,M,87.1,,,,,,130,137.5,-140,137.5,,,,,,,137.5,90,B,Raw,No,Pro Masters 40-49,48,1971-03-14
1,Pavel Devyatov,Павел Девятов,M,88.6,,,,,,135,140,142.5,142.5,,,,,,,142.5,90,B,Raw,No,Pro Masters 50-59,55,1964-05-10
1,Aleksandr Mikhaylov,Александр Михайлов,M,88.2,,,,,,90,95,100,100,,,,,,,100,90,B,Raw,No,Pro Masters 60-69,60,1958-12-09
1,Bahlul Aghayev,,M,98.4,,,,,,210,217.5,-225,217.5,,,,,,,217.5,100,B,Raw,No,Pro Open,33,1986-04-09
2,Ilya Prmanov,Илья Прманов,M,98.1,,,,,,190,-200,200,200,,,,,,,200,100,B,Raw,No,Pro Open,30,1989-01-25
3,Kyamran Lumedze,Кямран Лумедзе,M,99.5,,,,,,190,200,-210,200,,,,,,,200,100,B,Raw,No,Pro Open,28,1990-10-28
4,Ivan Solntsev,Иван Солнцев,M,98.2,,,,,,195,-202.5,-202.5,195,,,,,,,195,100,B,Raw,No,Pro Open,45,1974-03-25
5,Rustam Mukhametshin,Рустам Мухаметшин,M,95.3,,,,,,175,185,-187.5,185,,,,,,,185,100,B,Raw,No,Pro Open,30,1989-02-18
6,Oleg Balobanov,Олег Балобанов,M,96.9,,,,,,180,185,-190,185,,,,,,,185,100,B,Raw,No,Pro Open,30,1989-01-25
7,Aleksandr Melchikov,Александр Мельчиков,M,97.1,,,,,,175,180,185,185,,,,,,,185,100,B,Raw,No,Pro Open,36,1982-11-26
8,Maksim Muravev,Максим Муравьев,M,96.1,,,,,,150,-160,-160,150,,,,,,,150,100,B,Raw,No,Pro Open,30,1988-12-06
1,Viktor Ekushenko,Виктор Екушенко,M,95,,,,,,195,-200,-200,195,,,,,,,195,100,B,Raw,No,Pro Masters 40-49,42,1977-03-17
2,Ivan Solntsev,Иван Солнцев,M,98.2,,,,,,195,-202.5,-202.5,195,,,,,,,195,100,B,Raw,No,Pro Masters 40-49,45,1974-03-25
3,Manvel Shpak,Манвел Шпак,M,99.6,,,,,,160,170,-177.5,170,,,,,,,170,100,B,Raw,No,Pro Masters 40-49,46,1973-04-10
1,Damir Kuzeev,Дамир Кузеев,M,93.8,,,,,,152.5,157.5,-160,157.5,,,,,,,157.5,100,B,Raw,No,Pro Masters 60-69,66,1952-05-14
1,Ivan Dobryanskiy,Иван Добрянский,M,108.8,,,,,,190,200,210,210,,,,,,,210,110,B,Raw,No,Pro Juniors 20-23,21,1997-06-12
2,Ivan Firsov,Иван Фирсов,M,105,,,,,,155,165,170,170,,,,,,,170,110,B,Raw,No,Pro Juniors 20-23,22,1996-12-24
1,Vasiliy Markitantov,Василий Маркитантов,M,107.5,,,,,,210,215,217.5,217.5,,,,,,,217.5,110,B,Raw,No,Pro Open,39,1980-02-21
2,Aleksey Pukhov,Алексей Пухов,M,107,,,,,,210,-222.5,-222.5,210,,,,,,,210,110,B,Raw,No,Pro Open,45,1974-02-08
3,Valters Guntis,,M,105.3,,,,,,200,207.5,-210,207.5,,,,,,,207.5,110,B,Raw,No,Pro Open,39,1980-05-01
4,Vladimir Novozhilov,Владимир Новожилов,M,109.7,,,,,,192.5,200,-210,200,,,,,,,200,110,B,Raw,No,Pro Open,29,1989-09-10
5,Konstantin Romanov,Константин Романов,M,106,,,,,,182.5,192.5,-200,192.5,,,,,,,192.5,110,B,Raw,No,Pro Open,32,1987-03-27
6,Artyom Bogdanov,Артём Богданов,M,107,,,,,,175,185,-195,185,,,,,,,185,110,B,Raw,No,Pro Open,32,1987-03-07
7,Mark Yazev,Марк Язев,M,106.8,,,,,,180,-192.5,-192.5,180,,,,,,,180,110,B,Raw,No,Pro Open,27,1991-08-27
8,Evgeniy Nikonov,Евгений Никонов,M,103.5,,,,,,140,150,-160,150,,,,,,,150,110,B,Raw,No,Pro Open,24,1994-11-17
1,Aleksey Pukhov,Алексей Пухов,M,107,,,,,,210,-222.5,-222.5,210,,,,,,,210,110,B,Raw,No,Pro Masters 40-49,45,1974-02-08
2,Aleksandr Prozorov,Александр Прозоров,M,104.1,,,,,,185,190,-195,190,,,,,,,190,110,B,Raw,No,Pro Masters 40-49,45,1973-12-12
3,Andrey Anopov,Андрей Анопов,M,107.8,,,,,,170,180,-190,180,,,,,,,180,110,B,Raw,No,Pro Masters 40-49,43,1975-11-17
4,Andrei Kabantseff,,M,107,,,,,,145,-170,170,170,,,,,,,170,110,B,Raw,No,Pro Masters 40-49,42,1976-11-20
5,Magomedamin Israpilov,Магомедамин Исрапилов,M,108.5,,,,,,140,150,160,160,,,,,,,160,110,B,Raw,No,Pro Masters 40-49,44,1975-05-03
1,Vladimir Larionov,Владимир Ларионов,M,103.9,,,,,,140,-150,-150,140,,,,,,,140,110,B,Raw,No,Pro Masters 60-69,60,1958-08-07
1,Maksim Lisyutin,Максим Лисютин,M,118.8,,,,,,240,250,,250,,,,,,,250,125,B,Raw,No,Pro Open,34,1985-04-24
2,Aleksey Mikhaylov,Алексей Михайлов,M,117.2,,,,,,220,-232.5,-232.5,220,,,,,,,220,125,B,Raw,No,Pro Open,32,1986-07-23
3,Vladislav Gobadze,Владислав Гобадзе,M,122.5,,,,,,190,202.5,-210,202.5,,,,,,,202.5,125,B,Raw,No,Pro Open,24,1995-02-01
4,David Chuba,Давид Чуба,M,115.2,,,,,,190,-200,-200,190,,,,,,,190,125,B,Raw,No,Pro Open,33,1985-09-25
5,Fedor Parkhimchk,Федор Пархимчк,M,115.5,,,,,,125,130,135,135,,,,,,,135,125,B,Raw,No,Pro Open,27,1991-05-14
DQ,Aleksandr Popov,Александр Попов,M,120.3,,,,,,-225,-225,-225,,,,,,,,,125,B,Raw,No,Pro Open,35,1983-05-14
1,Aleksandr Moiseev,Александр Моисеев,M,112.1,,,,,,-190,190,-200,190,,,,,,,190,125,B,Raw,No,Pro Masters 40-49,46,1972-11-11
1,Aleksandr Efimenkov,Александр Ефименков,M,117.4,,,,,,-185,185,200,200,,,,,,,200,125,B,Raw,No,Pro Masters 60-69,60,1958-09-09
2,Roman Chuba,Роман Чуба,M,112.7,,,,,,140,-145,-147.5,140,,,,,,,140,125,B,Raw,No,Pro Masters 60-69,65,1954-01-01
1,Isajevs Peteris,,M,134.3,,,,,,265,275,-290,275,,,,,,,275,140,B,Raw,No,Pro Open,35,1984-02-20
1,Evgeniy Kuklin,Евгений Куклин,M,67.2,,,,,,-120,-120,120,120,,,,,,,120,67.5,B,Single-ply,Yes,Amateur Open,37,1981-12-16
1,Sergey Kravets,Сергей Кравец,M,78.9,,,,,,-185,185,190,190,,,,,,,190,82.5,B,Single-ply,Yes,Amateur Open,24,1994-09-06
1,Sergey Kravets,Сергей Кравец,M,78.9,,,,,,-185,185,190,190,,,,,,,190,82.5,B,Single-ply,No,Pro Open,24,1994-09-06
1,Sergey Belikov,Сергей Беликов,M,99,,,,,,-250,-255,255,255,,,,,,,255,100,B,Single-ply,No,Pro Open,54,1964-09-30
2,Ivan Solntsev,Иван Солнцев,M,98.2,,,,,,-245,-245,250,250,,,,,,,250,100,B,Single-ply,No,Pro Open,45,1974-03-25
3,Konstantin Kravtsov,Константин Кравцов,M,97.3,,,,,,215,222.5,227.5,227.5,,,,,,,227.5,100,B,Single-ply,No,Pro Open,36,1982-10-26
4,Sergei Zaitsev,,M,96.7,,,,,,205,215,220,220,,,,,,,220,100,B,Single-ply,No,Pro Open,36,1982-05-25
1,Ivan Solntsev,Иван Солнцев,M,98.2,,,,,,-245,-245,250,250,,,,,,,250,100,B,Single-ply,No,Pro Masters 40-49,45,1974-03-25
2,Mikhail Rekaykin,Михаил Рекайкин,M,97.8,,,,,,-205,205,215,215,,,,,,,215,100,B,Single-ply,No,Pro Masters 40-49,42,1976-07-19
1,Aleksandr Nikiforov,Александр Никифоров,M,110.8,,,,,,215,230,-235,230,,,,,,,230,125,B,Single-ply,No,Pro Open,37,1982-01-04
1,Ekaterina Kudryavtseva,Екатерина Кудрявцева,F,54.65,,,,,,80,-90,-90,80,,,,,,,80,56,B,Multi-ply,Yes,Amateur Open,31,1988-03-08
1,Natalya Vasetskaya,Наталья Васецкая,F,59.2,,,,,,75,80,85,85,,,,,,,85,60,B,Multi-ply,Yes,Amateur Open,26,1992-10-13
1,Alina Drobysh,Алина Дробыш,F,66.3,,,,,,110,-120,-130,110,,,,,,,110,67.5,B,Multi-ply,Yes,Amateur Open,28,1990-09-24
1,Viktor Usov,Виктор Усов,M,66.7,,,,,,170,180,,180,,,,,,,180,67.5,B,Multi-ply,Yes,Amateur Open,29,1989-09-29
2,Aleksey Yakovlev,Алексей Яковлев,M,65.6,,,,,,145,167.5,-175,167.5,,,,,,,167.5,67.5,B,Multi-ply,Yes,Amateur Open,30,1989-03-23
3,Evgeniy Kuklin,Евгений Куклин,M,67.15,,,,,,150,-160,160,160,,,,,,,160,67.5,B,Multi-ply,Yes,Amateur Open,37,1981-12-16
1,Aleksey Nebykov,Алексей Небыков,M,81.85,,,,,,220,230,240,240,,,,,,,240,82.5,B,Multi-ply,Yes,Amateur Open,53,1966-03-19
2,Artem Toropov,Артем Торопов,M,78.1,,,,,,-190,210,-220,210,,,,,,,210,82.5,B,Multi-ply,Yes,Amateur Open,26,1992-10-05
1,Aleksey Nebykov,Алексей Небыков,M,81.85,,,,,,220,230,240,240,,,,,,,240,82.5,B,Multi-ply,Yes,Amateur Masters 50-59,53,1966-03-19
1,Igor Ivanov,Ігор Іванов,M,87.4,,,,,,220,235,250,250,,,,,,,250,90,B,Multi-ply,Yes,Amateur Open,50,1968-08-05
2,Vladislav Panov,Владислав Панов,M,89.7,,,,,,175,187.5,-200,187.5,,,,,,,187.5,90,B,Multi-ply,Yes,Amateur Open,24,1994-05-26
1,Mikhail Skvortsov,Михаил Скворцов,M,89.2,,,,,,187.5,207.5,-217.5,207.5,,,,,,,207.5,90,B,Multi-ply,Yes,Amateur Masters 40-49,49,1970-04-19
1,Igor Ivanov,Ігор Іванов,M,87.4,,,,,,220,235,250,250,,,,,,,250,90,B,Multi-ply,Yes,Amateur Masters 50-59,50,1968-08-05
DD,Aleksey Sokolov,Алексей Соколов,M,91.8,,,,,,280,290,-295,290,,,,,,,,100,B,Multi-ply,Yes,Amateur Open,34,1984-10-10
1,Nikita Yaremenko,Никита Яременко,M,95.55,,,,,,-220,220,-232.5,220,,,,,,,220,100,B,Multi-ply,Yes,Amateur Open,27,1991-12-02
1,Igor Popov,Игорь Попов,M,98.4,,,,,,-250,-250,250,250,,,,,,,250,100,B,Multi-ply,Yes,Amateur Masters 50-59,53,1965-09-11
2,Viktor Smyshlyaev,Виктор Смышляев,M,99.8,,,,,,185,202.5,215,215,,,,,,,215,100,B,Multi-ply,Yes,Amateur Masters 50-59,56,1962-05-20
1,Aleksandr Ryzhov,Александр Рыжов,M,107.5,,,,,,230,242.5,-250,242.5,,,,,,,242.5,110,B,Multi-ply,Yes,Amateur Open,32,1986-09-08
DQ,Dmitriy Vasilev,Дмитрий Васильев,M,106.4,,,,,,-250,-250,-250,,,,,,,,,110,B,Multi-ply,Yes,Amateur Open,39,1979-10-31
DQ,Magomedamin Israpilov,Магомедамин Исрапилов,M,108.45,,,,,,,,,,,,,,,,,110,B,Multi-ply,Yes,Amateur Open,44,1975-05-03
DQ,Magomedamin Israpilov,Магомедамин Исрапилов,M,108.45,,,,,,,,,,,,,,,,,110,B,Multi-ply,Yes,Amateur Masters 40-49,44,1975-05-03
1,Maksim Vladimirov,Максим Владимиров,M,121.3,,,,,,300,302.5,307.5,307.5,,,,,,,307.5,125,B,Multi-ply,Yes,Amateur Open,37,1981-10-25
2,Artem Vorontsov,Артем Воронцов,M,110.4,,,,,,300,-305,-307.5,300,,,,,,,300,125,B,Multi-ply,Yes,Amateur Open,42,1976-08-03
1,Artem Vorontsov,Артем Воронцов,M,110.4,,,,,,300,-305,-307.5,300,,,,,,,300,125,B,Multi-ply,Yes,Amateur Masters 40-49,42,1976-08-03
1,Vladimir Gusev,Владимир Гусев,M,130.5,,,,,,-250,250,-270,250,,,,,,,250,140,B,Multi-ply,Yes,Amateur Open,50,1968-09-01
1,Vladimir Gusev,Владимир Гусев,M,130.5,,,,,,-250,250,-270,250,,,,,,,250,140,B,Multi-ply,Yes,Amateur Masters 50-59,50,1968-09-01
1,Anna Turaeva,Анна Тураева,M,81.8,,,,,,170,-182.5,182.5,182.5,,,,,,,182.5,82.5,B,Multi-ply,No,Pro Open,40,1978-08-18
1,Anna Turaeva,Анна Тураева,M,81.8,,,,,,170,-182.5,182.5,182.5,,,,,,,182.5,82.5,B,Multi-ply,No,Pro Masters 40-49,40,1978-08-18
1,Viktor Usov,Виктор Усов,M,66.7,,,,,,170,180,,180,,,,,,,180,67.5,B,Multi-ply,No,Pro Open,29,1989-09-29
2,Evgeniy Kuklin,Евгений Куклин,M,67.15,,,,,,150,-160,160,160,,,,,,,160,67.5,B,Multi-ply,No,Pro Open,37,1981-12-16
1,Aleksandr Antropov,Александр Антропов,M,73.4,,,,,,270,-290,-290,270,,,,,,,270,75,B,Multi-ply,No,Pro Open,50,1969-03-14
1,Aleksandr Antropov,Александр Антропов,M,73.4,,,,,,270,-290,-290,270,,,,,,,270,75,B,Multi-ply,No,Pro Masters 50-59,50,1969-03-14
DQ,Konstantin Zhigulin,Константин Жигулин,M,80.7,,,,,,-250,-260,-272.5,,,,,,,,,82.5,B,Multi-ply,No,Pro Open,31,1987-10-03
DQ,Evgeniy Vasilev,Евгений Васильев,M,82.1,,,,,,-290,-300,-300,,,,,,,,,82.5,B,Multi-ply,No,Pro Open,35,1983-08-15
1,Gennadiy Zavyalov,Геннадий Завьялов,M,79.9,,,,,,160,-170,-180,160,,,,,,,160,82.5,B,Multi-ply,No,Pro Masters 50-59,51,1967-11-27
DQ,Vadim Avetisyan,Вадим Аветисян,M,90,,,,,,-280,-280,-285,,,,,,,,,90,B,Multi-ply,No,Pro Open,38,1980-06-18
1,Aleksandr Altukhov,Александр Алтухов,M,98,,,,,,230,-237.5,237.5,237.5,,,,,,,237.5,100,B,Multi-ply,No,Pro Open,30,1989-03-31
2,Vyacheslav Biryukov,Вячеслав Бирюков,M,90.9,,,,,,180,190,-200,190,,,,,,,190,100,B,Multi-ply,No,Pro Open,36,1982-08-07
1,Sergey Gusev,Сергей Гусев,M,110,,,,,,332.5,-342.5,-352.5,332.5,,,,,,,332.5,110,B,Multi-ply,No,Pro Open,32,1987-03-18
2,Vladimir Ivanov,Владимир Иванов,M,106.3,,,,,,-252.5,-252.5,252.5,252.5,,,,,,,252.5,110,B,Multi-ply,No,Pro Open,39,1979-05-27
3,Magomedamin Israpilov,Магомедамин Исрапилов,M,108.5,,,,,,240,-255,-255,240,,,,,,,240,110,B,Multi-ply,No,Pro Open,44,1975-05-03
DQ,Denis Puzyrev,Денис Пузырев,M,109.3,,,,,,-250,-250,-260,,,,,,,,,110,B,Multi-ply,No,Pro Open,45,1974-03-31
1,Magomedamin Israpilov,Магомедамин Исрапилов,M,108.5,,,,,,240,-255,-255,240,,,,,,,240,110,B,Multi-ply,No,Pro Masters 40-49,44,1975-05-03
DQ,Denis Puzyrev,Денис Пузырев,M,109.3,,,,,,-250,-250,-260,,,,,,,,,110,B,Multi-ply,No,Pro Masters 40-49,45,1974-03-31
1,Aleksandr Makey,Александр Макей,M,109.4,,,,,,-310,310,320,320,-330,,,,,,320,110,B,Multi-ply,No,Pro Masters 50-59,55,1964-02-15
1,Vladimir Larionov,Владимир Ларионов,M,103.9,,,,,,200,,,200,,,,,,,200,110,B,Multi-ply,No,Pro Masters 60-69,60,1958-08-07
1,Nikita Nikitin,Никита Никитин,M,124.3,,,,,,310,325,335,335,-342.5,,,,,,335,125,B,Multi-ply,No,Pro Juniors 20-23,23,1995-10-14
1,Oleg Shlepin,Олег Шлепин,M,119.1,,,,,,290,300,-307.5,300,,,,,,,300,125,B,Multi-ply,No,Pro Open,43,1975-07-08
2,Vladimir Novozhilov,Владимир Новожилов,M,110.1,,,,,,220,230,240,240,,,,,,,240,125,B,Multi-ply,No,Pro Open,29,1989-09-10
1,Oleg Shlepin,Олег Шлепин,M,119.1,,,,,,290,300,-307.5,300,,,,,,,300,125,B,Multi-ply,No,Pro Masters 40-49,43,1975-07-08
1,Vladimir Kazantsev,Владимир Казанцев,M,128.2,,,,,,360,-372.5,372.5,372.5,,,,,,,372.5,140,B,Multi-ply,No,Pro Open,27,1992-04-18
2,Evgeniy Sobolevskiy,Евгений Соболевский,M,135.1,,,,,,300,322.5,-332.5,322.5,,,,,,,322.5,140,B,Multi-ply,No,Pro Open,28,1990-07-18
1,Dmitriy Khovanskiy,Дмитрий Хованский,M,82.5,,,,,,-320,330,340,340,-350,,,,,,340,82.5,B,Multi-ply,No,Pro Open,32,1986-05-26
1,Magomedamin Israpilov,Магомедамин Исрапилов,M,108.5,,,,,,240,-255,-255,240,,,,,,,240,110,B,Multi-ply,No,Pro Open,44,1975-05-03
1,Magomedamin Israpilov,Магомедамин Исрапилов,M,108.5,,,,,,240,-255,-255,240,,,,,,,240,110,B,Multi-ply,No,Pro Masters 40-49,44,1975-05-03
1,Dmitriy Pavlov,Дмитрий Павлов,M,84.75,,,,,,110,115,-120,115,,,,,,,115,90,B,Raw,No,Pro Open,33,1986-03-14
1,Vladimir Larionov,Владимир Ларионов,M,103.7,,,,,,140,,,140,,,,,,,140,110,B,Raw,No,Pro Open,60,1958-08-07
1,Konstantin Makarenko,Константин Макаренко,M,101.2,,,,,,115,122.5,125,125,,,,,,,125,110,B,Raw,No,Pro Masters 40-49,46,1973-02-03
1,Vladimir Larionov,Владимир Ларионов,M,103.7,,,,,,140,,,140,,,,,,,140,110,B,Raw,No,Pro Masters 60-69,60,1958-08-07
1,Olga Uglova,Ольга Углова,F,47.4,,,,,,,,,,,90,100,-110,100,,100,48,D,Raw,Yes,Amateur Sub-Juniors 17-19,19,1999-12-17
1,Natalya Afonyushkina,Наталья Афонюшкина,F,46.55,,,,,,,,,,,87.5,95,100,100,,100,48,D,Raw,Yes,Amateur Open,34,1984-11-09
2,Natalya Borisenko,Наталья Борисенко,F,47.4,,,,,,,,,,,90,100,-110,100,,100,48,D,Raw,Yes,Amateur Open,25,1994-02-10
1,Anastasiya Kropotova,Анастасия Кропотова,F,51.4,,,,,,,,,,,110,-117.5,-117.5,110,,110,52,D,Raw,Yes,Amateur Open,25,1994-01-30
DQ,Yuliya German,Юлия Герман,F,51,,,,,,,,,,,-102.5,-102.5,-102.5,,,,52,D,Raw,Yes,Amateur Open,26,1992-12-28
1,Svetlana Dobryakova,Светлана Добрякова,F,51.6,,,,,,,,,,,112.5,117.5,-122.5,117.5,,117.5,52,D,Raw,Yes,Amateur Masters 40-49,43,1975-09-22
1,Oksana Balabatko,Оксана Балабатько,F,54.9,,,,,,,,,,,65,70,75,75,,75,56,D,Raw,Yes,Amateur Teen 14-16,14,2005-01-24
DQ,Irina Kuchmareva,Ирина Кучмарева,F,54.3,,,,,,,,,,,-115,-120,-125,,,,56,D,Raw,Yes,Amateur Teen 14-16,,2002-05-11
DD,Alina Buzygina,Алина Бузыгина,F,53.2,,,,,,,,,,,120,125,132.5,132.5,,,56,D,Raw,Yes,Amateur Open,26,1993-03-19
1,Kristina Ezhova,Кристина Ежова,F,59.8,,,,,,,,,,,80,92.5,-102.5,92.5,,92.5,60,D,Raw,Yes,Amateur Open,29,1990-03-26
1,Marina Danilova,Марина Данилова,F,67.5,,,,,,,,,,,110,-115,115,115,,115,67.5,D,Raw,Yes,Amateur Open,33,1986-02-04
1,Elena Natochina,Елена Наточина,F,73.7,,,,,,,,,,,135,142.5,-155,142.5,,142.5,75,D,Raw,Yes,Amateur Masters 40-49,46,1972-07-23
1,Roman Golikov,Роман Голиков,M,67.5,,,,,,,,,,,145,-160,-160,145,,145,67.5,D,Raw,Yes,Amateur Sub-Juniors 17-19,18,2000-06-19
1,Aleksandr Shubin,Александр Шубин,M,67.5,,,,,,,,,,,200,210,-222.5,210,,210,67.5,D,Raw,Yes,Amateur Open,25,1994-04-22
2,Andrey Nesterenko,Андрей Нестеренко,M,66,,,,,,,,,,,200,-202.5,-205,200,,200,67.5,D,Raw,Yes,Amateur Open,32,1986-06-22
1,Denis Ryabchikov,Денис Рябчиков,M,67.3,,,,,,,,,,,170,190,195.5,195.5,-200,195.5,67.5,D,Raw,Yes,Amateur Masters 40-49,42,1976-07-29
1,Aleksandr Lutsenko,Александр Луценко,M,75,,,,,,,,,,,230,250,265,265,,265,75,D,Raw,Yes,Amateur Juniors 20-23,22,1996-09-15
2,Ruslan Sleptsov,Руслан Слепцов,M,72.4,,,,,,,,,,,-175,180,-185,180,,180,75,D,Raw,Yes,Amateur Juniors 20-23,21,1998-03-15
1,Aleksandr Sychyov,Александр Сычёв,M,73.9,,,,,,,,,,,140,155,-165,155,,155,75,D,Raw,Yes,Amateur Open,32,1986-10-26
1,Boriss Laishin,,M,71.3,,,,,,,,,,,145,155,-165,155,,155,75,D,Raw,Yes,Amateur Masters 60-69,68,1950-08-06
1,Gennadiy Filippov,Геннадий Филиппов,M,70.8,,,,,,,,,,,145,155,-165,155,,155,75,D,Raw,Yes,Amateur Masters 70-79,72,1947-04-23
1,Evgeniy Sokolov,Евгений Соколов,M,78.8,,,,,,,,,,,235,245,-250,245,,245,82.5,D,Raw,Yes,Amateur Juniors 20-23,22,1996-08-20
2,Nikita Zakharov,Никита Захаров,M,79.5,,,,,,,,,,,-220,220,225,225,,225,82.5,D,Raw,Yes,Amateur Juniors 20-23,20,1998-08-31
3,Kim Danilov,Ким Данилов,M,82.2,,,,,,,,,,,200,212.5,-220,212.5,,212.5,82.5,D,Raw,Yes,Amateur Juniors 20-23,23,1995-07-30
1,Dmitriy Samoylenko,Дмитрий Самойленко,M,79.8,,,,,,,,,,,230,247.5,-250,247.5,,247.5,82.5,D,Raw,Yes,Amateur Open,24,1994-11-13
2,Evgeniy Sokolov,Евгений Соколов,M,78.8,,,,,,,,,,,235,245,-250,245,,245,82.5,D,Raw,Yes,Amateur Open,22,1996-08-20
3,Sergey Skvortsov,Сергей Скворцов,M,81.8,,,,,,,,,,,205,210,215,215,,215,82.5,D,Raw,Yes,Amateur Open,38,1980-12-17
1,Ivan Kopytin,Иван Копытин,M,89.2,,,,,,,,,,,240,260,-270,260,,260,90,D,Raw,Yes,Amateur Sub-Juniors 17-19,19,1999-07-07
1,Eduard Marchenko,Эдуард Марченко,M,89.8,,,,,,,,,,,-260,260,-272.5,260,,260,90,D,Raw,Yes,Amateur Open,27,1992-03-17
2,Artyom Garaev,Артём Гараев,M,87.3,,,,,,,,,,,210,230,240,240,,240,90,D,Raw,Yes,Amateur Open,31,1988-04-26
3,Artem Petrov,Артем Петров,M,87.8,,,,,,,,,,,-225,225,235,235,,235,90,D,Raw,Yes,Amateur Open,27,1992-05-09
4,Maksim Gordopolov,Максим Гордополов,M,89.4,,,,,,,,,,,230,-245,-245,230,,230,90,D,Raw,Yes,Amateur Open,31,1987-09-24
5,Imamutdin Ataev,Имамутдин Атаев,M,88.9,,,,,,,,,,,200,-210,210,210,,210,90,D,Raw,Yes,Amateur Open,30,1988-10-12
1,Klim Zakharov,Клим Захаров,M,89.9,,,,,,,,,,,200,210,220,220,,220,90,D,Raw,Yes,Amateur Masters 40-49,45,1974-05-01
2,Grant Atoyan,Грант Атоян,M,89.7,,,,,,,,,,,205,210,215,215,,215,90,D,Raw,Yes,Amateur Masters 40-49,43,1976-04-02
1,Beglar Gadzhikurbanov,Беглар Гаджикурбанов,M,96.9,,,,,,,,,,,250,270,-280,270,,270,100,D,Raw,Yes,Amateur Open,38,1981-01-31
1,Rustam Tumgoev,Рустам Тумгоев,M,102.3,,,,,,,,,,,230,250,-265,250,,250,110,D,Raw,Yes,Amateur Open,29,1989-12-13
2,Andrey Ivanov,Андрей Иванов,M,104.4,,,,,,,,,,,190,200,215,215,,215,110,D,Raw,Yes,Amateur Open,35,1983-12-18
3,Magomedamin Israpilov,Магомедамин Исрапилов,M,108.5,,,,,,,,,,,200,210,-220,210,,210,110,D,Raw,Yes,Amateur Open,44,1975-05-03
DQ,Vasiliy Nedyalkov,Василий Недялков,M,109,,,,,,,,,,,-200,-215,-215,,,,110,D,Raw,Yes,Amateur Open,28,1990-06-30
1,Magomedamin Israpilov,Магомедамин Исрапилов,M,108.5,,,,,,,,,,,200,210,-220,210,,210,110,D,Raw,Yes,Amateur Masters 40-49,44,1975-05-03
1,Sergejs Vedmedovskijs,,M,116.3,,,,,,,,,,,220,235,,235,,235,125,D,Raw,Yes,Amateur Masters 60-69,61,1957-12-31
1,Lev Samarin,Лев Самарин,M,135.5,,,,,,,,,,,255,270,285,285,,285,140,D,Raw,Yes,Amateur Open,35,1983-05-28
1,Stanislav Seleznev,Станислав Селезнев,M,161.4,,,,,,,,,,,290,300,-310,300,,300,140+,D,Raw,Yes,Amateur Open,37,1981-08-31
1,Margarita Galaktionova,Маргарита Галактионова,F,55.4,,,,,,,,,,,170,175,-177.5,175,,175,56,D,Raw,No,Pro Open,28,1991-03-01
1,Adila Gurbanova,,F,65.9,,,,,,,,,,,135,142.5,152.5,152.5,,152.5,67.5,D,Raw,No,Pro Open,29,1990-04-19
2,Olga Fedorenko,Ольга Федоренко,F,65.9,,,,,,,,,,,130,140,-150,140,,140,67.5,D,Raw,No,Pro Open,32,1986-06-30
1,Irina Shelingovskaya,Ирина Шелинговская,F,81,,,,,,,,,,,175,185,190,190,,190,82.5,D,Raw,No,Pro Masters 50-59,56,1963-03-05
1,Natalia Gadolin,,F,98,,,,,,,,,,,175,-190,-190,175,-190,175,90+,D,Raw,No,Pro Open,25,1994-01-04
1,Dalgat Gadzhiakhmedov,Далгат Гаджиахмедов,M,71,,,,,,,,,,,215,225,237.5,237.5,,237.5,75,D,Raw,No,Pro Open,31,1987-06-18
2,Artur Tretyukhin,Артур Третюхин,M,68.7,,,,,,,,,,,140,145,150,150,,150,75,D,Raw,No,Pro Open,26,1993-02-17
1,Leonid Sedlyar,Леонид Седляр,M,72.4,,,,,,,,,,,230,245,252.5,252.5,,252.5,75,D,Raw,No,Pro Masters 40-49,46,1973-01-31
1,Yulian Strochenkov,Юлиан Строченков,M,76.9,,,,,,,,,,,-292.5,292.5,-307.5,292.5,,292.5,82.5,D,Raw,No,Pro Sub-Juniors 17-19,19,1999-10-07
1,Yulian Strochenkov,Юлиан Строченков,M,76.9,,,,,,,,,,,-292.5,292.5,-307.5,292.5,,292.5,82.5,D,Raw,No,Pro Open,19,1999-10-07
2,Sergey Fomin,Сергей Фомин,M,82.5,,,,,,,,,,,290,-300,-300,290,,290,82.5,D,Raw,No,Pro Open,36,1983-04-16
3,Anton Sidin,Антон Сидин,M,80.5,,,,,,,,,,,-280,280,-290,280,,280,82.5,D,Raw,No,Pro Open,31,1988-04-24
4,Roman Ahmadov,,M,82.3,,,,,,,,,,,245,255,270,270,,270,82.5,D,Raw,No,Pro Open,34,1985-02-13
5,Aleksandr Zakharov,Александр Захаров,M,81.8,,,,,,,,,,,260,-265,-270,260,,260,82.5,D,Raw,No,Pro Open,27,1991-11-01
DQ,Parviz Mamedov,,M,81.6,,,,,,,,,,,-230,-230,-230,,,,82.5,D,Raw,No,Pro Open,29,1989-07-19
1,Dmitriy Timofeev,Дмитрий Тимофеев,M,87.9,,,,,,,,,,,315,335,340,340,,340,90,D,Raw,No,Pro Open,32,1987-02-21
2,Pavel Kobelev,Павел Кобелев,M,87.4,,,,,,,,,,,300,322.5,-335,322.5,,322.5,90,D,Raw,No,Pro Open,29,1989-08-04
3,Konstantin Azizmamadov,Константин Азизмамадов,M,90,,,,,,,,,,,275,300,-305,300,,300,90,D,Raw,No,Pro Open,34,1985-03-17
4,Aleksey Zavadskiy,Алексей Завадский,M,89.8,,,,,,,,,,,280,295,-300,295,,295,90,D,Raw,No,Pro Open,28,1990-08-30
1,Konstantin Dremenkov,Константин Дременков,M,86.3,,,,,,,,,,,250,265,280,280,290,280,90,D,Raw,No,Pro Masters 50-59,52,1966-07-21
1,Mikhaylo Zhelyazkov,Михайло Желязков,M,98.6,,,,,,,,,,,320,-330,-330,320,,320,100,D,Raw,No,Pro Open,38,1980-09-12
2,Ramil Ahmadov,,M,97.9,,,,,,,,,,,315,-322.5,-325,315,,315,100,D,Raw,No,Pro Open,31,1988-05-06
3,Anton Bakhmetev,Антон Бахметьев,M,93.8,,,,,,,,,,,275,285,-300,285,,285,100,D,Raw,No,Pro Open,26,1992-12-03
4,Dmitriy Dubkov,Дмитрий Дубков,M,91.6,,,,,,,,,,,265,275,282.5,282.5,,282.5,100,D,Raw,No,Pro Open,39,1980-01-29
5,Ilya Prmanov,Илья Прманов,M,98.1,,,,,,,,,,,-260,-275,275,275,,275,100,D,Raw,No,Pro Open,30,1989-01-25
6,Stanislav Belov,Станислав Белов,M,90.8,,,,,,,,,,,230,242.5,-247.5,242.5,,242.5,100,D,Raw,No,Pro Open,28,1990-11-11
1,Mikhail Verbitskiy,Михаил Вербицкий,M,90.9,,,,,,,,,,,210,230,245,245,,245,100,D,Raw,No,Pro Masters 60-69,67,1951-07-31
1,Aleksandr Vasev,Александр Васев,M,104.9,,,,,,,,,,,350,-360,360,360,,360,110,D,Raw,No,Pro Open,28,1991-04-26
2,Magomedamin Israpilov,Магомедамин Исрапилов,M,108.5,,,,,,,,,,,200,210,-220,210,,210,110,D,Raw,No,Pro Open,44,1975-05-03
1,Igor Pyzhyanov,Игорь Пыжьянов,M,105.6,,,,,,,,,,,205,215,222.5,222.5,,222.5,110,D,Raw,No,Pro Masters 40-49,46,1972-12-18
2,Magomedamin Israpilov,Магомедамин Исрапилов,M,108.5,,,,,,,,,,,200,210,-220,210,,210,110,D,Raw,No,Pro Masters 40-49,44,1975-05-03
1,Aleksey Moskvichyov,Алексей Москвичёв,M,115.4,,,,,,,,,,,365,380,-392.5,380,,380,125,D,Raw,No,Pro Open,37,1982-03-02
2,Aleksandr Vovenko,Александр Вовенко,M,122.5,,,,,,,,,,,320,335,345,345,,345,125,D,Raw,No,Pro Open,38,1980-11-25
1,Dmitriy Starov,Дмитрий Старов,M,121,,,,,,,,,,,260,270,280,280,,280,125,D,Raw,No,Pro Masters 40-49,46,1973-02-01
1,Ruslan Omarov,Руслан Омаров,M,128.5,,,,,,,,,,,315,-330,-330,315,,315,140,D,Raw,No,Pro Open,35,1983-07-07
1,Evgeniy Ivanov,Евгений Иванов,M,141.3,,,,,,,,,,,295,305.5,310,310,,310,140+,D,Raw,No,Pro Open,45,1973-06-13
1,Evgeniy Ivanov,Евгений Иванов,M,141.3,,,,,,,,,,,295,305.5,310,310,,310,140+,D,Raw,No,Pro Masters 40-49,45,1973-06-13
1,Elena Pecherskaya,Елена Печерская,F,72.3,,,,,,,,,,,195,205,-210,205,,205,75,D,Raw,No,Pro Open,28,1991-02-08
1,Irina Shelingovskaya,Ирина Шелинговская,F,81,,,,,,,,,,,175,185,190,190,,190,82.5,D,Raw,No,Pro Open,56,1963-03-05
1,Vaselin Doychev,,M,105.7,,,,,,,,,,,340,-360,-360,340,,340,110,D,Raw,No,Pro Open,34,1985-04-14
