Division,WeightClassKg,Place,Name,Team,BodyweightKg,Best3SquatKg,Best3BenchKg,Best3DeadliftKg,TotalKg,Equipment,Event,Sex
Girls,44.23,1,Betsy Ramirez,Winnsboro,43.82,122.47,61.23,115.67,299.37,Single-ply,SBD,F
Girls,44.23,2,Jaci Thornton,Lone Oak,43.54,111.13,56.7,106.59,274.42,Single-ply,SBD,F
Girls,44.23,3,Kei Kei Walker,Malakoff,43.64,108.86,45.36,115.67,269.89,Single-ply,SBD,F
Girls,44.23,4,Jackelin Cinsneros,Hemphill,44.18,88.45,45.36,97.52,231.33,Single-ply,SBD,F
Girls,44.23,5,Jordan Lovette,Grand Saline,44.18,88.45,38.56,92.99,219.99,Single-ply,SBD,F
Girls,44.23,6,Brittany Payne,Shelbyville,43.73,83.91,36.29,81.65,201.85,Single-ply,SBD,F
Girls,44.23,7,Diana Valencia,Shelbyville,40.91,68.04,29.48,97.52,195.04,Single-ply,SBD,F
Girls,44.23,8,Alysia McCormick,Pattonville Prairiland,40.55,70.31,38.56,83.91,192.78,Single-ply,SBD,F
Girls,44.23,9,Jacee Buchanan,Commerce,39.92,68.04,38.56,81.65,188.24,Single-ply,SBD,F
Girls,44.23,10,Kayleigh Phillips,Daingerfield,41.91,63.5,36.29,83.91,183.7,Single-ply,SBD,F
Girls,44.23,11,Skyler Barlow,Corsicana Mildred,40.82,54.43,45.36,74.84,174.63,Single-ply,SBD,F
Girls,44.23,DQ,Erica Adams,San Augustine,44,,,,,Single-ply,SBD,F
Girls,44.23,DQ,Jozalyn Sewell,Blooming Grove,44.18,,,,,Single-ply,SBD,F
Girls,44.23,DQ,Megan Sanders,Paris Chisum,43.54,,,,,Single-ply,SBD,F
Girls,44.23,DQ,Jennifer Gatlin,Troup,41.37,,,,,Single-ply,SBD,F
Girls,47.85,1,Annika Nittmo,Winnsboro,47.45,122.47,65.77,133.81,322.05,Single-ply,SBD,F
Girls,47.85,2,Keeley Jurca,Celeste,45.81,104.33,81.65,111.13,297.1,Single-ply,SBD,F
Girls,47.85,3,Cheyenne Jones,Cumby,47.54,111.13,63.5,117.93,292.57,Single-ply,SBD,F
Girls,47.85,4,Emilee Jones,Simms Bowie,46.81,115.67,52.16,115.67,283.5,Single-ply,SBD,F
Girls,47.85,5,Chesney Richards,Corsicana Mildred,47.45,106.59,65.77,111.13,283.5,Single-ply,SBD,F
Girls,47.85,6,Kaylee Bolyard,Hemphill,47.63,106.59,49.9,127.01,283.5,Single-ply,SBD,F
Girls,47.85,7,Alissa Talley,Elkhart,47.36,115.67,45.36,113.4,274.42,Single-ply,SBD,F
Girls,47.85,8,Adelina Caceres,Trinity,47.08,104.33,54.43,102.06,260.82,Single-ply,SBD,F
Girls,47.85,9,Ella Pearson,Diana New Diana,47.17,102.06,45.36,104.33,251.74,Single-ply,SBD,F
Girls,47.85,10,Cedriyah Holman,San Augustine,47.36,99.79,43.09,104.33,247.21,Single-ply,SBD,F
Girls,47.85,11,Anna Combs,Kerens,46.08,97.52,45.36,95.25,238.14,Single-ply,SBD,F
Girls,47.85,12,Megan Jameson,Pattonville Prairiland,47.45,83.91,52.16,95.25,231.33,Single-ply,SBD,F
Girls,47.85,DQ,Kelsea Boles,Malakoff,47.63,,,,,Single-ply,SBD,F
Girls,47.85,DQ,Chasity Harmon,Malakoff,47.63,,,,,Single-ply,SBD,F
Girls,47.85,DQ,Brittney Smith,Blooming Grove,47.63,,,,,Single-ply,SBD,F
Girls,51.94,1,Jaelan Linville,Mount Enterprise,50.98,120.2,81.65,117.93,319.78,Single-ply,SBD,F
Girls,51.94,2,Allie Boehlar,Paris Chisum,50.26,129.27,63.5,124.74,317.51,Single-ply,SBD,F
Girls,51.94,3,Lexi Mounger,Lone Oak,50.53,122.47,72.57,117.93,312.98,Single-ply,SBD,F
Girls,51.94,4,Madalyn Hartmann,Normangee,50.89,127.01,68.04,117.93,312.98,Single-ply,SBD,F
Girls,51.94,5,Hanna Richison,Winnsboro,50.62,122.47,61.23,122.47,306.17,Single-ply,SBD,F
Girls,51.94,6,Luisa Soto,White Oak,51.8,129.27,58.97,117.93,306.17,Single-ply,SBD,F
Girls,51.94,7,Lexi Moody,Hemphill,51.26,117.93,58.97,117.93,294.84,Single-ply,SBD,F
Girls,51.94,8,Carmen Villarreal,Kemp,51.26,117.93,65.77,104.33,288.03,Single-ply,SBD,F
Girls,51.94,9,Karson Pardue,Elkhart,51.17,106.59,65.77,113.4,285.76,Single-ply,SBD,F
Girls,51.94,10,Nayeli Davalos,Trinity,51.71,113.4,54.43,111.13,278.96,Single-ply,SBD,F
Girls,51.94,11,Rilee Stewart,Redwater,51.53,99.79,70.31,106.59,276.69,Single-ply,SBD,F
Girls,51.94,12,Karen Aragon,Winnsboro,51.71,113.4,54.43,108.86,276.69,Single-ply,SBD,F
Girls,51.94,13,Mya Cheatum,Daingerfield,51.89,102.06,43.09,115.67,260.82,Single-ply,SBD,F
Girls,51.94,DQ,Evette Martinez,De Kalb,51.71,,,,,Single-ply,SBD,F
Girls,51.94,DQ,Becca Brown,Malakoff,51.71,,,,,Single-ply,SBD,F
Girls,56.02,1,Alicia Dennis,Kemp,55.97,154.22,79.38,145.15,378.75,Single-ply,SBD,F
Girls,56.02,2,Karla Fuentes,Winnsboro,54.61,140.61,77.11,149.69,367.41,Single-ply,SBD,F
Girls,56.02,3,Madi Newman,Gladewater Union Grove,55.07,133.81,88.45,122.47,344.73,Single-ply,SBD,F
Girls,56.02,4,Savannah Barnett,Hemphill,55.43,129.27,70.31,129.27,328.85,Single-ply,SBD,F
Girls,56.02,5,Sela Aguilar,Gladewater Union Grove,55.16,124.74,77.11,117.93,319.78,Single-ply,SBD,F
Girls,56.02,6,Jaiden Rose,Shelbyville,55.61,136.08,56.7,124.74,317.51,Single-ply,SBD,F
Girls,56.02,7,Samantha Collier,Gilmer Union Hill,52.44,129.27,65.77,108.86,303.91,Single-ply,SBD,F
Girls,56.02,8,Jessica Lyman,New London West Rusk,55.79,120.2,52.16,120.2,292.57,Single-ply,SBD,F
Girls,56.02,9,Jaylin Contreras,Kemp,55.34,111.13,56.7,106.59,274.42,Single-ply,SBD,F
Girls,56.02,10,Annalisa Trevino,Elkhart,55.25,120.2,56.7,90.72,267.62,Single-ply,SBD,F
Girls,56.02,11,Brooklyn Matthews,Commerce,53.8,97.52,52.16,111.13,260.82,Single-ply,SBD,F
Girls,56.02,12,Britney Bluford,San Augustine,54.88,95.25,49.9,113.4,258.55,Single-ply,SBD,F
Girls,56.02,13,Deandra McLennan,Dawson,54.43,102.06,47.63,106.59,256.28,Single-ply,SBD,F
Girls,56.02,DQ,Jesse Gillispie,Hughes Springs,55.79,,,,,Single-ply,SBD,F
Girls,56.02,DQ,Tressure Hines,Linden-Kildare,55.79,,,,,Single-ply,SBD,F
Girls,56.02,DQ,Sofia Munoz,Quinlan Boles,55.79,,,,,Single-ply,SBD,F
Girls,60.1,1,Lilly Perez,Palmer,59.42,147.42,74.84,149.69,371.95,Single-ply,SBD,F
Girls,60.1,2,Katie York,Troup,59.6,165.56,70.31,136.08,371.95,Single-ply,SBD,F
Girls,60.1,3,Danie Jones,Winnsboro,59.78,136.08,83.91,142.88,362.87,Single-ply,SBD,F
Girls,60.1,4,LaGloria Campbell,New Boston,58.33,142.88,63.5,145.15,351.53,Single-ply,SBD,F
Girls,60.1,5,Kaitlyn McCarter,Paris Chisum,58.79,129.27,77.11,145.15,351.53,Single-ply,SBD,F
Girls,60.1,6,Kinzie Williams,Winnsboro,59.78,133.81,77.11,140.61,351.53,Single-ply,SBD,F
Girls,60.1,7,Michah Monday,Winnsboro,59.78,147.42,65.77,129.27,342.46,Single-ply,SBD,F
Girls,60.1,8,Chloe Ives,Elkhart,59.87,142.88,63.5,117.93,324.32,Single-ply,SBD,F
Girls,60.1,9,Cassidy Olazabal,Diana New Diana,58.88,131.54,58.97,127.01,317.51,Single-ply,SBD,F
Girls,60.1,10,Carlie Rogers,Diana New Diana,60.06,129.27,54.43,131.54,315.25,Single-ply,SBD,F
Girls,60.1,11,Dioseny Mejia,Gilmer Union Hill,57.61,117.93,61.23,129.27,308.44,Single-ply,SBD,F
Girls,60.1,DQ,Claire Pittman,Hughes Springs,59.87,,,,,Single-ply,SBD,F
Girls,60.1,DQ,Makayla Martin,Linden-Kildare,59.87,,,,,Single-ply,SBD,F
Girls,60.1,DQ,Angelica Adame,Palmer,59.69,,,,,Single-ply,SBD,F
Girls,67.36,1,Tristyn Boone,Lone Oak,66.59,172.37,70.31,154.22,396.89,Single-ply,SBD,F
Girls,67.36,2,Ashley Hagood,Cumby,64.95,158.76,74.84,156.49,390.09,Single-ply,SBD,F
Girls,67.36,3,Raquel Balderas,Blooming Grove,66.22,145.15,86.18,149.69,381.02,Single-ply,SBD,F
Girls,67.36,4,Shaylea Boles,Malakoff,65.14,158.76,72.57,136.08,367.41,Single-ply,SBD,F
Girls,67.36,5,Kenley Windle,Mount Pleasant Chapel Hill,65.77,151.95,68.04,145.15,365.14,Single-ply,SBD,F
Girls,67.36,6,Bethany Alexander,Kemp,66.77,151.95,74.84,138.35,365.14,Single-ply,SBD,F
Girls,67.36,7,Britney Berlanga,Winona,66.41,149.69,68.04,136.08,353.8,Single-ply,SBD,F
Girls,67.36,8,Sadie Froese,Paris Chisum,65.77,127.01,72.57,131.54,331.12,Single-ply,SBD,F
Girls,67.36,9,Justyne Romero,Eustace,66.86,133.81,74.84,120.2,328.85,Single-ply,SBD,F
Girls,67.36,10,Tori Bollinger,Pollok Central,67.31,133.81,63.5,111.13,308.44,Single-ply,SBD,F
Girls,67.36,11,Sarah Coffman,Commerce,65.86,124.74,56.7,124.74,306.17,Single-ply,SBD,F
Girls,67.36,12,Claire Barham,Blooming Grove,64.68,129.27,61.23,113.4,303.91,Single-ply,SBD,F
Girls,67.36,13,Emma Smitherman,Gladewater Sabine,66.04,127.01,58.97,115.67,301.64,Single-ply,SBD,F
Girls,67.36,14,Taylor Colbert,Gilmer Union Hill,64.23,117.93,56.7,124.74,299.37,Single-ply,SBD,F
Girls,75.07,1,Samantha Hagood,Cumby,71.94,167.83,77.11,172.37,417.3,Single-ply,SBD,F
Girls,75.07,2,Lorena Mirafuentes,Blooming Grove,73.84,161.03,81.65,147.42,390.09,Single-ply,SBD,F
Girls,75.07,3,Kyndall Hill,Trinity,74.57,154.22,83.91,147.42,385.55,Single-ply,SBD,F
Girls,75.07,4,Madison Taylor,Shelbyville,73.26,170.1,70.31,142.88,383.29,Single-ply,SBD,F
Girls,75.07,5,Ariuana Wilson,Laird Hill Leveretts Chapel,73.57,170.1,68.04,136.08,374.21,Single-ply,SBD,F
Girls,75.07,6,Jaci Gray,Eustace,74.12,154.22,74.84,136.08,365.14,Single-ply,SBD,F
Girls,75.07,7,Kassi Peterson,New Waverly,74.03,140.61,68.04,127.01,335.66,Single-ply,SBD,F
Girls,75.07,8,Rhema Pitts,Troup,69.13,142.88,68.04,115.67,326.59,Single-ply,SBD,F
Girls,75.07,9,Emily Cook,Frankston,73.84,127.01,61.23,138.35,326.59,Single-ply,SBD,F
Girls,75.07,10,Kacee Fink,Malakoff,68.86,138.35,58.97,124.74,322.05,Single-ply,SBD,F
Girls,75.07,11,Kaitlyn Salzaar,Linden-Kildare,74.16,124.74,61.23,136.08,322.05,Single-ply,SBD,F
Girls,75.07,12,Alex Munster,Wortham,74.03,122.47,70.31,124.74,317.51,Single-ply,SBD,F
Girls,75.07,13,Karsen McClain,Pattonville Prairiland,74.3,136.08,56.7,111.13,303.91,Single-ply,SBD,F
Girls,75.07,DQ,Kaylie Lewis,Malakoff,74.84,,,,,Single-ply,SBD,F
Girls,75.07,DQ,Montraevia Durham,Daingerfield,74.84,,,,,Single-ply,SBD,F
Girls,82.33,1,Marissa Lutz,Lone Oak,80.47,219.99,117.93,172.37,510.29,Single-ply,SBD,F
Girls,82.33,2,Tyler Pyburn,Blooming Grove,80.38,151.95,70.31,163.29,385.55,Single-ply,SBD,F
Girls,82.33,3,Radiance Willis,Blooming Grove,80.65,156.49,79.38,149.69,385.55,Single-ply,SBD,F
Girls,82.33,4,Katie Melton,Gladewater Union Grove,77.93,158.76,88.45,127.01,374.21,Single-ply,SBD,F
Girls,82.33,5,Paige Seely,Cumby,77.38,147.42,83.91,138.35,369.68,Single-ply,SBD,F
Girls,82.33,6,Andrea Barrett,Commerce,78.56,163.29,72.57,131.54,367.41,Single-ply,SBD,F
Girls,82.33,7,Ally Jo Paananen,Celeste,79.2,147.42,83.91,136.08,367.41,Single-ply,SBD,F
Girls,82.33,8,Maryssa Gilliam,Troup,80.83,165.56,68.04,122.47,356.07,Single-ply,SBD,F
Girls,82.33,9,Chrissy Reimim,Corsicana Mildred,81.1,124.74,74.84,145.15,344.73,Single-ply,SBD,F
Girls,82.33,10,Adriana Clay,Trinity,82.1,140.61,81.65,120.2,342.46,Single-ply,SBD,F
Girls,82.33,11,Kelli Ramey,Trinity,82.19,147.42,65.77,129.27,342.46,Single-ply,SBD,F
Girls,82.33,12,Kat Ragatz,Winnsboro,80.74,138.35,74.84,127.01,340.19,Single-ply,SBD,F
Girls,82.33,DQ,Catelin Jones,Frankston,82.1,,,,,Single-ply,SBD,F
Girls,82.33,DQ,Novali Davenport,Frankston,82.1,,,,,Single-ply,SBD,F
Girls,90.04,1,Desere Cooper,Joaquin,85,181.44,86.18,181.44,449.06,Single-ply,SBD,F
Girls,90.04,2,Bekah Parks,Teague,86.36,183.7,97.52,163.29,444.52,Single-ply,SBD,F
Girls,90.04,3,Hailey Jacobs,Winona,88,192.78,79.38,172.37,444.52,Single-ply,SBD,F
Girls,90.04,4,Raini Goodell,Eustace,89.45,170.1,102.06,147.42,419.57,Single-ply,SBD,F
Girls,90.04,5,Jocelyn Watson,Hemphill,87.27,158.76,79.38,158.76,396.89,Single-ply,SBD,F
Girls,90.04,6,Emily Moreno,Malakoff,88.27,165.56,83.91,147.42,396.89,Single-ply,SBD,F
Girls,90.04,7,Alyssa Clements,Queen City,89.27,158.76,54.43,145.15,358.34,Single-ply,SBD,F
Girls,90.04,8,Demarkia Palmer,Daingerfield,86.55,151.95,61.23,142.88,356.07,Single-ply,SBD,F
Girls,90.04,9,Ta'Avyonne Felder,Wortham,89.18,149.69,63.5,142.88,356.07,Single-ply,SBD,F
Girls,90.04,10,Natelie Jones,Frankston,83.82,147.42,68.04,136.08,351.53,Single-ply,SBD,F
Girls,90.04,11,Randi Wilson,Troup,87.91,127.01,72.57,140.61,340.19,Single-ply,SBD,F
Girls,90.04,DQ,Ashlyn Burke,Eustace,89.81,,,,,Single-ply,SBD,F
Girls,90.04,DQ,Amanda Torres,Hawkins,89.72,,,,,Single-ply,SBD,F
Girls,90.04,DQ,Brittany Creagor,Corsicana Mildred,89.81,,,,,Single-ply,SBD,F
Girls,90.04,DQ,Beatriz Costila,Trinity,87.63,172.37,97.52,,,Single-ply,SBD,F
Girls,100.02,1,Madi Wilbanks,Malakoff,97.52,238.14,108.86,174.63,521.63,Single-ply,SBD,F
Girls,100.02,2,Harleigh McEnturff,Elkhart,96.25,181.44,95.25,163.29,439.98,Single-ply,SBD,F
Girls,100.02,3,Shakendra Snell,Trinity,96.07,158.76,111.13,145.15,415.04,Single-ply,SBD,F
Girls,100.02,4,Jalyce Dennis,Troup,93.8,161.03,88.45,163.29,412.77,Single-ply,SBD,F
Girls,100.02,5,Erika Lowry,Gladewater Sabine,93.17,158.76,90.72,158.76,408.23,Single-ply,SBD,F
Girls,100.02,6,Eryne Merone,Eustace,96.16,158.76,74.84,142.88,376.48,Single-ply,SBD,F
Girls,100.02,7,Lauren Dollins,Pattonville Prairiland,94.26,158.76,63.5,142.88,365.14,Single-ply,SBD,F
Girls,100.02,8,Katarina Cassel,Rice,94.98,142.88,97.52,124.74,365.14,Single-ply,SBD,F
Girls,100.02,9,Alex White,Hemphill,95.16,136.08,72.57,136.08,344.73,Single-ply,SBD,F
Girls,100.02,10,Amber Karnes,Cayuga,91.63,149.69,70.31,122.47,342.46,Single-ply,SBD,F
Girls,100.02,11,Jada Moore,Shelbyville,97.43,158.76,54.43,122.47,335.66,Single-ply,SBD,F
Girls,100.02,12,Stephanie Hawkins,Corsicana Mildred,95.16,120.2,74.84,129.27,324.32,Single-ply,SBD,F
Girls,100.02,13,Brianna Hunter,Pollok Central,95.53,142.88,72.57,104.33,319.78,Single-ply,SBD,F
Girls,100.02,DQ,Josie Crossland,Celeste,99.79,,,,,Single-ply,SBD,F
Girls,117.71,1,Katie Casey,Shelbyville,103.69,217.72,81.65,188.24,487.61,Single-ply,SBD,F
Girls,117.71,2,Zuri Garcia,Pollok Central,116.12,197.31,95.25,151.95,444.52,Single-ply,SBD,F
Girls,117.71,3,Halee McCaslin,Corsicana Mildred,104.14,181.44,90.72,154.22,426.38,Single-ply,SBD,F
Girls,117.71,4,Delanie Spakes,Kemp,104.14,133.81,81.65,161.03,376.48,Single-ply,SBD,F
Girls,117.71,5,Tori Hill,White Oak,112.22,163.29,58.97,138.35,360.61,Single-ply,SBD,F
Girls,117.71,6,Mya Rose,Hawkins,112.04,133.81,63.5,154.22,351.53,Single-ply,SBD,F
Girls,117.71,7,Kellie Blake,Maypearl,108.86,142.88,90.72,113.4,347,Single-ply,SBD,F
Girls,117.71,8,Destiny Toye,Frankston,105.32,142.88,68.04,124.74,335.66,Single-ply,SBD,F
Girls,117.71,9,Tawny Anderson,Elkhart,110.13,138.35,65.77,129.27,333.39,Single-ply,SBD,F
Girls,117.71,10,Alex Lopez,Lone Oak,110.4,142.88,56.7,117.93,317.51,Single-ply,SBD,F
Girls,117.71,DQ,Savannah Fitzgerald,Cayuga,101.42,,,,,Single-ply,SBD,F
Girls,117.71,DQ,Jaiden Jones,Daingerfield,101.7,,,,,Single-ply,SBD,F
Girls,117.71,DQ,Bryanna Stotts,Cayuga,100.61,154.22,52.16,,,Single-ply,SBD,F
Girls,117.71,DQ,Alexis Payne,Palmer,109.13,,,,,Single-ply,SBD,F
Girls,117.71+,1,Andrea Beasley,Kemp,122.38,226.8,104.33,170.1,501.22,Single-ply,SBD,F
Girls,117.71+,2,Katrina Partain,Dawson,130.45,165.56,115.67,124.74,405.97,Single-ply,SBD,F
Girls,117.71+,3,Shalandra Walker,San Augustine,120.93,154.22,77.11,158.76,390.09,Single-ply,SBD,F
Girls,117.71+,4,Mariela Garcia,Pollok Central,136.26,174.63,79.38,136.08,390.09,Single-ply,SBD,F
Girls,117.71+,5,Arionn Davis,Grapeland,123.65,120.2,54.43,174.63,349.27,Single-ply,SBD,F
Girls,117.71+,6,Alondra Salinas,Troup,119.2,145.15,83.91,113.4,342.46,Single-ply,SBD,F
Girls,117.71+,7,Emily Rodriguez,Malakoff,127.01,136.08,61.23,129.27,326.59,Single-ply,SBD,F
Girls,117.71+,8,Natalie Defore,Elkhart,119.48,124.74,61.23,129.27,315.25,Single-ply,SBD,F
Girls,117.71+,9,Lanie Griffin,New Boston,124.65,117.93,65.77,127.01,310.71,Single-ply,SBD,F
Girls,117.71+,DQ,Alexis Donnell,New Summerfield,117.93,,,,,Single-ply,SBD,F
Girls,117.71+,DQ,Macy Cutler,Grapeland,117.93,,,,,Single-ply,SBD,F
Girls,117.71+,DQ,Janiea Rose,Hawkins,121.65,111.13,,,,Single-ply,SBD,F
Girls,117.71+,DQ,Torrence Borders,San Augustine,124.28,,,,,Single-ply,SBD,F
