Place,Name,State,WeightClassKg,BodyweightKg,Age,Best3SquatKg,Best3BenchKg,Best3DeadliftKg,TotalKg,Sex,Division,Equipment,Event,Tested
1,Jordan Rodriguez,WV,56,52.9,18,122.5,62.5,130,315,F,Open,Raw,SBD,Yes
2,Julia Hsu,NY,56,54.7,22,90,67.5,130,287.5,F,Open,Raw,SBD,Yes
1,Elaine Haggard,NY,60,58.9,21,117.5,57.5,130,305,F,Open,Raw,SBD,Yes
2,Leslie Giron-Molina,VA,60,58.3,19,100,63,130,293,F,Open,Raw,SBD,Yes
3,Kristin Vandeven,NY,60,58.6,22,97.5,55,130,282.5,F,Open,Raw,SBD,Yes
1,Annie Wilson,VA,67.5,66.7,20,145,75,162.5,382.5,F,Open,Raw,SBD,Yes
2,Amanda Kuruc,NY,67.5,65.6,22,120,70,140,330,F,Open,Raw,SBD,Yes
3,Virginia Villani,VA,67.5,63,22,115,62.5,150,327.5,F,Open,Raw,SBD,Yes
4,Grace Platek,OH,67.5,66,20,102.5,57.5,137.5,297.5,F,Open,Raw,SBD,Yes
5,Caroline Nguyen,VA,67.5,66.9,21,95,62.5,140,297.5,F,Open,Raw,SBD,Yes
6,Mackenzie Kelly,MI,67.5,66.1,21,105,60,120,285,F,Open,Raw,SBD,Yes
7,Katherine Williams,MI,67.5,62.7,21,102.5,42.5,135,280,F,Open,Raw,SBD,Yes
8,Laura Bywalec,MI,67.5,67.5,19,102.5,60,117.5,280,F,Open,Raw,SBD,Yes
9,Katie Boehlefeld,OH,67.5,65.7,21,95,52.5,117.5,265,F,Open,Raw,SBD,Yes
DQ,Elizabeth Dotson,WV,67.5,66.7,22,,,,,F,Open,Raw,SBD,Yes
1,Michaela Piendel,WV,75,72.6,23,152.5,62.5,162.5,377.5,F,Open,Raw,SBD,Yes
2,Ashley Grim,OH,75,71.9,23,140,80,155,375,F,Open,Raw,SBD,Yes
3,Madison Eichstadt,PA,75,70.4,22,140,82.5,145,367.5,F,Open,Raw,SBD,Yes
4,Claire Taylor #1,IL,75,70.8,25,130,62.5,162.5,355,F,Open,Raw,SBD,Yes
5,Lauren Maloney,WV,75,73.5,20,137.5,60,125,322.5,F,Open,Raw,SBD,Yes
6,Erin Weible,VA,75,74.7,19,117.5,62.5,137.5,317.5,F,Open,Raw,SBD,Yes
1,Katelyn Peacock,OH,82.5,76.4,19,85,55,110,250,F,Open,Raw,SBD,Yes
DQ,Kelly Megown,OH,82.5,78.3,22,,,,,F,Open,Raw,SBD,Yes
1,Parker Rembis,OH,60,59,19,173,100.5,197.5,471,M,Open,Raw,SBD,Yes
2,Kong Vorachack,IN,60,59.7,23,117.5,100,167.5,385,M,Open,Raw,SBD,Yes
1,Vincent Falzetta,MI,67.5,66.7,21,230,135,280,645,M,Open,Raw,SBD,Yes
2,John Linden,NY,67.5,67.3,21,170,115,245,530,M,Open,Raw,SBD,Yes
3,Brandon Roseborough,NY,67.5,66.6,21,185,125,200,510,M,Open,Raw,SBD,Yes
4,Alex Hannah,WV,67.5,66.5,23,182.5,112.5,210,505,M,Open,Raw,SBD,Yes
5,David Dotson,WV,67.5,66.7,21,182.5,107.5,180,470,M,Open,Raw,SBD,Yes
1,Aubrey Hogan,IL,75,73.1,22,247.5,157.5,282.5,687.5,M,Open,Raw,SBD,Yes
2,Brian DeGori,NY,75,74.9,23,217.5,140,252.5,610,M,Open,Raw,SBD,Yes
3,Nick Smith,MI,75,73.5,21,220,125,247.5,592.5,M,Open,Raw,SBD,Yes
4,Timothy DeHaas,MI,75,74.6,27,200,135,257.5,592.5,M,Open,Raw,SBD,Yes
5,Ryan O'Connell,NY,75,72.7,21,187.5,142.5,225,555,M,Open,Raw,SBD,Yes
6,Dylan Jordan,MD,75,72.6,20,190,120,217.5,527.5,M,Open,Raw,SBD,Yes
7,Trevor Lineburg,WV,75,75,21,190,115,215,520,M,Open,Raw,SBD,Yes
8,Adrian Sison,VA,75,74.8,21,165,127.5,202.5,495,M,Open,Raw,SBD,Yes
9,Caleb Moore,OH,75,74,21,165,135,190,490,M,Open,Raw,SBD,Yes
10,Ross Simpson,MI,75,74.4,20,175,115,192.5,482.5,M,Open,Raw,SBD,Yes
11,Matthew Brockman,PA,75,74.8,20,112.5,87.5,150,350,M,Open,Raw,SBD,Yes
12,Vasant Saladi,MD,75,72.3,19,112.5,65,152.5,330,M,Open,Raw,SBD,Yes
1,Brendan Brown,NY,82.5,81.6,20,237.5,140,265,642.5,M,Open,Raw,SBD,Yes
2,Anthony Perry,MD,82.5,81.6,27,235,155,237.5,627.5,M,Open,Raw,SBD,Yes
3,Kaden Gilmore,OH,82.5,80,20,227.5,132.5,255,615,M,Open,Raw,SBD,Yes
4,Nicholas Velez,NY,82.5,80.5,22,190,135,242.5,567.5,M,Open,Raw,SBD,Yes
5,Nick Sia,OH,82.5,81,21,205,122.5,227.5,555,M,Open,Raw,SBD,Yes
6,Lucas Muller,MI,82.5,82.5,19,182.5,130,232.5,545,M,Open,Raw,SBD,Yes
7,Tyler Charuhas,NH,82.5,81.5,19,185,125,222.5,532.5,M,Open,Raw,SBD,Yes
8,Benjamin Jeon,VA,82.5,81.9,21,197.5,132.5,202.5,532.5,M,Open,Raw,SBD,Yes
9,Matthew Zwiren,VA,82.5,81.2,23,185,142.5,202.5,530,M,Open,Raw,SBD,Yes
10,Timothy Rohe,VA,82.5,82.2,19,202.5,130,190,522.5,M,Open,Raw,SBD,Yes
11,Tiernan Keast,VA,82.5,81.5,20,190,120,202.5,512.5,M,Open,Raw,SBD,Yes
12,Zach Wargo,OH,82.5,80.3,19,192.5,100,215,507.5,M,Open,Raw,SBD,Yes
13,Greg Cannata,OH,82.5,81.6,20,167.5,110,210,487.5,M,Open,Raw,SBD,Yes
14,Corey Pajek,OH,82.5,78.2,20,162.5,112.5,205,480,M,Open,Raw,SBD,Yes
15,Brent Rushing,VA,82.5,79.9,21,175,100,200,475,M,Open,Raw,SBD,Yes
16,Cameron O'Neill,OH,82.5,78,21,172.5,105,195,472.5,M,Open,Raw,SBD,Yes
17,Mike Pirsos,NJ,82.5,81.2,19,167.5,95,172.5,435,M,Open,Raw,SBD,Yes
1,Zachary Backauskas,PA,90,90,18,227.5,140,285,652.5,M,Open,Raw,SBD,Yes
2,Rodney Khuu,VA,90,88.5,25,227.5,147.5,257.5,632.5,M,Open,Raw,SBD,Yes
3,Steven Hoadley,NY,90,89.5,23,217.5,150,245,612.5,M,Open,Raw,SBD,Yes
4,Nolan Anderson,OH,90,87.2,19,202.5,135,252.5,590,M,Open,Raw,SBD,Yes
5,Benjamin Wilson #1,IL,90,88.8,23,215,125,225,565,M,Open,Raw,SBD,Yes
6,Randy Durr,WV,90,84.3,20,205,122.5,220,547.5,M,Open,Raw,SBD,Yes
7,Conner Warren,MI,90,88.7,22,192.5,132.5,215,540,M,Open,Raw,SBD,Yes
8,Mark Land,VA,90,88.4,21,185,110,230,525,M,Open,Raw,SBD,Yes
9,Logan Davis,WV,90,83.4,19,185,115,210,510,M,Open,Raw,SBD,Yes
10,James Pietrangelo,OH,90,89.4,19,157.5,107.5,227.5,492.5,M,Open,Raw,SBD,Yes
11,Wesley McKnight,WV,90,88.6,22,175,122.5,192.5,490,M,Open,Raw,SBD,Yes
12,James Rainone,VA,90,85.8,21,150,122.5,192.5,465,M,Open,Raw,SBD,Yes
13,Jarred Raab,OH,90,88.7,19,132.5,95,172.5,400,M,Open,Raw,SBD,Yes
DQ,Alex Jensen,CT,90,86.7,19,182.5,,,,M,Open,Raw,SBD,Yes
DQ,Walker Angell,KY,90,89,19,,,,,M,Open,Raw,SBD,Yes
1,Vanden Grube,PA,100,98.9,21,286,160,317.5,763.5,M,Open,Raw,SBD,Yes
2,Matthew Maloney,WV,100,94.6,22,257.5,170,255,682.5,M,Open,Raw,SBD,Yes
3,Ethan Sheppard,OH,100,95.4,20,215,155,290,660,M,Open,Raw,SBD,Yes
4,Michael Meier,VA,100,97.5,22,232.5,162.5,265,660,M,Open,Raw,SBD,Yes
5,Ben Chafin,MI,100,95.4,21,240,147.5,265,652.5,M,Open,Raw,SBD,Yes
6,Sam Johnson,NY,100,98.1,23,232.5,172.5,242.5,647.5,M,Open,Raw,SBD,Yes
7,Ike Blankenship,OH,100,96.1,20,227.5,142.5,240,610,M,Open,Raw,SBD,Yes
8,Robert Lawson,PA,100,100,19,200,105,255,560,M,Open,Raw,SBD,Yes
9,Noah Cornett,VA,100,93.5,20,187.5,122.5,235,545,M,Open,Raw,SBD,Yes
10,Nicholas James,OH,100,97.5,19,175,127.5,227.5,530,M,Open,Raw,SBD,Yes
11,Matthew McGuire,WV,100,98.2,20,182.5,120,222.5,525,M,Open,Raw,SBD,Yes
1,Gabe Overton,OH,110,104.5,19,275,195,275,745,M,Open,Raw,SBD,Yes
2,Evan Morcom,VA,110,104.5,20,252.5,172.5,292.5,717.5,M,Open,Raw,SBD,Yes
3,Philip Powers,IL,110,104.8,20,262.5,147.5,300,710,M,Open,Raw,SBD,Yes
4,Julian Meares,NY,110,104,21,220,165,305,690,M,Open,Raw,SBD,Yes
5,Nick Pritts,OH,110,104.6,21,220,165,277.5,662.5,M,Open,Raw,SBD,Yes
6,Avery Elifritz,OH,110,106,23,210,145,240,595,M,Open,Raw,SBD,Yes
7,Sean Redinger,WV,110,100.6,30,192.5,142.5,220,555,M,Open,Raw,SBD,Yes
1,Alexander Burgess,OH,125,122.2,24,290,192.5,277.5,760,M,Open,Raw,SBD,Yes
2,Vinny Pospisil,OH,125,123.1,21,265,187.5,282.5,735,M,Open,Raw,SBD,Yes
3,Grant Judy,WV,125,110.5,20,240,155,255,650,M,Open,Raw,SBD,Yes
4,Christopher Hooks,TN,125,123.1,24,205,117.5,240,562.5,M,Open,Raw,SBD,Yes
5,Andrew Garcia,IL,125,112.2,21,187.5,127.5,245,560,M,Open,Raw,SBD,Yes
6,Stephen Oberle,WV,125,121.3,20,155,115,215,485,M,Open,Raw,SBD,Yes
1,Phillip Carr,IN,140,125.8,30,252.5,187.5,272.5,712.5,M,Open,Raw,SBD,Yes
2,Joshua Biernacki,MA,140,128.6,27,272.5,147.5,260,680,M,Open,Raw,SBD,Yes
1,Zachary Thompson,OH,140+,161.5,23,255,187.5,265,707.5,M,Open,Raw,SBD,Yes
2,Derick Douglas,OH,140+,143.8,22,240,157.5,287.5,685,M,Open,Raw,SBD,Yes
