Division,WeightClassKg,Place,Name,Team,BodyweightKg,Best3SquatKg,Best3BenchKg,Best3DeadliftKg,TotalKg,Equipment,Event,Sex
Boys,51.71,1,Justin Dowdy,Wills Point,51.17,158.76,97.52,167.83,424.11,Single-ply,SBD,M
Boys,51.71,2,Miguel Hernandez,Emory Rains,50.8,161.03,83.91,154.22,399.16,Single-ply,SBD,M
Boys,51.71,3,Michael Smagghe,Fairfield,50.35,127.01,79.38,142.88,349.27,Single-ply,SBD,M
Boys,55.79,4,Mason Lindamood,Bullard,51.89,131.54,58.97,124.74,315.25,Single-ply,SBD,M
Boys,51.71,5,Trey Arras,Texarkana Liberty-Eylau,49.99,108.86,65.77,131.54,306.17,Single-ply,SBD,M
Boys,51.71,6,Jose Garcia,Diboll,50.98,102.06,77.11,122.47,301.64,Single-ply,SBD,M
Boys,51.71,7,Gilbert Garcia,Longview Spring Hill,50.08,111.13,61.23,120.2,292.57,Single-ply,SBD,M
Boys,51.71,8,Dylan King,Kaufman,50.71,117.93,58.97,113.4,290.3,Single-ply,SBD,M
Boys,51.71,9,Keilinn Shelton,Carthage,49.35,106.59,65.77,95.25,267.62,Single-ply,SBD,M
Boys,51.71,DQ,Hairo Salazar,Center,48.63,,,,,Single-ply,SBD,M
Boys,55.79,1,Jose Rodriguez,Athens,54.52,190.51,120.2,167.83,478.54,Single-ply,SBD,M
Boys,55.79,2,Leo Rosales,Rusk,54.61,156.49,83.91,165.56,405.97,Single-ply,SBD,M
Boys,55.79,3,Isaiah Payne,Crandall,54.43,145.15,63.5,179.17,387.82,Single-ply,SBD,M
Boys,55.79,4,Juston Clough,Carthage,55.79,136.08,77.11,165.56,378.75,Single-ply,SBD,M
Boys,55.79,5,Cesar Colunga,Emory Rains,55.61,133.81,65.77,154.22,353.8,Single-ply,SBD,M
Boys,55.79,6,Jose Olvera,Kaufman,54.7,127.01,68.04,142.88,337.93,Single-ply,SBD,M
Boys,55.79,7,Daniel Rodriguez,Center,55.61,117.93,68.04,142.88,328.85,Single-ply,SBD,M
Boys,55.79,DQ,Naire Gaines,Paris,54.07,151.95,79.38,,,Single-ply,SBD,M
Boys,55.79,DQ,David Martin-Flores,Texarkana Pleasant Grove,54.88,149.69,,,,Single-ply,SBD,M
Boys,59.87,1,Matthew Solomon,Texarkana Liberty-Eylau,59.51,172.37,102.06,185.97,460.4,Single-ply,SBD,M
Boys,67.13,2,Tyler Watson,Crandall,59.96,149.69,102.06,174.63,426.38,Single-ply,SBD,M
Boys,59.87,3,Rejuan Crabtree,Texarkana Liberty-Eylau,59.69,156.49,104.33,163.29,424.11,Single-ply,SBD,M
Boys,59.87,4,Jaleen Pickett,Madisonville,58.79,172.37,81.65,167.83,421.84,Single-ply,SBD,M
Boys,59.87,5,Joe King,Center,59.51,147.42,86.18,174.63,408.23,Single-ply,SBD,M
Boys,59.87,6,Matt Hahn,Texarkana Pleasant Grove,59.06,147.42,95.25,163.29,405.97,Single-ply,SBD,M
Boys,59.87,7,Josh Johnson,Paris North Lamar,58.79,127.01,72.57,136.08,335.66,Single-ply,SBD,M
Boys,59.87,8,Theo Serrano,Quinlan Ford,59.51,124.74,68.04,142.88,335.66,Single-ply,SBD,M
Boys,59.87,DQ,McKenzie Davis,Texarkana Liberty-Eylau,59.78,158.76,,,,Single-ply,SBD,M
Boys,67.13,1,Christian Allison,Carthage,66.86,190.51,115.67,190.51,496.68,Single-ply,SBD,M
Boys,67.13,2,Levi Roberts,Atlanta,66.32,188.24,111.13,188.24,487.61,Single-ply,SBD,M
Boys,67.13,3,X-Zavius Gray,Paris,64.23,190.51,92.99,188.24,471.74,Single-ply,SBD,M
Boys,67.13,4,Taylor Gonzalez,Crandall,66.59,158.76,122.47,188.24,469.47,Single-ply,SBD,M
Boys,74.84,5,Funzell Coleman,Atlanta,67.31,165.56,99.79,190.51,455.86,Single-ply,SBD,M
Boys,67.13,6,Carter Taylor,Brownsboro,65.14,174.63,104.33,174.63,453.59,Single-ply,SBD,M
Boys,74.84,7,Brent Mason,Brownsboro,67.22,165.56,92.99,190.51,449.06,Single-ply,SBD,M
Boys,67.13,8,Devin Eggins,Fairfield,65.05,167.83,97.52,174.63,439.98,Single-ply,SBD,M
Boys,67.13,9,Nick Harris,Madisonville,65.14,176.9,95.25,163.29,435.45,Single-ply,SBD,M
Boys,74.84,10,Matt Collins,Emory Rains,67.22,142.88,113.4,167.83,424.11,Single-ply,SBD,M
Boys,67.13,11,Jamie Hubbard,Center,63.32,149.69,86.18,183.7,419.57,Single-ply,SBD,M
Boys,74.84,1,Brad Meadows,Texarkana Pleasant Grove,73.84,229.06,158.76,231.33,619.15,Single-ply,SBD,M
Boys,74.84,2,Garrett Stanley,Center,74.57,233.6,138.35,244.94,616.89,Single-ply,SBD,M
Boys,82.1,3,Alvin Battle,Atlanta,75.07,240.4,138.35,226.8,605.55,Single-ply,SBD,M
Boys,74.84,4,Austin Skelton,Bullard,74.39,224.53,129.27,226.8,580.6,Single-ply,SBD,M
Boys,74.84,5,Christian Darter,Emory Rains,74.03,206.38,133.81,217.72,557.92,Single-ply,SBD,M
Boys,74.84,6,LaXavier Battee,Kaufman,73.75,213.19,113.4,204.12,530.7,Single-ply,SBD,M
Boys,74.84,7,Nate Jacobs,Crandall,71.85,185.97,124.74,215.46,526.17,Single-ply,SBD,M
Boys,74.84,8,Chris Bradford,Bullard,74.84,197.31,106.59,190.51,494.42,Single-ply,SBD,M
Boys,74.84,DQ,Colt Conway,Mabank,72.94,229.06,,,,Single-ply,SBD,M
Boys,74.84,DQ,Donelle Hoof,Texarkana Liberty-Eylau,72.85,172.37,,,,Single-ply,SBD,M
Boys,82.1,1,Jeremy Turner,Rusk,80.92,278.96,140.61,256.28,675.85,Single-ply,SBD,M
Boys,82.1,2,Aaron Johnson,Bullard,79.92,260.82,142.88,256.28,659.98,Single-ply,SBD,M
Boys,82.1,3,James Wright #1,Wills Point,78.02,215.46,142.88,229.06,587.4,Single-ply,SBD,M
Boys,82.1,4,Tanner Evett,Huntington,81.37,204.12,140.61,204.12,548.85,Single-ply,SBD,M
Boys,82.1,5,Jesse Mumphrey,Tyler Chapel Hill,81.01,195.04,115.67,226.8,537.51,Single-ply,SBD,M
Boys,82.1,6,Hunter Hatfield,Texarkana Pleasant Grove,81.37,210.92,117.93,208.65,537.51,Single-ply,SBD,M
Boys,82.1,7,Tommy Pettigrew,Bullard,77.47,190.51,97.52,242.67,530.7,Single-ply,SBD,M
Boys,82.1,8,Brentavian Henderson,Bullard,77.11,204.12,133.81,190.51,528.44,Single-ply,SBD,M
Boys,82.1,DQ,Nick Cooper,Atlanta,77.66,195.04,,,,Single-ply,SBD,M
Boys,82.1,DQ,Dakota Moore,Paris North Lamar,77.02,181.44,,,,Single-ply,SBD,M
Boys,89.81,1,Kiounis Williams,Center,88.45,254.01,142.88,260.82,657.71,Single-ply,SBD,M
Boys,89.81,2,Gannon Brown,Emory Rains,84.37,229.06,154.22,260.82,644.1,Single-ply,SBD,M
Boys,89.81,3,Leo Meyers,Atlanta,88.99,238.14,158.76,238.14,635.03,Single-ply,SBD,M
Boys,99.79,4,Aaron Chitwood,Brownsboro,89.9,254.01,145.15,235.87,635.03,Single-ply,SBD,M
Boys,89.81,5,Xavier Robertson,Kaufman,88.72,222.26,133.81,229.06,585.13,Single-ply,SBD,M
Boys,89.81,6,Cam Schulz,Atlanta,88.27,226.8,127.01,226.8,580.6,Single-ply,SBD,M
Boys,89.81,7,Jonathan Dunson,Kaufman,88.09,238.14,133.81,199.58,571.53,Single-ply,SBD,M
Boys,89.81,8,Nate Banks,Crandall,88.18,226.8,124.74,215.46,566.99,Single-ply,SBD,M
Boys,89.81,9,Andrew Johnson,Paris North Lamar,88.63,206.38,127.01,233.6,566.99,Single-ply,SBD,M
Boys,89.81,10,Tristan Moore,Brownsboro,89.09,222.26,122.47,213.19,557.92,Single-ply,SBD,M
Boys,89.81,11,Jeremiah Simpson,Fairfield,87.54,215.46,113.4,204.12,532.97,Single-ply,SBD,M
Boys,89.81,12,Tyler Wilbanks,Rusk,88.9,208.65,108.86,181.44,498.95,Single-ply,SBD,M
Boys,99.79,1,Hunter Phelps,Bullard,97.98,272.16,147.42,238.14,657.71,Single-ply,SBD,M
Boys,99.79,2,DeVincent Hoyt,Center,97.52,247.21,158.76,235.87,641.83,Single-ply,SBD,M
Boys,99.79,3,Delenis Garrett,Tyler Chapel Hill,92.26,254.01,145.15,229.06,628.23,Single-ply,SBD,M
Boys,99.79,4,Elier Avila,Kaufman,97.61,247.21,127.01,217.72,591.94,Single-ply,SBD,M
Boys,99.79,5,Caleb Hallford,Bullard,97.61,226.8,147.42,210.92,585.13,Single-ply,SBD,M
Boys,109.77,6,Jerry McNeil,Quinlan Ford,99.97,231.33,149.69,192.78,573.79,Single-ply,SBD,M
Boys,99.79,7,Geoffrey Smith,Paris,97.43,210.92,129.27,222.26,562.45,Single-ply,SBD,M
Boys,99.79,DQ,Seth Lemley,Texarkana Pleasant Grove,94.17,,,,,Single-ply,SBD,M
Boys,99.79,DQ,Jose Vallejo,Center,96.71,,,,,Single-ply,SBD,M
Boys,99.79,DQ,Kevin Morrow,Kaufman,95.53,235.87,129.27,,,Single-ply,SBD,M
Boys,109.77,1,Dillen Kilpatrick,Fairfield,108.05,308.44,185.97,231.33,725.75,Single-ply,SBD,M
Boys,109.77,2,Gonzalo Arreguin,Tyler Chapel Hill,105.87,249.48,176.9,235.87,662.24,Single-ply,SBD,M
Boys,109.77,3,Taner Renfro,Quinlan Ford,101.6,263.08,133.81,210.92,607.81,Single-ply,SBD,M
Boys,109.77,4,Justin Jackson,Crandall,102.78,229.06,124.74,251.74,605.55,Single-ply,SBD,M
Boys,109.77,5,Cole Davis,Atlanta,105.87,240.4,136.08,229.06,605.55,Single-ply,SBD,M
Boys,109.77,6,Austin Ashley,Madisonville,107.77,226.8,151.95,226.8,605.55,Single-ply,SBD,M
Boys,109.77,7,Dennis Coleman,Paris,101.7,226.8,127.01,231.33,585.13,Single-ply,SBD,M
Boys,109.77,8,Tristan Bishop,Bullard,108.41,231.33,142.88,210.92,585.13,Single-ply,SBD,M
Boys,109.77,DQ,Josh Hurst,Mineola,107.05,222.26,113.4,,,Single-ply,SBD,M
Boys,109.77,DQ,Ricky Johnson,Texarkana Liberty-Eylau,100.88,,,,,Single-ply,SBD,M
Boys,124.74,1,Drew Davis,Texarkana Pleasant Grove,124.19,274.42,176.9,219.99,671.32,Single-ply,SBD,M
Boys,124.74,2,Zach Verhalen,Center,111.13,251.74,158.76,244.94,655.44,Single-ply,SBD,M
Boys,124.74,3,Dorian Schutt,Bullard,112.67,249.48,142.88,260.82,653.17,Single-ply,SBD,M
Boys,124.74,4,David Allen,Quinlan Ford,123.83,254.01,136.08,231.33,621.42,Single-ply,SBD,M
Boys,124.74,5,Zach Swearingen,Rusk,112.67,272.16,127.01,215.46,614.62,Single-ply,SBD,M
Boys,124.74,6,Daniel Brown #5,Crandall,120.84,224.53,151.95,213.19,589.67,Single-ply,SBD,M
Boys,124.74,7,Bryce Hoffman,Rusk,115.12,242.67,129.27,208.65,580.6,Single-ply,SBD,M
Boys,124.74,8,Nicholas Rodriguez,Kaufman,114.03,226.8,131.54,213.19,571.53,Single-ply,SBD,M
Boys,124.74,DQ,Patrick Cross,Palestine,120.66,285.76,,,,Single-ply,SBD,M
Boys,124.74,DQ,Thad Bevis,Tyler Chapel Hill,124.38,251.74,145.15,,,Single-ply,SBD,M
Boys,124.74+,1,Wyatt Santos,Van,145.42,278.96,170.1,242.67,691.73,Single-ply,SBD,M
Boys,124.74+,2,Tristan Fritch,Van,173.64,272.16,163.29,204.12,639.57,Single-ply,SBD,M
Boys,124.74+,3,Jacob Reichenau,Crandall,133.81,254.01,138.35,233.6,625.96,Single-ply,SBD,M
Boys,124.74+,4,Qurdale Huff,Paris,155.67,263.08,142.88,219.99,625.96,Single-ply,SBD,M
Boys,124.74+,5,Justin Stadtfeld,Gladewater,156.49,249.48,158.76,215.46,623.69,Single-ply,SBD,M
Boys,124.74+,6,Jordan LaBrie,Texarkana Pleasant Grove,138.44,263.08,161.03,192.78,616.89,Single-ply,SBD,M
Boys,124.74+,7,Jackie Berry,Paris North Lamar,136.35,235.87,113.4,240.4,589.67,Single-ply,SBD,M
Boys,124.74+,8,Juan Gomez,Brownsboro,134.54,226.8,149.69,210.92,587.4,Single-ply,SBD,M
Boys,124.74+,9,Keanan Ivory,Canton,143.97,251.74,117.93,210.92,580.6,Single-ply,SBD,M
Boys,124.74+,10,Cassius McKee,Atlanta,127.28,249.48,122.47,204.12,576.06,Single-ply,SBD,M
