Place,Name,State,WeightClassKg,BodyweightKg,Age,Best3SquatKg,Best3BenchKg,Best3DeadliftKg,TotalKg,Sex,Division,Equipment,Event,Squat4Kg,Bench4Kg,Deadlift4Kg
1,Logan Whitfill,AZ,67.5,65.4,23,127.5,62.5,150,340,F,Juniors 20-23,Raw,SBD,,,
1,Karina Cota,AZ,90,89.3,23,145,82.5,157.5,385,F,Juniors 20-23,Raw,SBD,,,
1,Chijioke Offor,AZ,56,54.5,44,120,60,152.5,332.5,F,Open,Raw,SBD,,,
1,Suzanne Davis,AZ,60,59.7,47,175,113.5,210,498.5,F,Open,Raw,SBD,,,
2,Shawn Coffey,AZ,60,59.9,30,120,65,150,335,F,Open,Raw,SBD,,,
3,Erika Johnson,AZ,60,59.9,25,117.5,50,140,307.5,F,Open,Raw,SBD,,,
1,Logan Whitfill,AZ,67.5,65.4,23,127.5,62.5,150,340,F,Open,Raw,SBD,,,
2,Brandi Morrison,AZ,67.5,65.8,32,105,77.5,140,322.5,F,Open,Raw,SBD,,,
1,Tanya Maldonado,AZ,82.5,76,27,137.5,67.5,140,345,F,Open,Raw,SBD,,,
2,Natalie Uy,AL,82.5,82.2,36,150,52.5,137.5,340,F,Open,Raw,SBD,152.5,,
3,Briana Lacey,AZ,82.5,79.5,26,85,62.5,142.5,290,F,Open,Raw,SBD,,,
1,Monica Limas,AZ,90,84.1,37,175,82.5,175,432.5,F,Open,Raw,SBD,,,
2,Karina Cota,AZ,90,89.3,23,145,82.5,157.5,385,F,Open,Raw,SBD,,,
1,Maria Gonzalez,AZ,90+,111,29,180,85,165,430,F,Open,Raw,SBD,,,
2,Christina Coughenour,AZ,90+,111.1,31,155,67.5,140,362.5,F,Open,Raw,SBD,,,
1,Natalie Uy,AL,82.5,82.2,36,150,52.5,137.5,340,F,Submasters 35-39,Raw,SBD,152.5,,
1,Chijioke Offor,AZ,56,54.5,44,120,60,152.5,332.5,F,Masters 40-44,Raw,SBD,,,
1,Suzanne Davis,AZ,60,59.7,47,175,113.5,210,498.5,F,Masters 45-49,Raw,SBD,,,
1,Carson Rice,AZ,75,72.8,17,145,100,195,440,M,Juniors 16-17,Raw,SBD,,,
1,Jared Lonnegren,AZ,75,74.2,20,180,110,210,500,M,Juniors 20-23,Raw,SBD,,,
1,Dylan Heileman,AZ,82.5,81.5,18,170,115,195,480,M,Juniors 18-19,Raw,SBD,,,
1,Alex DeSoto,AZ,110,107.2,22,227.5,105,247.5,580,M,Juniors 20-23,Raw,SBD,,,
1,Alec Williamson,AZ,140,133,21,325,227.5,355,907.5,M,Juniors 20-23,Raw,SBD,,,
1,Jacob Carpentier,AZ,75,74,25,182.5,120,205.5,508,M,Open,Raw,SBD,,,
2,Christopher Garcia,AZ,75,70.9,26,145,102.5,197.5,445,M,Open,Raw,SBD,,,
1,Matthew Cartee,AZ,82.5,79.3,30,200,105,210,515,M,Open,Raw,SBD,,,
1,Derek Freda,AZ,90,87.9,25,205,155,227.5,587.5,M,Open,Raw,SBD,,,
2,Orion Swartzlander,AZ,90,88.1,30,222.5,167.5,192.5,582.5,M,Open,Raw,SBD,,,
3,Joshua Franklin,AZ,90,89,28,202.5,125,237.5,565,M,Open,Raw,SBD,,,
4,Gary Kulik,AZ,90,84.3,24,125,92.5,200,417.5,M,Open,Raw,SBD,,,
1,Jeff Vasenda,AZ,110,109.4,33,217.5,182.5,322.5,722.5,M,Open,Raw,SBD,,,
2,Kelley Wolfe,AZ,110,106.8,33,245,165,290,700,M,Open,Raw,SBD,,,
1,Alexander Small,AZ,125,118.9,25,272.5,145,295,712.5,M,Open,Raw,SBD,,,
2,Greg Torres,AZ,125,119.2,25,227.5,167.5,242.5,637.5,M,Open,Raw,SBD,,,
3,Fares Kousiry,AZ,125,123.9,28,205,170,227.5,602.5,M,Open,Raw,SBD,,,
1,Alec Williamson,AZ,140,133,21,325,227.5,355,907.5,M,Open,Raw,SBD,,,
2,Ray Hixon,AZ,140,127.7,55,245,160,271,676,M,Open,Raw,SBD,,,
1,Ray Harris #2,AZ,140+,154.9,34,320,195,325,840,M,Open,Raw,SBD,,,
2,Jake Harcq,AZ,140+,146.4,31,245,160,252.5,657.5,M,Open,Raw,SBD,,,
1,Budd Hetrick,AZ,75,74.5,37,197.5,130,195,522.5,M,Submasters 35-39,Raw,SBD,,130.5,
1,Jody Whitfill,AZ,100,97.3,48,170,95,185,450,M,Masters 45-49,Raw,SBD,,,
1,Ray Hixon,AZ,140,127.7,55,245,160,271,676,M,Masters 55-59,Raw,SBD,,,
2,David R Ogden,AZ,140,137.4,59,102.5,75,150,327.5,M,Masters 55-59,Raw,SBD,,,
1,Sophia Hussary,AZ,90,86.9,42,147.5,95,182.5,425,F,Open,Wraps,SBD,,,
1,Sophia Hussary,AZ,90,86.9,42,147.5,95,182.5,425,F,Masters 40-44,Wraps,SBD,,,
1,Sam Nguyen,AZ,82.5,82.4,23,207.5,155,232.5,595,M,Juniors 20-23,Wraps,SBD,,,
1,Daniel Buchak,AZ,125,118,23,182.5,152.5,240,575,M,Juniors 20-23,Wraps,SBD,,,
1,Sam Nguyen,AZ,82.5,82.4,23,207.5,155,232.5,595,M,Open,Wraps,SBD,,,
1,Andrew Allen,AZ,110,108.6,32,227.5,167.5,252.5,647.5,M,Open,Wraps,SBD,,,
1,Sean Dancer,AZ,125,120.3,46,207.5,147.5,277.5,632.5,M,Open,Wraps,SBD,,,
2,Jeremy Maisenbach,AZ,125,124.6,38,187.5,127.5,222.5,537.5,M,Open,Wraps,SBD,,,
1,Jeremy Maisenbach,AZ,125,124.6,38,187.5,127.5,222.5,537.5,M,Submasters 35-39,Wraps,SBD,,,
DQ,Jason Mclaughlin,AZ,100,99,46,192.5,,190,,M,Masters 45-49,Wraps,SBD,,,
1,David Cunningham,AZ,100,98.7,65,137.5,97.5,160,395,M,Masters 65-69,Wraps,SBD,,,
1,Sean Dancer,AZ,125,120.3,46,207.5,147.5,277.5,632.5,M,Masters 45-49,Wraps,SBD,,,
1,Danielle Pressler,AZ,82.5,77.7,33,170,110,212.5,492.5,F,Open,Single-ply,SBD,,,
1,Charles de Tranaltes,AZ,90,88.1,55,215,170,260,645,M,Masters 55-59,Single-ply,SBD,,175,
1,Suzanne Davis,AZ,60,59.7,47,,113.5,,113.5,F,Open,Raw,B,,,
1,Brandi Morrison,AZ,67.5,65.8,32,,77.5,,77.5,F,Open,Raw,B,,,
1,Suzanne Davis,AZ,60,59.7,47,,113.5,,113.5,F,Masters 45-49,Raw,B,,,
1,Terry O'Neal,AZ,110,108.6,59,,142.5,,142.5,M,Masters 55-59,Raw,B,,,
1,David R Ogden,AZ,140,137.4,59,,75,,75,M,Masters 55-59,Raw,B,,,
1,Rocky Morrison,AZ,125,117.2,34,,227.5,,227.5,M,Open,Single-ply,B,,,
1,Jason Newland,AZ,100,98.8,36,,215,,215,M,Submasters 35-39,Single-ply,B,,,
1,Suzanne Davis,AZ,60,59.7,47,,,210,210,F,Open,Raw,D,,,
1,Suzanne Davis,AZ,60,59.7,47,,,210,210,F,Masters 45-49,Raw,D,,,
1,Lori Christ,NM,60,59.1,63,,,100,100,F,Masters 60-64,Raw,D,,,
1,Nikolas Padilla,AZ,82.5,82.5,14,,,165,165,M,Juniors 13-15,Raw,D,,,170
1,Uriah Williams,AZ,82.5,81.5,23,,,260,260,M,Juniors 20-23,Raw,D,,,
1,Kelley Wolfe,AZ,110,106.8,33,,,290,290,M,Open,Raw,D,,,
1,Sean Dancer,AZ,125,120.3,46,,,277.5,277.5,M,Open,Raw,D,,,
1,David Torres #6,AZ,140+,144.2,24,,,302.5,302.5,M,Open,Raw,D,,,
1,Sean Dancer,AZ,125,120.3,46,,,277.5,277.5,M,Masters 45-49,Raw,D,,,
1,David R Ogden,AZ,140,137.4,59,,,150,150,M,Masters 55-59,Raw,D,,,
1,Patrick Holloway,AZ,140,126,51,,,337.5,337.5,M,Masters 50-54,Single-ply,D,,,
