Name,WeightClassKg,Division,Sex,Best3SquatKg,Best3BenchKg,Best3DeadliftKg,TotalKg,Event,Equipment,Place
K. Emry,52,Open,F,100,65,110,275,SBD,Single-ply,1
N. Jones,48,Natural,F,90,47.5,112.5,250,SBD,Single-ply,1
Le N. Le,52,Natural,F,117.5,85,125,327.5,SBD,Single-ply,1
L. Adams,60,Natural,F,170,82.5,187.5,440,SBD,Single-ply,1
Cynthia Gensler,67.5,Natural,F,137.5,85,185,407.5,SBD,Single-ply,1
K. Gardner,67.5,Natural,F,130,90,150,370,SBD,Single-ply,2
J. Morency,75,Natural,F,95,37.5,112.5,245,SBD,Single-ply,1
Jon Arenberg,60,Natural,M,202.5,135,210,547.5,SBD,Single-ply,1
G. Fernandes,60,Natural,M,92.5,97.5,182.5,372.5,SBD,Single-ply,2
S. Lau,67.5,Natural,M,227.5,132.5,210,570,SBD,Single-ply,1
S. Kato,67.5,Natural,M,207.5,152.5,207.5,567.5,SBD,Single-ply,2
R. Cortes,67.5,Natural,M,182.5,120,220,522.5,SBD,Single-ply,3
C. Balanga,67.5,Natural,M,200,132.5,187.5,520,SBD,Single-ply,4
J. Drake,67.5,Natural,M,200,95,217.5,512.5,SBD,Single-ply,5
A. Nelson,67.5,Natural,M,175,125,155,455,SBD,Single-ply,6
J. Krebs,75,Natural,M,197.5,125,225,547.5,SBD,Single-ply,1
M. Drake,75,Natural,M,205,117.5,220,542.5,SBD,Single-ply,2
G. Jordan,75,Natural,M,190,152.5,185,527.5,SBD,Single-ply,3
G. Baloian,75,Natural,M,182.5,115,215,512.5,SBD,Single-ply,4
R. Lozano,75,Natural,M,170,132.5,200,502.5,SBD,Single-ply,5
T. Britt,75,Natural,M,132.5,105,172.5,410,SBD,Single-ply,6
D. Gilliland,75,Natural,M,,,,,SBD,Single-ply,DQ
P. Surface,75,Natural,M,,,,,SBD,Single-ply,DQ
M. Laney,82.5,Natural,M,265,155,277.5,697.5,SBD,Single-ply,1
J. Carreon,82.5,Natural,M,272.5,160,240,672.5,SBD,Single-ply,2
J. Fragoso,82.5,Natural,M,227.5,152.5,282.5,662.5,SBD,Single-ply,3
C. Meier,82.5,Natural,M,217.5,160,247.5,625,SBD,Single-ply,4
W. Kindred,82.5,Natural,M,200,135,237.5,572.5,SBD,Single-ply,5
J. Neyer,82.5,Natural,M,222.5,122.5,212.5,557.5,SBD,Single-ply,6
M. Garry,82.5,Natural,M,190,105,220,515,SBD,Single-ply,7
J. Williams,82.5,Natural,M,227.5,175,62.5,465,SBD,Single-ply,8
D. Lewandowski,90,Natural,M,262.5,147.5,275,685,SBD,Single-ply,1
C. Quinata,90,Natural,M,227.5,190,212.5,630,SBD,Single-ply,2
R. Willis,90,Natural,M,227.5,170,227.5,625,SBD,Single-ply,3
E. Orlowski,90,Natural,M,197.5,127.5,250,575,SBD,Single-ply,4
J. Patrick,90,Natural,M,150,140,227.5,517.5,SBD,Single-ply,5
Michael Womelsdorf,90,Natural,M,165,110,182.5,457.5,SBD,Single-ply,6
R. Kegel,90,Natural,M,145,125,177.5,447.5,SBD,Single-ply,7
G. Muro,100,Natural,M,237.5,145,250,632.5,SBD,Single-ply,1
D. Smith III,100,Natural,M,102.5,205,200,507.5,SBD,Single-ply,2
C. Bell,100,Natural,M,,,,,SBD,Single-ply,DQ
K. Jones,110,Natural,M,312.5,192.5,280,785,SBD,Single-ply,1
W. Cracknell,110,Natural,M,257.5,170,260,687.5,SBD,Single-ply,2
R. Hargrave,110,Natural,M,227.5,140,237.5,605,SBD,Single-ply,3
Art LaBare,110,Natural,M,,,,,SBD,Single-ply,DQ
Mike O'Hearn,125,Natural,M,295,205,295,795,SBD,Single-ply,1
Troy Morris,125,Natural,M,295,190,287.5,772.5,SBD,Single-ply,2
K. Scott,125,Natural,M,262.5,192.5,277.5,732.5,SBD,Single-ply,3
D. Tooker,125,Natural,M,205,160,260,625,SBD,Single-ply,4
C. Milligan,125,Natural,M,235,150,227.5,612.5,SBD,Single-ply,5
M. Morrissette,125,Natural,M,227.5,137.5,227.5,592.5,SBD,Single-ply,6
Richard Schoenburger,125+,Natural,M,62.5,275,62.5,400,SBD,Single-ply,1
S. Lau,67.5,Open,M,227.5,132.5,210,570,SBD,Single-ply,1
J. Drake,67.5,Open,M,200,95,217.5,512.5,SBD,Single-ply,2
C. Meier,82.5,Open,M,217.5,160,247.5,625,SBD,Single-ply,1
J. Lem,82.5,Open,M,65,65,240,370,SBD,Single-ply,2
R. Fedkiw,90,Open,M,310,210,302.5,822.5,SBD,Single-ply,1
B. Jasperson,90,Open,M,272.5,165,255,692.5,SBD,Single-ply,2
J. Dean,90,Open,M,235,137.5,237.5,610,SBD,Single-ply,3
J. Patrick,90,Open,M,150,140,227.5,517.5,SBD,Single-ply,4
Scott Roberts,100,Open,M,320,205,305,830,SBD,Single-ply,1
Everald Foster,100,Open,M,265,157.5,320,742.5,SBD,Single-ply,2
A. Morentin,100,Open,M,,,,,SBD,Single-ply,DQ
D. Bullard,100,Open,M,,,,,SBD,Single-ply,DQ
Anthony Hardridge,110,Open,M,382.5,227.5,320,930,SBD,Single-ply,1
G. Hogan,110,Open,M,272.5,152.5,320,745,SBD,Single-ply,2
R. Casio,110,Open,M,272.5,192.5,272.5,737.5,SBD,Single-ply,3
Steve Denison,125,Open,M,305,217.5,305,827.5,SBD,Single-ply,1
P. Leonard,125,Open,M,300,187.5,320,807.5,SBD,Single-ply,2
B. Meek,125,Open,M,310,202.5,290,802.5,SBD,Single-ply,3
S. McRitchie,125,Open,M,275,205,297.5,777.5,SBD,Single-ply,4
Troy Morris,125,Open,M,295,190,287.5,772.5,SBD,Single-ply,5
C. Milligan,125,Open,M,235,150,227.5,612.5,SBD,Single-ply,6
G. Garcia,125,Open,M,,,,,SBD,Single-ply,DQ
H. Hill,125+,Open,M,385,227.5,342.5,955,SBD,Single-ply,1
T. Tait,125+,Open,M,317.5,205,290,812.5,SBD,Single-ply,2
R. Perkins,125+,Open,M,260,215,287.5,762.5,SBD,Single-ply,3
Richard Schoenburger,125+,Open,M,62.5,275,62.5,400,SBD,Single-ply,4
